%!PS-Adobe-3.0 EPSF-3.0
%%Title: plotdelE_log.eps
%%Creator: matplotlib version 1.4.3, http://matplotlib.org/
%%CreationDate: Mon May 25 16:54:51 2015
%%Orientation: portrait
%%BoundingBox: 18 180 594 612
%%EndComments
%%BeginProlog
/mpldict 10 dict def
mpldict begin
/m { moveto } bind def
/l { lineto } bind def
/r { rlineto } bind def
/c { curveto } bind def
/cl { closepath } bind def
/box {
m
1 index 0 r
0 exch r
neg 0 r
cl
} bind def
/clipbox {
box
clip
newpath
} bind def
%!PS-Adobe-3.0 Resource-Font
%%Title: cmr10
%%Copyright: Copyright (C) 1994, Basil K. Malyshev. All Rights Reserved.012BaKoMa Fonts Collection, Level-B.
%%Creator: Converted from TrueType to type 3 by PPR
25 dict begin
/_d{bind def}bind def
/_m{moveto}_d
/_l{lineto}_d
/_cl{closepath eofill}_d
/_c{curveto}_d
/_sc{7 -1 roll{setcachedevice}{pop pop pop pop pop pop}ifelse}_d
/_e{exec}_d
/FontName /Cmr10 def
/PaintType 0 def
/FontMatrix[.001 0 0 .001 0 0]def
/FontBBox[-44 -250 1009 750]def
/FontType 3 def
/Encoding [ /Delta /g /o /parenright /l /parenleft ] def
/FontInfo 10 dict dup begin
/FamilyName (cmr10) def
/FullName (cmr10) def
/Notice (Copyright (C) 1994, Basil K. Malyshev. All Rights Reserved.012BaKoMa Fonts Collection, Level-B. ) def
/Weight (Regular) def
/Version (1.1/12-Nov-94) def
/ItalicAngle 0.0 def
/isFixedPitch false def
/UnderlinePosition -133 def
/UnderlineThickness 20 def
end readonly def
/CharStrings 6 dict dup begin
/Delta{833 0 46 0 786 716 _sc
54 0 _m
48 0 46 2 46 8 _c
46 8 46 9 46 9 _c
46 9 47 10 47 11 _c
391 705 _l
394 712 400 716 409 716 _c
423 716 _l
432 716 438 712 441 705 _c
785 11 _l
785 10 786 9 786 9 _c
786 9 786 8 786 8 _c
786 2 783 0 778 0 _c
54 0 _l
120 80 _m
647 80 _l
384 611 _l
120 80 _l
_cl}_d
/g{{500 0 28 -205 485 453 _sc
28 -77 _m
28 -53 36 -32 54 -15 _c
71 2 91 14 115 22 _c
101 32 91 44 84 60 _c
77 75 74 91 74 109 _c
74 140 84 168 104 192 _c
73 222 58 256 58 295 _c
58 315 62 335 71 353 _c
80 371 93 387 109 401 _c
125 414 142 424 162 431 _c
181 438 201 442 222 442 _c
262 442 297 430 329 407 _c
343 421 359 433 378 441 _c
}_e{396 449 416 453 436 453 _c
450 453 462 447 471 437 _c
480 427 485 415 485 401 _c
485 393 481 385 475 379 _c
469 373 462 370 454 370 _c
445 370 438 373 432 379 _c
426 385 423 393 423 401 _c
423 413 427 421 435 427 _c
400 427 370 415 346 391 _c
358 379 367 364 375 347 _c
382 329 386 312 386 295 _c
386 266 378 240 362 218 _c
346 196 326 178 301 166 _c
}_e{275 153 249 147 222 147 _c
185 147 152 157 122 177 _c
112 163 108 149 108 133 _c
108 115 113 99 125 86 _c
137 73 151 67 169 67 _c
251 67 _l
291 67 326 63 358 56 _c
390 48 416 34 438 13 _c
460 -7 471 -37 471 -77 _c
471 -106 458 -130 434 -150 _c
409 -169 379 -183 345 -192 _c
311 -200 279 -205 250 -205 _c
220 -205 188 -200 154 -192 _c
119 -183 89 -169 65 -150 _c
}_e{40 -130 28 -106 28 -77 _c
84 -77 _m
84 -99 93 -118 111 -133 _c
129 -148 151 -159 177 -167 _c
203 -174 227 -178 250 -178 _c
272 -178 296 -174 322 -167 _c
348 -159 370 -148 388 -133 _c
406 -118 415 -99 415 -77 _c
415 -42 399 -20 367 -10 _c
335 0 296 5 251 5 _c
169 5 _l
153 5 139 1 126 -5 _c
113 -12 103 -22 95 -36 _c
87 -49 84 -63 84 -77 _c
222 174 _m
}_e{278 174 307 214 307 295 _c
307 329 301 358 289 381 _c
277 403 254 415 222 415 _c
189 415 167 403 155 381 _c
143 358 137 329 137 295 _c
137 273 139 253 144 235 _c
148 217 157 202 169 191 _c
181 179 199 174 222 174 _c
_cl}_e}_d
/o{{500 0 28 -10 471 448 _sc
250 -10 _m
210 -10 172 0 138 20 _c
104 40 77 67 57 101 _c
37 135 28 172 28 213 _c
28 243 33 273 44 301 _c
55 329 71 355 91 377 _c
111 399 135 417 162 429 _c
189 441 218 448 250 448 _c
291 448 328 437 362 415 _c
396 393 422 364 442 328 _c
461 292 471 253 471 213 _c
471 173 461 135 441 101 _c
421 67 395 40 361 20 _c
}_e{327 0 290 -10 250 -10 _c
250 18 _m
303 18 339 37 357 76 _c
375 114 384 164 384 224 _c
384 257 382 285 378 307 _c
374 329 367 349 355 367 _c
347 378 338 388 326 396 _c
314 404 302 411 290 415 _c
277 419 264 422 250 422 _c
229 422 209 417 191 408 _c
172 398 156 385 144 367 _c
131 348 123 327 120 305 _c
116 282 115 255 115 224 _c
115 186 118 153 125 123 _c
}_e{131 93 144 68 164 48 _c
184 28 212 18 250 18 _c
_cl}_e}_d
/parenright{{388 0 56 -249 291 750 _sc
65 -249 _m
59 -249 56 -246 56 -240 _c
56 -237 56 -235 58 -234 _c
172 -122 229 38 229 250 _c
229 462 172 623 60 733 _c
57 734 56 737 56 741 _c
56 743 57 745 59 747 _c
61 749 63 750 65 750 _c
74 750 _l
76 750 77 749 79 748 _c
127 710 167 664 199 610 _c
231 556 254 498 269 437 _c
283 376 291 314 291 250 _c
291 202 287 156 279 110 _c
}_e{271 64 258 20 241 -24 _c
223 -68 201 -108 175 -146 _c
148 -184 116 -217 79 -247 _c
77 -248 76 -249 74 -249 _c
65 -249 _l
_cl}_e}_d
/l{277 0 31 0 257 694 _sc
31 0 _m
31 35 _l
53 35 72 36 87 40 _c
101 44 109 53 109 67 _c
109 592 _l
109 610 106 623 101 631 _c
95 639 88 643 78 645 _c
68 647 52 648 31 648 _c
31 683 _l
179 694 _l
179 67 _l
179 53 186 44 201 40 _c
215 36 234 35 257 35 _c
257 0 _l
31 0 _l
_cl}_d
/parenleft{{388 0 97 -249 332 750 _sc
310 -247 _m
272 -217 240 -184 214 -146 _c
187 -108 165 -67 148 -25 _c
131 17 118 62 110 109 _c
101 155 97 202 97 250 _c
97 298 101 345 110 392 _c
118 438 131 483 149 527 _c
166 570 188 611 215 649 _c
242 687 274 720 310 748 _c
310 749 311 750 315 750 _c
324 750 _l
326 750 327 749 329 747 _c
331 745 332 743 332 741 _c
332 738 331 736 330 735 _c
}_e{297 703 270 668 248 632 _c
226 596 209 557 196 516 _c
183 474 174 432 168 388 _c
162 344 159 298 159 250 _c
159 38 215 -122 329 -232 _c
331 -234 332 -236 332 -240 _c
332 -242 331 -244 329 -246 _c
327 -248 326 -249 324 -249 _c
315 -249 _l
311 -249 310 -248 310 -247 _c
_cl}_e}_d
end readonly def

/BuildGlyph
 {exch begin
 CharStrings exch
 2 copy known not{pop /.notdef}if
 true 3 1 roll get exec
 end}_d

/BuildChar {
 1 index /Encoding get exch get
 1 index /BuildGlyph get exec
}_d

FontName currentdict end definefont pop
%!PS-Adobe-3.0 Resource-Font
%%Title: Bitstream Vera Sans
%%Copyright: Copyright (c) 2003 by Bitstream, Inc. All Rights Reserved.
%%Creator: Converted from TrueType to type 3 by PPR
25 dict begin
/_d{bind def}bind def
/_m{moveto}_d
/_l{lineto}_d
/_cl{closepath eofill}_d
/_c{curveto}_d
/_sc{7 -1 roll{setcachedevice}{pop pop pop pop pop pop}ifelse}_d
/_e{exec}_d
/FontName /BitstreamVeraSans-Roman def
/PaintType 0 def
/FontMatrix[.001 0 0 .001 0 0]def
/FontBBox[-183 -236 1287 928]def
/FontType 3 def
/Encoding [ /period /zero /one /two /three /four /five /six /seven /eight /nine /minus ] def
/FontInfo 10 dict dup begin
/FamilyName (Bitstream Vera Sans) def
/FullName (Bitstream Vera Sans) def
/Notice (Copyright (c) 2003 by Bitstream, Inc. All Rights Reserved. Bitstream Vera is a trademark of Bitstream, Inc.) def
/Weight (Roman) def
/Version (Release 1.10) def
/ItalicAngle 0.0 def
/isFixedPitch false def
/UnderlinePosition -213 def
/UnderlineThickness 143 def
end readonly def
/CharStrings 12 dict dup begin
/period{318 0 107 0 210 124 _sc
107 124 _m
210 124 _l
210 0 _l
107 0 _l
107 124 _l
_cl}_d
/zero{636 0 66 -13 570 742 _sc
318 664 _m
267 664 229 639 203 589 _c
177 539 165 464 165 364 _c
165 264 177 189 203 139 _c
229 89 267 64 318 64 _c
369 64 407 89 433 139 _c
458 189 471 264 471 364 _c
471 464 458 539 433 589 _c
407 639 369 664 318 664 _c
318 742 _m
399 742 461 709 505 645 _c
548 580 570 486 570 364 _c
570 241 548 147 505 83 _c
461 19 399 -13 318 -13 _c
236 -13 173 19 130 83 _c
87 147 66 241 66 364 _c
66 486 87 580 130 645 _c
173 709 236 742 318 742 _c
_cl}_d
/one{636 0 110 0 544 729 _sc
124 83 _m
285 83 _l
285 639 _l
110 604 _l
110 694 _l
284 729 _l
383 729 _l
383 83 _l
544 83 _l
544 0 _l
124 0 _l
124 83 _l
_cl}_d
/two{{636 0 73 0 536 742 _sc
192 83 _m
536 83 _l
536 0 _l
73 0 _l
73 83 _l
110 121 161 173 226 239 _c
290 304 331 346 348 365 _c
380 400 402 430 414 455 _c
426 479 433 504 433 528 _c
433 566 419 598 392 622 _c
365 646 330 659 286 659 _c
255 659 222 653 188 643 _c
154 632 117 616 78 594 _c
78 694 _l
118 710 155 722 189 730 _c
223 738 255 742 284 742 _c
}_e{359 742 419 723 464 685 _c
509 647 532 597 532 534 _c
532 504 526 475 515 449 _c
504 422 484 390 454 354 _c
446 344 420 317 376 272 _c
332 227 271 164 192 83 _c
_cl}_e}_d
/three{{636 0 76 -13 556 742 _sc
406 393 _m
453 383 490 362 516 330 _c
542 298 556 258 556 212 _c
556 140 531 84 482 45 _c
432 6 362 -13 271 -13 _c
240 -13 208 -10 176 -4 _c
144 1 110 10 76 22 _c
76 117 _l
103 101 133 89 166 81 _c
198 73 232 69 268 69 _c
330 69 377 81 409 105 _c
441 129 458 165 458 212 _c
458 254 443 288 413 312 _c
383 336 341 349 287 349 _c
}_e{202 349 _l
202 430 _l
291 430 _l
339 430 376 439 402 459 _c
428 478 441 506 441 543 _c
441 580 427 609 401 629 _c
374 649 336 659 287 659 _c
260 659 231 656 200 650 _c
169 644 135 635 98 623 _c
98 711 _l
135 721 170 729 203 734 _c
235 739 266 742 296 742 _c
370 742 429 725 473 691 _c
517 657 539 611 539 553 _c
539 513 527 479 504 451 _c
481 423 448 403 406 393 _c
_cl}_e}_d
/four{636 0 49 0 580 729 _sc
378 643 _m
129 254 _l
378 254 _l
378 643 _l
352 729 _m
476 729 _l
476 254 _l
580 254 _l
580 172 _l
476 172 _l
476 0 _l
378 0 _l
378 172 _l
49 172 _l
49 267 _l
352 729 _l
_cl}_d
/five{{636 0 77 -13 549 729 _sc
108 729 _m
495 729 _l
495 646 _l
198 646 _l
198 467 _l
212 472 227 476 241 478 _c
255 480 270 482 284 482 _c
365 482 429 459 477 415 _c
525 370 549 310 549 234 _c
549 155 524 94 475 51 _c
426 8 357 -13 269 -13 _c
238 -13 207 -10 175 -6 _c
143 -1 111 6 77 17 _c
77 116 _l
106 100 136 88 168 80 _c
199 72 232 69 267 69 _c
}_e{323 69 368 83 401 113 _c
433 143 450 183 450 234 _c
450 284 433 324 401 354 _c
368 384 323 399 267 399 _c
241 399 214 396 188 390 _c
162 384 135 375 108 363 _c
108 729 _l
_cl}_e}_d
/six{{636 0 70 -13 573 742 _sc
330 404 _m
286 404 251 388 225 358 _c
199 328 186 286 186 234 _c
186 181 199 139 225 109 _c
251 79 286 64 330 64 _c
374 64 409 79 435 109 _c
461 139 474 181 474 234 _c
474 286 461 328 435 358 _c
409 388 374 404 330 404 _c
526 713 _m
526 623 _l
501 635 476 644 451 650 _c
425 656 400 659 376 659 _c
310 659 260 637 226 593 _c
}_e{192 549 172 482 168 394 _c
187 422 211 444 240 459 _c
269 474 301 482 336 482 _c
409 482 467 459 509 415 _c
551 371 573 310 573 234 _c
573 159 550 99 506 54 _c
462 9 403 -13 330 -13 _c
246 -13 181 19 137 83 _c
92 147 70 241 70 364 _c
70 479 97 571 152 639 _c
206 707 280 742 372 742 _c
396 742 421 739 447 735 _c
472 730 498 723 526 713 _c
_cl}_e}_d
/seven{636 0 82 0 551 729 _sc
82 729 _m
551 729 _l
551 687 _l
286 0 _l
183 0 _l
432 646 _l
82 646 _l
82 729 _l
_cl}_d
/eight{{636 0 68 -13 568 742 _sc
318 346 _m
271 346 234 333 207 308 _c
180 283 167 249 167 205 _c
167 161 180 126 207 101 _c
234 76 271 64 318 64 _c
364 64 401 76 428 102 _c
455 127 469 161 469 205 _c
469 249 455 283 429 308 _c
402 333 365 346 318 346 _c
219 388 _m
177 398 144 418 120 447 _c
96 476 85 511 85 553 _c
85 611 105 657 147 691 _c
188 725 245 742 318 742 _c
}_e{390 742 447 725 489 691 _c
530 657 551 611 551 553 _c
551 511 539 476 515 447 _c
491 418 459 398 417 388 _c
464 377 501 355 528 323 _c
554 291 568 251 568 205 _c
568 134 546 80 503 43 _c
459 5 398 -13 318 -13 _c
237 -13 175 5 132 43 _c
89 80 68 134 68 205 _c
68 251 81 291 108 323 _c
134 355 171 377 219 388 _c
183 544 _m
183 506 194 476 218 455 _c
}_e{242 434 275 424 318 424 _c
360 424 393 434 417 455 _c
441 476 453 506 453 544 _c
453 582 441 611 417 632 _c
393 653 360 664 318 664 _c
275 664 242 653 218 632 _c
194 611 183 582 183 544 _c
_cl}_e}_d
/nine{{636 0 63 -13 566 742 _sc
110 15 _m
110 105 _l
134 93 159 84 185 78 _c
210 72 235 69 260 69 _c
324 69 374 90 408 134 _c
442 178 462 244 468 334 _c
448 306 424 284 396 269 _c
367 254 335 247 300 247 _c
226 247 168 269 126 313 _c
84 357 63 417 63 494 _c
63 568 85 628 129 674 _c
173 719 232 742 306 742 _c
390 742 455 709 499 645 _c
543 580 566 486 566 364 _c
}_e{566 248 538 157 484 89 _c
429 21 356 -13 264 -13 _c
239 -13 214 -10 189 -6 _c
163 -2 137 5 110 15 _c
306 324 _m
350 324 385 339 411 369 _c
437 399 450 441 450 494 _c
450 546 437 588 411 618 _c
385 648 350 664 306 664 _c
262 664 227 648 201 618 _c
175 588 162 546 162 494 _c
162 441 175 399 201 369 _c
227 339 262 324 306 324 _c
_cl}_e}_d
/minus{838 0 106 272 732 355 _sc
106 355 _m
732 355 _l
732 272 _l
106 272 _l
106 355 _l
_cl}_d
end readonly def

/BuildGlyph
 {exch begin
 CharStrings exch
 2 copy known not{pop /.notdef}if
 true 3 1 roll get exec
 end}_d

/BuildChar {
 1 index /Encoding get exch get
 1 index /BuildGlyph get exec
}_d

FontName currentdict end definefont pop
%!PS-Adobe-3.0 Resource-Font
%%Title: cmmi10
%%Copyright: Copyright (C) 1994, Basil K. Malyshev. All Rights Reserved.012BaKoMa Fonts Collection, Level-B.
%%Creator: Converted from TrueType to type 3 by PPR
25 dict begin
/_d{bind def}bind def
/_m{moveto}_d
/_l{lineto}_d
/_cl{closepath eofill}_d
/_c{curveto}_d
/_sc{7 -1 roll{setcachedevice}{pop pop pop pop pop pop}ifelse}_d
/_e{exec}_d
/FontName /Cmmi10 def
/PaintType 0 def
/FontMatrix[.001 0 0 .001 0 0]def
/FontBBox[-34 -250 1048 750]def
/FontType 3 def
/Encoding [ /delta /t /E ] def
/FontInfo 10 dict dup begin
/FamilyName (cmmi10) def
/FullName (cmmi10) def
/Notice (Copyright (C) 1994, Basil K. Malyshev. All Rights Reserved.012BaKoMa Fonts Collection, Level-B. ) def
/Weight (Regular) def
/Version (1.1/12-Nov-94) def
/ItalicAngle 0.0 def
/isFixedPitch false def
/UnderlinePosition -133 def
/UnderlineThickness 20 def
end readonly def
/CharStrings 3 dict dup begin
/delta{{444 0 40 -14 451 713 _sc
200 -14 _m
177 -14 156 -9 136 -1 _c
116 7 98 19 84 35 _c
69 51 58 70 51 90 _c
43 110 40 131 40 155 _c
40 196 49 236 69 276 _c
89 315 116 349 150 378 _c
184 406 221 426 261 436 _c
241 472 226 503 216 529 _c
206 555 201 582 201 610 _c
201 630 205 647 215 663 _c
224 679 237 691 254 700 _c
270 708 289 713 310 713 _c
}_e{330 713 369 706 428 693 _c
443 689 451 680 451 666 _c
451 654 447 644 439 635 _c
431 626 421 622 410 622 _c
402 622 394 623 388 627 _c
381 631 371 637 357 647 _c
343 657 330 664 319 669 _c
308 674 297 677 285 677 _c
271 677 259 672 248 664 _c
237 656 232 645 232 632 _c
232 610 241 586 260 559 _c
278 531 305 496 340 453 _c
379 403 399 347 399 287 _c
}_e{399 257 394 224 386 190 _c
377 155 364 122 348 91 _c
332 60 311 35 285 15 _c
259 -4 231 -14 200 -14 _c
202 12 _m
228 12 250 25 269 52 _c
287 79 301 111 311 149 _c
321 186 326 217 326 243 _c
326 293 308 349 274 411 _c
238 401 208 380 183 349 _c
157 318 138 282 125 242 _c
112 201 106 162 106 126 _c
106 94 114 67 131 45 _c
147 23 171 12 202 12 _c
_cl}_e}_d
/t{{361 0 22 -10 330 626 _sc
62 81 _m
62 91 63 100 65 109 _c
137 396 _l
32 396 _l
25 396 22 400 22 409 _c
24 423 29 431 35 431 _c
146 431 _l
186 594 _l
188 602 193 610 201 616 _c
209 622 218 626 228 626 _c
236 626 243 623 249 618 _c
255 613 258 606 258 598 _c
258 596 257 594 257 593 _c
257 592 257 591 257 590 _c
217 431 _l
320 431 _l
326 431 330 426 330 418 _c
}_e{330 416 329 414 328 410 _c
327 406 326 402 324 400 _c
322 397 320 396 317 396 _c
208 396 _l
136 107 _l
131 88 129 72 129 58 _c
129 29 138 15 158 15 _c
187 15 213 28 236 56 _c
258 84 276 114 288 147 _c
290 151 293 153 296 153 _c
308 153 _l
310 153 312 152 314 150 _c
316 148 317 146 317 144 _c
317 142 316 141 316 141 _c
301 101 280 65 252 35 _c
}_e{224 5 192 -10 156 -10 _c
129 -10 107 -1 89 15 _c
71 32 62 54 62 81 _c
_cl}_e}_d
/E{{738 0 37 0 764 683 _sc
47 0 _m
40 0 37 4 37 13 _c
37 15 38 18 39 22 _c
40 26 41 29 43 31 _c
45 33 47 35 50 35 _c
90 35 119 37 135 42 _c
143 44 150 53 154 69 _c
291 618 _l
292 624 293 629 293 632 _c
293 639 289 643 281 644 _c
268 646 244 648 209 648 _c
202 648 199 652 199 661 _c
199 663 200 666 201 670 _c
202 674 203 677 205 679 _c
}_e{207 681 209 683 212 683 _c
754 683 _l
760 683 764 678 764 670 _c
740 463 _l
740 461 738 459 736 457 _c
734 455 732 454 730 454 _c
721 454 _l
714 454 711 458 711 467 _c
715 499 717 523 717 539 _c
717 565 712 586 703 601 _c
693 616 681 627 666 633 _c
651 639 634 643 616 645 _c
598 647 574 648 544 648 _c
430 648 _l
412 648 400 646 394 643 _c
388 640 382 630 378 614 _c
}_e{318 372 _l
396 372 _l
430 372 455 374 473 379 _c
490 383 504 393 514 408 _c
524 423 533 447 541 480 _c
541 482 542 484 544 486 _c
546 488 548 489 551 489 _c
560 489 _l
566 489 570 484 570 476 _c
508 229 _l
506 223 503 220 498 220 _c
489 220 _l
482 220 479 224 479 233 _c
485 259 489 279 489 292 _c
489 311 480 323 462 329 _c
444 334 421 337 392 337 _c
309 337 _l
}_e{241 65 _l
238 57 237 49 237 43 _c
237 37 248 35 271 35 _c
392 35 _l
440 35 479 38 509 46 _c
539 54 563 66 583 82 _c
603 98 620 119 634 145 _c
648 170 666 207 687 256 _c
688 260 691 262 696 262 _c
705 262 _l
707 262 710 260 712 258 _c
714 256 715 253 715 251 _c
715 249 714 248 714 247 _c
611 6 _l
609 2 607 0 603 0 _c
47 0 _l
_cl}_e}_d
end readonly def

/BuildGlyph
 {exch begin
 CharStrings exch
 2 copy known not{pop /.notdef}if
 true 3 1 roll get exec
 end}_d

/BuildChar {
 1 index /Encoding get exch get
 1 index /BuildGlyph get exec
}_d

FontName currentdict end definefont pop
end
%%EndProlog
mpldict begin
18 180 translate
576 432 0 0 clipbox
gsave
0 0 m
576 0 l
576 432 l
0 432 l
cl
1.000 setgray
fill
grestore
gsave
72 43.2 m
518.4 43.2 l
518.4 388.8 l
72 388.8 l
cl
1.000 setgray
fill
grestore
0.500 setlinewidth
1 setlinejoin
0 setlinecap
[] 0 setdash
0.000 setgray
gsave
446.4 345.6 72 43.2 clipbox
/o {
gsave
newpath
translate
0.5 setlinewidth
1 setlinejoin
0 setlinecap
0 -3 m
0.795609 -3 1.55874 -2.6839 2.12132 -2.12132 c
2.6839 -1.55874 3 -0.795609 3 0 c
3 0.795609 2.6839 1.55874 2.12132 2.12132 c
1.55874 2.6839 0.795609 3 0 3 c
-0.795609 3 -1.55874 2.6839 -2.12132 2.12132 c
-2.6839 1.55874 -3 0.795609 -3 0 c
-3 -0.795609 -2.6839 -1.55874 -2.12132 -2.12132 c
-1.55874 -2.6839 -0.795609 -3 0 -3 c
cl
gsave
1.000 0.000 0.000 setrgbcolor
fill
grestore
stroke
grestore
} bind def
513.597 382.032 o
491.461 364.845 o
473.375 350.827 o
458.083 338.991 o
444.837 328.755 o
433.153 319.7 o
422.701 311.614 o
413.246 304.354 o
404.615 297.61 o
396.674 291.51 o
389.323 285.83 o
382.479 280.493 o
376.077 275.52 o
370.063 270.879 o
364.393 266.512 o
359.029 262.378 o
353.941 258.447 o
349.101 254.7 o
344.486 251.121 o
340.076 247.7 o
335.854 244.422 o
331.805 241.279 o
327.914 238.26 o
324.17 235.356 o
320.563 232.558 o
317.082 229.86 o
313.719 227.253 o
310.466 224.734 o
307.316 222.294 o
304.264 219.93 o
301.302 217.638 o
298.427 215.412 o
295.632 213.248 o
292.914 211.145 o
290.269 209.097 o
287.692 207.103 o
285.181 205.16 o
282.731 203.264 o
280.341 201.415 o
278.006 199.608 o
275.726 197.844 o
273.496 196.119 o
271.316 194.432 o
269.183 192.781 o
267.094 191.165 o
265.049 189.582 o
263.045 188.031 o
261.08 186.511 o
259.154 185.021 o
257.264 183.559 o
255.41 182.124 o
253.59 180.715 o
251.803 179.332 o
250.047 177.973 o
248.321 176.638 o
246.626 175.326 o
244.958 174.036 o
243.319 172.767 o
241.706 171.518 o
240.118 170.29 o
238.556 169.081 o
237.018 167.891 o
235.504 166.719 o
234.012 165.564 o
232.542 164.427 o
231.094 163.306 o
229.667 162.201 o
228.26 161.112 o
226.872 160.038 o
225.504 158.979 o
224.154 157.935 o
222.823 156.904 o
221.509 155.887 o
220.212 154.884 o
218.932 153.893 o
217.668 152.915 o
216.42 151.949 o
215.188 150.995 o
213.971 150.053 o
212.768 149.122 o
211.58 148.203 o
210.406 147.294 o
209.246 146.396 o
208.099 145.508 o
206.966 144.631 o
205.845 143.763 o
204.736 142.905 o
203.64 142.057 o
202.556 141.218 o
201.484 140.387 o
200.423 139.566 o
199.373 138.754 o
198.334 137.95 o
197.306 137.154 o
196.289 136.366 o
195.282 135.587 o
194.285 134.815 o
193.297 134.051 o
192.32 133.294 o
191.352 132.545 o
190.394 131.803 o
189.445 131.069 o
188.504 130.341 o
187.573 129.62 o
186.65 128.905 o
185.736 128.198 o
184.83 127.496 o
183.932 126.801 o
183.042 126.113 o
182.161 125.43 o
181.287 124.754 o
180.42 124.083 o
179.561 123.418 o
178.71 122.759 o
177.865 122.105 o
177.028 121.457 o
176.198 120.815 o
175.375 120.177 o
174.559 119.545 o
173.749 118.918 o
172.945 118.297 o
172.149 117.68 o
171.358 117.068 o
170.574 116.461 o
169.796 115.859 o
169.024 115.261 o
168.258 114.668 o
167.498 114.08 o
166.743 113.496 o
165.995 112.916 o
165.252 112.341 o
164.514 111.77 o
163.782 111.203 o
163.055 110.641 o
162.334 110.082 o
161.618 109.528 o
160.906 108.977 o
160.2 108.43 o
159.499 107.888 o
158.803 107.349 o
158.112 106.814 o
157.425 106.282 o
156.744 105.754 o
156.066 105.23 o
155.394 104.71 o
154.726 104.192 o
154.062 103.679 o
153.403 103.169 o
152.748 102.662 o
152.098 102.158 o
151.452 101.658 o
150.81 101.161 o
150.172 100.667 o
149.538 100.176 o
148.908 99.6886 o
148.282 99.2041 o
147.66 98.7226 o
147.042 98.2441 o
146.428 97.7686 o
145.817 97.296 o
145.211 96.8263 o
144.608 96.3595 o
144.008 95.8954 o
143.412 95.4342 o
142.82 94.9757 o
142.231 94.52 o
141.646 94.0669 o
141.064 93.6165 o
140.486 93.1687 o
139.911 92.7235 o
139.339 92.2809 o
138.771 91.8408 o
138.205 91.4032 o
137.643 90.9681 o
137.084 90.5354 o
136.529 90.1052 o
135.976 89.6774 o
135.426 89.2519 o
134.88 88.8288 o
134.336 88.408 o
133.796 87.9895 o
133.258 87.5732 o
132.723 87.1592 o
132.191 86.7475 o
131.662 86.3379 o
131.136 85.9305 o
130.613 85.5252 o
130.092 85.1221 o
129.574 84.721 o
129.059 84.3221 o
128.546 83.9252 o
128.036 83.5304 o
127.528 83.1376 o
127.024 82.7467 o
126.521 82.3579 o
126.022 81.971 o
125.524 81.5861 o
125.03 81.203 o
124.537 80.8219 o
124.047 80.4427 o
123.56 80.0653 o
123.075 79.6897 o
122.592 79.316 o
122.112 78.9441 o
121.634 78.574 o
121.158 78.2057 o
120.684 77.8391 o
120.213 77.4743 o
119.744 77.1112 o
119.277 76.7498 o
118.813 76.3901 o
118.35 76.032 o
117.89 75.6757 o
117.432 75.3209 o
116.975 74.9679 o
116.521 74.6164 o
116.07 74.2665 o
115.62 73.9182 o
115.172 73.5715 o
114.726 73.2263 o
114.282 72.8827 o
113.84 72.5406 o
113.4 72.2001 o
112.962 71.861 o
112.526 71.5234 o
112.092 71.1873 o
111.66 70.8527 o
111.23 70.5195 o
110.801 70.1878 o
110.374 69.8575 o
109.95 69.5286 o
109.527 69.2011 o
109.105 68.875 o
108.686 68.5503 o
108.268 68.2269 o
107.852 67.9049 o
107.438 67.5842 o
107.026 67.2649 o
106.615 66.9469 o
106.206 66.6302 o
105.798 66.3148 o
105.393 66.0007 o
104.989 65.6879 o
104.586 65.3763 o
104.185 65.066 o
103.786 64.757 o
103.388 64.4492 o
102.992 64.1426 o
102.598 63.8373 o
102.205 63.5331 o
101.814 63.2302 o
101.424 62.9284 o
101.036 62.6278 o
100.649 62.3284 o
100.264 62.0302 o
99.8801 61.7331 o
99.4978 61.4371 o
99.117 61.1423 o
98.7376 60.8486 o
98.3597 60.5561 o
97.9833 60.2646 o
97.6082 59.9743 o
97.2346 59.685 o
96.8623 59.3968 o
96.4915 59.1097 o
96.122 58.8237 o
95.7539 58.5387 o
95.3872 58.2548 o
95.0218 57.972 o
94.6578 57.6901 o
94.2951 57.4093 o
93.9337 57.1295 o
93.5736 56.8508 o
93.2149 56.573 o
92.8574 56.2963 o
92.5012 56.0205 o
92.1463 55.7458 o
91.7926 55.472 o
91.4402 55.1991 o
91.0891 54.9273 o
90.7392 54.6564 o
90.3905 54.3865 o
90.043 54.1175 o
89.6968 53.8494 o
89.3517 53.5823 o
89.0079 53.3161 o
88.6652 53.0508 o
88.3237 52.7864 o
87.9834 52.523 o
87.6443 52.2604 o
87.3063 51.9987 o
86.9694 51.738 o
86.6337 51.4781 o
86.2992 51.2191 o
85.9657 50.9609 o
85.6334 50.7036 o
grestore
1.000 setlinewidth
2 setlinecap
0.000 0.000 1.000 setrgbcolor
gsave
446.4 345.6 72 43.2 clipbox
513.597 382.032 m
85.6334 50.7057 l
85.6334 50.7057 l
stroke
grestore
0 setlinejoin
0.000 setgray
gsave
72 388.8 m
518.4 388.8 l
stroke
grestore
gsave
518.4 43.2 m
518.4 388.8 l
stroke
grestore
gsave
72 43.2 m
518.4 43.2 l
stroke
grestore
gsave
72 43.2 m
72 388.8 l
stroke
grestore
0.500 setlinewidth
1 setlinejoin
0 setlinecap
gsave
/o {
gsave
newpath
translate
0.5 setlinewidth
1 setlinejoin
0 setlinecap
0 0 m
0 4 l
gsave
0.000 setgray
fill
grestore
stroke
grestore
} bind def
72 43.2 o
grestore
gsave
/o {
gsave
newpath
translate
0.5 setlinewidth
1 setlinejoin
0 setlinecap
0 0 m
0 -4 l
gsave
0.000 setgray
fill
grestore
stroke
grestore
} bind def
72 388.8 o
grestore
/BitstreamVeraSans-Roman findfont
12.000 scalefont
setfont
gsave
58.453125 30.075000 translate
0.000000 rotate
0.000000 0.000000 m /minus glyphshow
10.054688 0.000000 m /four glyphshow
17.689453 0.000000 m /period glyphshow
21.503906 0.000000 m /zero glyphshow
grestore
gsave
/o {
gsave
newpath
translate
0.5 setlinewidth
1 setlinejoin
0 setlinecap
0 0 m
0 4 l
gsave
0.000 setgray
fill
grestore
stroke
grestore
} bind def
121.6 43.2 o
grestore
gsave
/o {
gsave
newpath
translate
0.5 setlinewidth
1 setlinejoin
0 setlinecap
0 0 m
0 -4 l
gsave
0.000 setgray
fill
grestore
stroke
grestore
} bind def
121.6 388.8 o
grestore
gsave
108.178125 30.075000 translate
0.000000 rotate
0.000000 0.000000 m /minus glyphshow
10.054688 0.000000 m /three glyphshow
17.689453 0.000000 m /period glyphshow
21.503906 0.000000 m /five glyphshow
grestore
gsave
/o {
gsave
newpath
translate
0.5 setlinewidth
1 setlinejoin
0 setlinecap
0 0 m
0 4 l
gsave
0.000 setgray
fill
grestore
stroke
grestore
} bind def
171.2 43.2 o
grestore
gsave
/o {
gsave
newpath
translate
0.5 setlinewidth
1 setlinejoin
0 setlinecap
0 0 m
0 -4 l
gsave
0.000 setgray
fill
grestore
stroke
grestore
} bind def
171.2 388.8 o
grestore
gsave
157.653125 30.075000 translate
0.000000 rotate
0.000000 0.000000 m /minus glyphshow
10.054688 0.000000 m /three glyphshow
17.689453 0.000000 m /period glyphshow
21.503906 0.000000 m /zero glyphshow
grestore
gsave
/o {
gsave
newpath
translate
0.5 setlinewidth
1 setlinejoin
0 setlinecap
0 0 m
0 4 l
gsave
0.000 setgray
fill
grestore
stroke
grestore
} bind def
220.8 43.2 o
grestore
gsave
/o {
gsave
newpath
translate
0.5 setlinewidth
1 setlinejoin
0 setlinecap
0 0 m
0 -4 l
gsave
0.000 setgray
fill
grestore
stroke
grestore
} bind def
220.8 388.8 o
grestore
gsave
207.378125 30.075000 translate
0.000000 rotate
0.000000 0.000000 m /minus glyphshow
10.054688 0.000000 m /two glyphshow
17.689453 0.000000 m /period glyphshow
21.503906 0.000000 m /five glyphshow
grestore
gsave
/o {
gsave
newpath
translate
0.5 setlinewidth
1 setlinejoin
0 setlinecap
0 0 m
0 4 l
gsave
0.000 setgray
fill
grestore
stroke
grestore
} bind def
270.4 43.2 o
grestore
gsave
/o {
gsave
newpath
translate
0.5 setlinewidth
1 setlinejoin
0 setlinecap
0 0 m
0 -4 l
gsave
0.000 setgray
fill
grestore
stroke
grestore
} bind def
270.4 388.8 o
grestore
gsave
256.853125 30.075000 translate
0.000000 rotate
0.000000 0.000000 m /minus glyphshow
10.054688 0.000000 m /two glyphshow
17.689453 0.000000 m /period glyphshow
21.503906 0.000000 m /zero glyphshow
grestore
gsave
/o {
gsave
newpath
translate
0.5 setlinewidth
1 setlinejoin
0 setlinecap
0 0 m
0 4 l
gsave
0.000 setgray
fill
grestore
stroke
grestore
} bind def
320 43.2 o
grestore
gsave
/o {
gsave
newpath
translate
0.5 setlinewidth
1 setlinejoin
0 setlinecap
0 0 m
0 -4 l
gsave
0.000 setgray
fill
grestore
stroke
grestore
} bind def
320 388.8 o
grestore
gsave
306.578125 30.075000 translate
0.000000 rotate
0.000000 0.000000 m /minus glyphshow
10.054688 0.000000 m /one glyphshow
17.689453 0.000000 m /period glyphshow
21.503906 0.000000 m /five glyphshow
grestore
gsave
/o {
gsave
newpath
translate
0.5 setlinewidth
1 setlinejoin
0 setlinecap
0 0 m
0 4 l
gsave
0.000 setgray
fill
grestore
stroke
grestore
} bind def
369.6 43.2 o
grestore
gsave
/o {
gsave
newpath
translate
0.5 setlinewidth
1 setlinejoin
0 setlinecap
0 0 m
0 -4 l
gsave
0.000 setgray
fill
grestore
stroke
grestore
} bind def
369.6 388.8 o
grestore
gsave
356.053125 30.075000 translate
0.000000 rotate
0.000000 0.000000 m /minus glyphshow
10.054688 0.000000 m /one glyphshow
17.689453 0.000000 m /period glyphshow
21.503906 0.000000 m /zero glyphshow
grestore
gsave
/o {
gsave
newpath
translate
0.5 setlinewidth
1 setlinejoin
0 setlinecap
0 0 m
0 4 l
gsave
0.000 setgray
fill
grestore
stroke
grestore
} bind def
419.2 43.2 o
grestore
gsave
/o {
gsave
newpath
translate
0.5 setlinewidth
1 setlinejoin
0 setlinecap
0 0 m
0 -4 l
gsave
0.000 setgray
fill
grestore
stroke
grestore
} bind def
419.2 388.8 o
grestore
gsave
405.778125 30.075000 translate
0.000000 rotate
0.000000 0.000000 m /minus glyphshow
10.054688 0.000000 m /zero glyphshow
17.689453 0.000000 m /period glyphshow
21.503906 0.000000 m /five glyphshow
grestore
gsave
/o {
gsave
newpath
translate
0.5 setlinewidth
1 setlinejoin
0 setlinecap
0 0 m
0 4 l
gsave
0.000 setgray
fill
grestore
stroke
grestore
} bind def
468.8 43.2 o
grestore
gsave
/o {
gsave
newpath
translate
0.5 setlinewidth
1 setlinejoin
0 setlinecap
0 0 m
0 -4 l
gsave
0.000 setgray
fill
grestore
stroke
grestore
} bind def
468.8 388.8 o
grestore
gsave
460.050000 30.075000 translate
0.000000 rotate
0.000000 0.000000 m /zero glyphshow
7.634766 0.000000 m /period glyphshow
11.449219 0.000000 m /zero glyphshow
grestore
gsave
/o {
gsave
newpath
translate
0.5 setlinewidth
1 setlinejoin
0 setlinecap
0 0 m
0 4 l
gsave
0.000 setgray
fill
grestore
stroke
grestore
} bind def
518.4 43.2 o
grestore
gsave
/o {
gsave
newpath
translate
0.5 setlinewidth
1 setlinejoin
0 setlinecap
0 0 m
0 -4 l
gsave
0.000 setgray
fill
grestore
stroke
grestore
} bind def
518.4 388.8 o
grestore
gsave
509.775000 30.075000 translate
0.000000 rotate
0.000000 0.000000 m /zero glyphshow
7.634766 0.000000 m /period glyphshow
11.449219 0.000000 m /five glyphshow
grestore
gsave
279.200000 13.575000 translate
0.000000 rotate
/Cmr10 findfont
12.0 scalefont
setfont
0.000000 0.437500 moveto
/l glyphshow

3.322266 0.437500 moveto
/o glyphshow

9.322266 0.437500 moveto
/g glyphshow

/Cmr10 findfont
8.75 scalefont
setfont
15.322266 2.437500 moveto
/parenleft glyphshow

/Cmmi10 findfont
12.0 scalefont
setfont
18.718872 0.437500 moveto
/delta glyphshow

24.045044 0.437500 moveto
/t glyphshow

/Cmr10 findfont
8.75 scalefont
setfont
28.375122 2.437500 moveto
/parenright glyphshow


grestore
gsave
/o {
gsave
newpath
translate
0.5 setlinewidth
1 setlinejoin
0 setlinecap
0 0 m
4 0 l
gsave
0.000 setgray
fill
grestore
stroke
grestore
} bind def
72 43.2 o
grestore
gsave
/o {
gsave
newpath
translate
0.5 setlinewidth
1 setlinejoin
0 setlinecap
0 0 m
-4 0 l
gsave
0.000 setgray
fill
grestore
stroke
grestore
} bind def
518.4 43.2 o
grestore
gsave
44.718750 39.887500 translate
0.000000 rotate
0.000000 0.000000 m /minus glyphshow
10.054688 0.000000 m /one glyphshow
17.689453 0.000000 m /zero glyphshow
grestore
gsave
/o {
gsave
newpath
translate
0.5 setlinewidth
1 setlinejoin
0 setlinecap
0 0 m
4 0 l
gsave
0.000 setgray
fill
grestore
stroke
grestore
} bind def
72 81.6 o
grestore
gsave
/o {
gsave
newpath
translate
0.5 setlinewidth
1 setlinejoin
0 setlinecap
0 0 m
-4 0 l
gsave
0.000 setgray
fill
grestore
stroke
grestore
} bind def
518.4 81.6 o
grestore
gsave
52.406250 78.287500 translate
0.000000 rotate
0.000000 0.000000 m /minus glyphshow
10.054688 0.000000 m /nine glyphshow
grestore
gsave
/o {
gsave
newpath
translate
0.5 setlinewidth
1 setlinejoin
0 setlinecap
0 0 m
4 0 l
gsave
0.000 setgray
fill
grestore
stroke
grestore
} bind def
72 120 o
grestore
gsave
/o {
gsave
newpath
translate
0.5 setlinewidth
1 setlinejoin
0 setlinecap
0 0 m
-4 0 l
gsave
0.000 setgray
fill
grestore
stroke
grestore
} bind def
518.4 120 o
grestore
gsave
52.390625 116.687500 translate
0.000000 rotate
0.000000 0.000000 m /minus glyphshow
10.054688 0.000000 m /eight glyphshow
grestore
gsave
/o {
gsave
newpath
translate
0.5 setlinewidth
1 setlinejoin
0 setlinecap
0 0 m
4 0 l
gsave
0.000 setgray
fill
grestore
stroke
grestore
} bind def
72 158.4 o
grestore
gsave
/o {
gsave
newpath
translate
0.5 setlinewidth
1 setlinejoin
0 setlinecap
0 0 m
-4 0 l
gsave
0.000 setgray
fill
grestore
stroke
grestore
} bind def
518.4 158.4 o
grestore
gsave
52.593750 155.087500 translate
0.000000 rotate
0.000000 0.000000 m /minus glyphshow
10.054688 0.000000 m /seven glyphshow
grestore
gsave
/o {
gsave
newpath
translate
0.5 setlinewidth
1 setlinejoin
0 setlinecap
0 0 m
4 0 l
gsave
0.000 setgray
fill
grestore
stroke
grestore
} bind def
72 196.8 o
grestore
gsave
/o {
gsave
newpath
translate
0.5 setlinewidth
1 setlinejoin
0 setlinecap
0 0 m
-4 0 l
gsave
0.000 setgray
fill
grestore
stroke
grestore
} bind def
518.4 196.8 o
grestore
gsave
52.328125 193.487500 translate
0.000000 rotate
0.000000 0.000000 m /minus glyphshow
10.054688 0.000000 m /six glyphshow
grestore
gsave
/o {
gsave
newpath
translate
0.5 setlinewidth
1 setlinejoin
0 setlinecap
0 0 m
4 0 l
gsave
0.000 setgray
fill
grestore
stroke
grestore
} bind def
72 235.2 o
grestore
gsave
/o {
gsave
newpath
translate
0.5 setlinewidth
1 setlinejoin
0 setlinecap
0 0 m
-4 0 l
gsave
0.000 setgray
fill
grestore
stroke
grestore
} bind def
518.4 235.2 o
grestore
gsave
52.609375 231.887500 translate
0.000000 rotate
0.000000 0.000000 m /minus glyphshow
10.054688 0.000000 m /five glyphshow
grestore
gsave
/o {
gsave
newpath
translate
0.5 setlinewidth
1 setlinejoin
0 setlinecap
0 0 m
4 0 l
gsave
0.000 setgray
fill
grestore
stroke
grestore
} bind def
72 273.6 o
grestore
gsave
/o {
gsave
newpath
translate
0.5 setlinewidth
1 setlinejoin
0 setlinecap
0 0 m
-4 0 l
gsave
0.000 setgray
fill
grestore
stroke
grestore
} bind def
518.4 273.6 o
grestore
gsave
52.234375 270.287500 translate
0.000000 rotate
0.000000 0.000000 m /minus glyphshow
10.054688 0.000000 m /four glyphshow
grestore
gsave
/o {
gsave
newpath
translate
0.5 setlinewidth
1 setlinejoin
0 setlinecap
0 0 m
4 0 l
gsave
0.000 setgray
fill
grestore
stroke
grestore
} bind def
72 312 o
grestore
gsave
/o {
gsave
newpath
translate
0.5 setlinewidth
1 setlinejoin
0 setlinecap
0 0 m
-4 0 l
gsave
0.000 setgray
fill
grestore
stroke
grestore
} bind def
518.4 312 o
grestore
gsave
52.531250 308.687500 translate
0.000000 rotate
0.000000 0.000000 m /minus glyphshow
10.054688 0.000000 m /three glyphshow
grestore
gsave
/o {
gsave
newpath
translate
0.5 setlinewidth
1 setlinejoin
0 setlinecap
0 0 m
4 0 l
gsave
0.000 setgray
fill
grestore
stroke
grestore
} bind def
72 350.4 o
grestore
gsave
/o {
gsave
newpath
translate
0.5 setlinewidth
1 setlinejoin
0 setlinecap
0 0 m
-4 0 l
gsave
0.000 setgray
fill
grestore
stroke
grestore
} bind def
518.4 350.4 o
grestore
gsave
52.765625 347.087500 translate
0.000000 rotate
0.000000 0.000000 m /minus glyphshow
10.054688 0.000000 m /two glyphshow
grestore
gsave
/o {
gsave
newpath
translate
0.5 setlinewidth
1 setlinejoin
0 setlinecap
0 0 m
4 0 l
gsave
0.000 setgray
fill
grestore
stroke
grestore
} bind def
72 388.8 o
grestore
gsave
/o {
gsave
newpath
translate
0.5 setlinewidth
1 setlinejoin
0 setlinecap
0 0 m
-4 0 l
gsave
0.000 setgray
fill
grestore
stroke
grestore
} bind def
518.4 388.8 o
grestore
gsave
52.671875 385.487500 translate
0.000000 rotate
0.000000 0.000000 m /minus glyphshow
10.054688 0.000000 m /one glyphshow
grestore
gsave
36.718750 195.500000 translate
90.000000 rotate
/Cmr10 findfont
12.0 scalefont
setfont
0.000000 0.390625 moveto
/l glyphshow

3.322266 0.390625 moveto
/o glyphshow

9.322266 0.390625 moveto
/g glyphshow

/Cmr10 findfont
8.59375 scalefont
setfont
15.322266 2.546875 moveto
/parenleft glyphshow

/Cmr10 findfont
12.0 scalefont
setfont
18.658218 0.390625 moveto
/Delta glyphshow

/Cmmi10 findfont
12.0 scalefont
setfont
28.654312 0.390625 moveto
/E glyphshow

/Cmr10 findfont
8.59375 scalefont
setfont
37.507828 2.546875 moveto
/parenright glyphshow


grestore

end
showpage
