%!PS-Adobe-3.0 EPSF-3.0
%%Title: pvvirial.eps
%%Creator: matplotlib version 1.3.1, http://matplotlib.org/
%%CreationDate: Fri Jun  5 12:53:07 2015
%%Orientation: portrait
%%BoundingBox: 18 180 594 612
%%EndComments
%%BeginProlog
/mpldict 11 dict def
mpldict begin
/m { moveto } bind def
/l { lineto } bind def
/r { rlineto } bind def
/c { curveto } bind def
/cl { closepath } bind def
/box {
m
1 index 0 r
0 exch r
neg 0 r
cl
} bind def
/clipbox {
box
clip
newpath
} bind def
%!PS-Adobe-3.0 Resource-Font
%%Title: cmsy10
%%Copyright: Copyright (C) 1994, Basil K. Malyshev. All Rights Reserved.012BaKoMa Fonts Collection, Level-B.
%%Creator: Converted from TrueType to type 3 by PPR
25 dict begin
/_d{bind def}bind def
/_m{moveto}_d
/_l{lineto}_d
/_cl{closepath eofill}_d
/_c{curveto}_d
/_sc{7 -1 roll{setcachedevice}{pop pop pop pop pop pop}ifelse}_d
/_e{exec}_d
/FontName /Cmsy10 def
/PaintType 0 def
/FontMatrix[.001 0 0 .001 0 0]def
/FontBBox[-29 -960 1123 779]def
/FontType 3 def
/Encoding [ /minus /periodcentered ] def
/FontInfo 10 dict dup begin
/FamilyName (cmsy10) def
/FullName (cmsy10) def
/Notice (Copyright (C) 1994, Basil K. Malyshev. All Rights Reserved.012BaKoMa Fonts Collection, Level-B. ) def
/Weight (Regular) def
/Version (1.1/12-Nov-94) def
/ItalicAngle 0.0 def
/isFixedPitch false def
/UnderlinePosition -133 def
/UnderlineThickness 20 def
end readonly def
/CharStrings 2 dict dup begin
/minus{777 0 83 230 694 270 _sc
102 230 _m
96 230 92 232 88 236 _c
84 240 83 245 83 250 _c
83 254 84 259 88 263 _c
92 267 96 270 102 270 _c
676 270 _l
681 270 685 267 689 263 _c
692 259 694 254 694 250 _c
694 245 692 240 689 236 _c
685 232 681 230 676 230 _c
102 230 _l
_cl}_d
/periodcentered{277 0 84 195 194 305 _sc
84 250 _m
84 259 86 268 91 277 _c
96 285 103 292 112 297 _c
120 302 129 305 139 305 _c
148 305 157 302 166 297 _c
174 292 181 285 186 277 _c
191 268 194 259 194 250 _c
194 235 188 222 178 211 _c
167 200 154 195 139 195 _c
124 195 111 200 100 211 _c
89 222 84 235 84 250 _c
_cl}_d
end readonly def

/BuildGlyph
 {exch begin
 CharStrings exch
 2 copy known not{pop /.notdef}if
 true 3 1 roll get exec
 end}_d

/BuildChar {
 1 index /Encoding get exch get
 1 index /BuildGlyph get exec
}_d

FontName currentdict end definefont pop
%!PS-Adobe-3.0 Resource-Font
%%Title: DejaVu Sans
%%Copyright: Copyright (c) 2003 by Bitstream, Inc. All Rights Reserved. Copyright (c) 2006 by Tavmjong Bah. All Rights Reserved. DejaVu changes are in public domain 
%%Creator: Converted from TrueType to type 3 by PPR
25 dict begin
/_d{bind def}bind def
/_m{moveto}_d
/_l{lineto}_d
/_cl{closepath eofill}_d
/_c{curveto}_d
/_sc{7 -1 roll{setcachedevice}{pop pop pop pop pop pop}ifelse}_d
/_e{exec}_d
/FontName /DejaVuSans def
/PaintType 0 def
/FontMatrix[.001 0 0 .001 0 0]def
/FontBBox[-1021 -415 1681 1167]def
/FontType 3 def
/Encoding [ /period /zero /one /two /four /six /eight ] def
/FontInfo 10 dict dup begin
/FamilyName (DejaVu Sans) def
/FullName (DejaVu Sans) def
/Notice (Copyright (c) 2003 by Bitstream, Inc. All Rights Reserved. Copyright (c) 2006 by Tavmjong Bah. All Rights Reserved. DejaVu changes are in public domain ) def
/Weight (Book) def
/Version (Version 2.34) def
/ItalicAngle 0.0 def
/isFixedPitch false def
/UnderlinePosition -130 def
/UnderlineThickness 90 def
end readonly def
/CharStrings 7 dict dup begin
/period{318 0 107 0 210 124 _sc
107 124 _m
210 124 _l
210 0 _l
107 0 _l
107 124 _l
_cl}_d
/zero{636 0 66 -13 570 742 _sc
318 664 _m
267 664 229 639 203 589 _c
177 539 165 464 165 364 _c
165 264 177 189 203 139 _c
229 89 267 64 318 64 _c
369 64 407 89 433 139 _c
458 189 471 264 471 364 _c
471 464 458 539 433 589 _c
407 639 369 664 318 664 _c
318 742 _m
399 742 461 709 505 645 _c
548 580 570 486 570 364 _c
570 241 548 147 505 83 _c
461 19 399 -13 318 -13 _c
236 -13 173 19 130 83 _c
87 147 66 241 66 364 _c
66 486 87 580 130 645 _c
173 709 236 742 318 742 _c
_cl}_d
/one{636 0 110 0 544 729 _sc
124 83 _m
285 83 _l
285 639 _l
110 604 _l
110 694 _l
284 729 _l
383 729 _l
383 83 _l
544 83 _l
544 0 _l
124 0 _l
124 83 _l
_cl}_d
/two{{636 0 73 0 536 742 _sc
192 83 _m
536 83 _l
536 0 _l
73 0 _l
73 83 _l
110 121 161 173 226 239 _c
290 304 331 346 348 365 _c
380 400 402 430 414 455 _c
426 479 433 504 433 528 _c
433 566 419 598 392 622 _c
365 646 330 659 286 659 _c
255 659 222 653 188 643 _c
154 632 117 616 78 594 _c
78 694 _l
118 710 155 722 189 730 _c
223 738 255 742 284 742 _c
}_e{359 742 419 723 464 685 _c
509 647 532 597 532 534 _c
532 504 526 475 515 449 _c
504 422 484 390 454 354 _c
446 344 420 317 376 272 _c
332 227 271 164 192 83 _c
_cl}_e}_d
/four{636 0 49 0 580 729 _sc
378 643 _m
129 254 _l
378 254 _l
378 643 _l
352 729 _m
476 729 _l
476 254 _l
580 254 _l
580 172 _l
476 172 _l
476 0 _l
378 0 _l
378 172 _l
49 172 _l
49 267 _l
352 729 _l
_cl}_d
/six{{636 0 70 -13 573 742 _sc
330 404 _m
286 404 251 388 225 358 _c
199 328 186 286 186 234 _c
186 181 199 139 225 109 _c
251 79 286 64 330 64 _c
374 64 409 79 435 109 _c
461 139 474 181 474 234 _c
474 286 461 328 435 358 _c
409 388 374 404 330 404 _c
526 713 _m
526 623 _l
501 635 476 644 451 650 _c
425 656 400 659 376 659 _c
310 659 260 637 226 593 _c
}_e{192 549 172 482 168 394 _c
187 422 211 444 240 459 _c
269 474 301 482 336 482 _c
409 482 467 459 509 415 _c
551 371 573 310 573 234 _c
573 159 550 99 506 54 _c
462 9 403 -13 330 -13 _c
246 -13 181 19 137 83 _c
92 147 70 241 70 364 _c
70 479 97 571 152 639 _c
206 707 280 742 372 742 _c
396 742 421 739 447 735 _c
472 730 498 723 526 713 _c
_cl}_e}_d
/eight{{636 0 68 -13 568 742 _sc
318 346 _m
271 346 234 333 207 308 _c
180 283 167 249 167 205 _c
167 161 180 126 207 101 _c
234 76 271 64 318 64 _c
364 64 401 76 428 102 _c
455 127 469 161 469 205 _c
469 249 455 283 429 308 _c
402 333 365 346 318 346 _c
219 388 _m
177 398 144 418 120 447 _c
96 476 85 511 85 553 _c
85 611 105 657 147 691 _c
188 725 245 742 318 742 _c
}_e{390 742 447 725 489 691 _c
530 657 551 611 551 553 _c
551 511 539 476 515 447 _c
491 418 459 398 417 388 _c
464 377 501 355 528 323 _c
554 291 568 251 568 205 _c
568 134 546 80 503 43 _c
459 5 398 -13 318 -13 _c
237 -13 175 5 132 43 _c
89 80 68 134 68 205 _c
68 251 81 291 108 323 _c
134 355 171 377 219 388 _c
183 544 _m
183 506 194 476 218 455 _c
}_e{242 434 275 424 318 424 _c
360 424 393 434 417 455 _c
441 476 453 506 453 544 _c
453 582 441 611 417 632 _c
393 653 360 664 318 664 _c
275 664 242 653 218 632 _c
194 611 183 582 183 544 _c
_cl}_e}_d
end readonly def

/BuildGlyph
 {exch begin
 CharStrings exch
 2 copy known not{pop /.notdef}if
 true 3 1 roll get exec
 end}_d

/BuildChar {
 1 index /Encoding get exch get
 1 index /BuildGlyph get exec
}_d

FontName currentdict end definefont pop
%!PS-Adobe-3.0 Resource-Font
%%Title: cmmi10
%%Copyright: Copyright (C) 1994, Basil K. Malyshev. All Rights Reserved.012BaKoMa Fonts Collection, Level-B.
%%Creator: Converted from TrueType to type 3 by PPR
25 dict begin
/_d{bind def}bind def
/_m{moveto}_d
/_l{lineto}_d
/_cl{closepath eofill}_d
/_c{curveto}_d
/_sc{7 -1 roll{setcachedevice}{pop pop pop pop pop pop}ifelse}_d
/_e{exec}_d
/FontName /Cmmi10 def
/PaintType 0 def
/FontMatrix[.001 0 0 .001 0 0]def
/FontBBox[-34 -250 1048 750]def
/FontType 3 def
/Encoding [ /sigma /rho /comma /period /epsilon1 /J /slash /P /T /p ] def
/FontInfo 10 dict dup begin
/FamilyName (cmmi10) def
/FullName (cmmi10) def
/Notice (Copyright (C) 1994, Basil K. Malyshev. All Rights Reserved.012BaKoMa Fonts Collection, Level-B. ) def
/Weight (Regular) def
/Version (1.1/12-Nov-94) def
/ItalicAngle 0.0 def
/isFixedPitch false def
/UnderlinePosition -133 def
/UnderlineThickness 20 def
end readonly def
/CharStrings 10 dict dup begin
/sigma{{571 0 36 -10 568 431 _sc
187 -10 _m
157 -10 131 -3 108 10 _c
85 24 67 43 55 67 _c
42 91 36 118 36 147 _c
36 177 43 210 57 244 _c
71 278 90 310 114 338 _c
138 366 166 389 197 406 _c
227 422 259 431 291 431 _c
543 431 _l
549 431 555 428 560 424 _c
565 419 568 413 568 406 _c
568 396 564 387 557 380 _c
550 372 542 369 532 369 _c
410 369 _l
}_e{429 340 439 305 439 265 _c
439 231 432 198 419 166 _c
406 133 388 103 365 77 _c
342 50 315 29 284 13 _c
253 -2 221 -10 187 -10 _c
188 15 _m
224 15 257 29 285 58 _c
313 86 334 121 349 162 _c
364 203 372 241 372 277 _c
372 305 364 328 348 344 _c
332 360 310 369 282 369 _c
243 369 210 356 183 330 _c
156 304 136 271 122 232 _c
108 192 102 154 102 118 _c
}_e{102 89 109 65 124 45 _c
139 25 160 15 188 15 _c
_cl}_e}_d
/rho{{517 0 28 -215 504 442 _sc
28 -187 _m
28 -183 28 -180 29 -179 _c
128 219 _l
137 255 153 290 176 324 _c
199 358 227 387 260 409 _c
292 431 327 442 363 442 _c
391 442 416 434 438 419 _c
460 403 476 383 487 359 _c
498 335 504 308 504 279 _c
504 246 497 212 484 178 _c
470 144 452 112 429 84 _c
406 55 379 32 349 15 _c
319 -1 287 -10 254 -10 _c
234 -10 216 -4 199 6 _c
}_e{181 17 168 32 158 52 _c
99 -183 _l
97 -192 92 -200 84 -206 _c
76 -212 68 -215 58 -215 _c
50 -215 43 -212 37 -207 _c
31 -202 28 -195 28 -187 _c
256 15 _m
291 15 322 33 348 69 _c
374 105 394 148 408 197 _c
422 246 429 288 429 322 _c
429 347 423 369 412 388 _c
401 406 384 416 361 416 _c
331 416 306 405 284 383 _c
262 361 244 335 231 305 _c
217 275 206 245 198 213 _c
}_e{171 101 _l
175 77 184 56 199 40 _c
214 23 233 15 256 15 _c
_cl}_e}_d
/comma{277 0 84 -193 205 110 _sc
99 -179 _m
99 -176 100 -173 103 -171 _c
127 -147 145 -120 159 -90 _c
172 -60 179 -28 179 4 _c
179 16 _l
168 5 155 0 139 0 _c
123 0 110 5 100 16 _c
89 26 84 39 84 55 _c
84 71 89 84 100 94 _c
110 104 123 110 139 110 _c
163 110 180 99 190 77 _c
200 55 205 30 205 4 _c
205 -32 197 -67 183 -101 _c
168 -134 147 -164 120 -191 _c
117 -192 115 -193 114 -193 _c
110 -193 107 -191 104 -188 _c
100 -185 99 -182 99 -179 _c
_cl}_d
/period{277 0 84 0 194 110 _sc
84 55 _m
84 70 89 83 100 94 _c
111 104 124 110 139 110 _c
148 110 157 107 166 102 _c
174 97 181 90 186 82 _c
191 73 194 64 194 55 _c
194 40 188 27 178 16 _c
167 5 154 0 139 0 _c
124 0 111 5 100 16 _c
89 27 84 40 84 55 _c
_cl}_d
/epsilon1{{405 0 45 -10 378 431 _sc
123 141 _m
123 118 127 97 135 78 _c
143 59 155 44 172 32 _c
188 20 208 15 230 15 _c
244 15 260 18 277 25 _c
294 31 310 38 325 46 _c
339 54 347 58 347 58 _c
351 58 354 56 356 52 _c
358 48 359 44 359 40 _c
359 36 358 34 356 33 _c
314 4 271 -10 229 -10 _c
193 -10 161 -2 133 14 _c
105 30 83 52 68 82 _c
}_e{52 111 45 143 45 178 _c
45 212 52 245 66 276 _c
80 307 99 334 124 358 _c
148 381 176 399 208 412 _c
239 424 272 431 306 431 _c
363 431 _l
373 431 378 426 378 416 _c
378 410 376 406 372 402 _c
368 398 364 396 359 396 _c
304 396 _l
277 396 253 390 231 378 _c
209 366 191 350 177 329 _c
162 308 151 285 143 259 _c
320 259 _l
324 259 328 257 331 254 _c
}_e{333 251 335 248 335 244 _c
335 238 333 234 329 230 _c
325 226 321 224 316 224 _c
134 224 _l
126 189 123 161 123 141 _c
_cl}_e}_d
/J{{554 0 69 -21 633 683 _sc
109 60 _m
115 41 127 27 145 18 _c
162 8 181 4 202 4 _c
222 4 242 11 262 25 _c
282 39 298 58 312 80 _c
325 102 334 123 340 145 _c
458 618 _l
458 620 459 622 459 624 _c
459 625 459 626 460 628 _c
460 635 457 639 452 641 _c
434 645 399 648 345 648 _c
338 648 335 652 335 661 _c
336 666 337 670 338 673 _c
338 676 340 678 342 680 _c
}_e{344 682 348 683 352 683 _c
623 683 _l
629 683 633 678 633 670 _c
630 655 626 648 620 648 _c
596 648 579 646 567 642 _c
555 638 546 629 542 614 _c
424 141 _l
416 110 401 82 378 57 _c
355 32 328 13 296 0 _c
264 -14 233 -21 201 -21 _c
165 -21 134 -11 108 8 _c
82 27 69 53 69 87 _c
69 109 75 128 87 144 _c
99 160 116 168 138 168 _c
150 168 161 164 170 156 _c
}_e{178 148 183 138 183 126 _c
183 108 176 92 163 79 _c
149 65 134 59 116 59 _c
112 59 110 59 109 60 _c
_cl}_e}_d
/slash{500 0 56 -249 443 750 _sc
56 -229 _m
56 -227 56 -225 57 -225 _c
405 738 _l
406 742 408 745 412 747 _c
415 749 419 750 423 750 _c
429 750 433 748 437 744 _c
441 740 443 736 443 730 _c
443 726 _l
95 -237 _l
91 -245 84 -249 76 -249 _c
70 -249 66 -247 62 -243 _c
58 -239 56 -234 56 -229 _c
_cl}_d
/P{{642 0 39 0 752 683 _sc
49 0 _m
42 0 39 4 39 13 _c
39 15 40 18 41 22 _c
41 26 43 29 45 31 _c
47 33 49 35 52 35 _c
92 35 121 37 137 42 _c
145 44 152 53 156 69 _c
293 618 _l
294 624 295 629 295 632 _c
295 639 291 643 283 644 _c
270 646 246 648 211 648 _c
204 648 201 652 201 661 _c
201 663 202 666 203 670 _c
204 674 205 677 207 679 _c
}_e{209 681 211 683 214 683 _c
559 683 _l
590 683 620 677 650 666 _c
680 654 704 637 723 614 _c
742 591 752 563 752 531 _c
752 488 737 450 707 417 _c
677 384 640 358 596 340 _c
551 321 508 312 467 312 _c
304 312 _l
243 65 _l
241 58 241 53 241 51 _c
241 48 241 46 242 44 _c
243 42 244 41 246 41 _c
247 40 249 39 253 39 _c
265 36 289 35 325 35 _c
}_e{331 35 335 30 335 22 _c
333 12 331 6 330 4 _c
328 1 324 0 318 0 _c
49 0 _l
309 342 _m
449 342 _l
513 342 563 359 597 394 _c
614 411 628 436 639 469 _c
650 501 656 531 656 557 _c
656 589 643 613 618 627 _c
593 641 562 648 525 648 _c
429 648 _l
411 648 399 646 393 643 _c
387 640 381 630 377 614 _c
309 342 _l
_cl}_e}_d
/T{{584 0 24 0 706 683 _sc
46 13 _m
46 15 46 18 48 22 _c
49 26 50 29 52 31 _c
54 33 56 35 60 35 _c
117 35 155 36 174 40 _c
192 44 202 54 206 69 _c
343 618 _l
345 626 347 633 347 640 _c
347 645 335 648 312 648 _c
254 648 _l
209 648 174 641 150 627 _c
126 613 108 595 97 573 _c
85 551 71 514 53 463 _c
51 457 47 454 43 454 _c
34 454 _l
}_e{27 454 24 458 24 467 _c
95 674 _l
96 680 99 683 105 683 _c
696 683 _l
702 683 706 678 706 670 _c
673 463 _l
673 461 671 459 669 457 _c
667 455 665 454 663 454 _c
654 454 _l
647 454 644 458 644 467 _c
651 514 655 547 655 567 _c
655 590 650 608 640 620 _c
630 632 617 639 602 643 _c
586 646 566 648 541 648 _c
482 648 _l
464 648 452 646 446 643 _c
}_e{440 639 434 630 430 614 _c
293 65 _l
292 63 292 62 292 61 _c
292 59 291 58 291 56 _c
291 47 296 42 306 40 _c
323 36 360 35 417 35 _c
423 35 427 30 427 22 _c
424 12 422 6 421 4 _c
419 1 416 0 410 0 _c
56 0 _l
49 0 46 4 46 13 _c
_cl}_e}_d
/p{{503 0 -33 -193 491 442 _sc
-24 -193 _m
-30 -193 -33 -188 -33 -180 _c
-31 -165 -26 -158 -20 -158 _c
0 -158 14 -156 22 -152 _c
30 -148 37 -139 42 -124 _c
155 325 _l
159 337 162 353 162 373 _c
162 401 152 416 133 416 _c
112 416 96 403 86 378 _c
76 353 66 322 57 284 _c
57 280 54 278 49 278 _c
37 278 _l
35 278 34 279 32 281 _c
30 283 29 286 29 288 _c
}_e{36 317 43 342 50 362 _c
56 382 67 400 81 417 _c
95 433 112 442 134 442 _c
156 442 176 435 194 422 _c
211 409 222 392 227 370 _c
245 391 265 408 287 422 _c
309 435 332 442 356 442 _c
384 442 408 434 429 419 _c
449 404 465 384 475 360 _c
485 336 491 310 491 282 _c
491 239 480 195 458 149 _c
436 103 406 65 369 35 _c
331 5 291 -10 248 -10 _c
}_e{228 -10 211 -4 195 6 _c
179 16 166 31 158 49 _c
113 -128 _l
111 -138 110 -143 110 -145 _c
110 -153 132 -158 176 -158 _c
182 -158 186 -162 186 -171 _c
184 -179 182 -185 180 -188 _c
178 -191 175 -193 169 -193 _c
-24 -193 _l
249 15 _m
272 15 293 24 313 43 _c
333 62 349 84 362 108 _c
370 126 379 147 387 173 _c
395 199 402 226 408 256 _c
414 285 417 308 417 326 _c
}_e{417 341 415 355 411 369 _c
407 382 400 393 391 402 _c
381 411 369 416 354 416 _c
329 416 306 407 284 390 _c
262 372 243 351 226 325 _c
226 322 _l
171 101 _l
175 77 184 56 197 40 _c
210 23 227 15 249 15 _c
_cl}_e}_d
end readonly def

/BuildGlyph
 {exch begin
 CharStrings exch
 2 copy known not{pop /.notdef}if
 true 3 1 roll get exec
 end}_d

/BuildChar {
 1 index /Encoding get exch get
 1 index /BuildGlyph get exec
}_d

FontName currentdict end definefont pop
%!PS-Adobe-3.0 Resource-Font
%%Title: cmr10
%%Copyright: Copyright (C) 1994, Basil K. Malyshev. All Rights Reserved.012BaKoMa Fonts Collection, Level-B.
%%Creator: Converted from TrueType to type 3 by PPR
25 dict begin
/_d{bind def}bind def
/_m{moveto}_d
/_l{lineto}_d
/_cl{closepath eofill}_d
/_c{curveto}_d
/_sc{7 -1 roll{setcachedevice}{pop pop pop pop pop pop}ifelse}_d
/_e{exec}_d
/FontName /Cmr10 def
/PaintType 0 def
/FontMatrix[.001 0 0 .001 0 0]def
/FontBBox[-44 -250 1009 750]def
/FontType 3 def
/Encoding [ /zero /equal /two /one /three /five ] def
/FontInfo 10 dict dup begin
/FamilyName (cmr10) def
/FullName (cmr10) def
/Notice (Copyright (C) 1994, Basil K. Malyshev. All Rights Reserved.012BaKoMa Fonts Collection, Level-B. ) def
/Weight (Regular) def
/Version (1.1/12-Nov-94) def
/ItalicAngle 0.0 def
/isFixedPitch false def
/UnderlinePosition -133 def
/UnderlineThickness 20 def
end readonly def
/CharStrings 6 dict dup begin
/zero{{500 0 39 -21 460 666 _sc
250 -21 _m
168 -21 112 12 83 79 _c
53 146 39 226 39 319 _c
39 377 44 431 55 482 _c
65 533 86 576 118 612 _c
149 648 193 666 250 666 _c
294 666 330 655 358 634 _c
386 612 407 585 422 551 _c
436 517 446 480 452 441 _c
457 402 460 361 460 319 _c
460 261 454 208 444 158 _c
433 108 412 65 381 31 _c
350 -3 306 -21 250 -21 _c
250 4 _m
}_e{287 4 315 23 333 61 _c
351 99 362 141 366 187 _c
370 233 373 283 373 335 _c
373 385 370 431 366 473 _c
362 515 351 554 333 588 _c
315 622 287 640 250 640 _c
212 640 184 622 166 588 _c
148 554 136 515 132 473 _c
128 431 126 385 126 335 _c
126 297 126 262 128 230 _c
130 197 135 163 143 128 _c
151 93 163 64 181 40 _c
198 16 221 4 250 4 _c
_cl}_e}_d
/equal{{777 0 56 133 721 367 _sc
75 133 _m
69 133 65 135 61 139 _c
57 143 56 148 56 153 _c
56 158 57 163 61 167 _c
65 171 69 173 75 173 _c
703 173 _l
707 173 711 171 715 167 _c
719 163 721 158 721 153 _c
721 148 719 143 715 139 _c
711 135 707 133 703 133 _c
75 133 _l
75 327 _m
69 327 65 329 61 333 _c
57 337 56 341 56 347 _c
56 351 57 356 61 360 _c
}_e{65 364 69 367 75 367 _c
703 367 _l
707 367 711 364 715 360 _c
719 356 721 351 721 347 _c
721 341 719 337 715 333 _c
711 329 707 327 703 327 _c
75 327 _l
_cl}_e}_d
/two{{500 0 50 0 449 666 _sc
50 0 _m
50 27 _l
50 28 50 30 52 32 _c
207 204 _l
230 229 249 250 264 268 _c
278 285 293 305 307 327 _c
321 349 333 372 341 396 _c
349 419 354 444 354 470 _c
354 497 349 523 339 548 _c
329 573 314 593 294 608 _c
274 623 249 631 221 631 _c
192 631 166 622 143 605 _c
119 587 103 565 94 537 _c
96 537 100 538 105 538 _c
}_e{119 538 132 533 143 523 _c
153 513 159 500 159 484 _c
159 468 153 455 143 445 _c
132 434 119 429 105 429 _c
89 429 76 434 66 445 _c
55 456 50 469 50 484 _c
50 508 54 532 64 554 _c
73 576 86 595 104 613 _c
122 630 142 643 164 652 _c
186 661 210 666 236 666 _c
274 666 309 658 342 642 _c
375 626 401 603 420 573 _c
439 543 449 509 449 470 _c
}_e{449 441 442 414 430 388 _c
417 362 401 338 381 317 _c
361 295 336 271 305 244 _c
274 217 254 199 244 190 _c
131 81 _l
227 81 _l
274 81 313 81 345 82 _c
377 82 394 84 396 86 _c
404 94 412 125 420 178 _c
449 178 _l
421 0 _l
50 0 _l
_cl}_e}_d
/one{500 0 87 0 421 666 _sc
93 0 _m
93 35 _l
176 35 218 45 218 67 _c
218 592 _l
183 575 139 567 87 567 _c
87 602 _l
168 602 230 623 272 666 _c
286 666 _l
288 666 291 665 293 663 _c
295 661 296 659 296 657 _c
296 67 _l
296 45 337 35 421 35 _c
421 0 _l
93 0 _l
_cl}_d
/three{{500 0 42 -21 457 666 _sc
95 77 _m
111 54 132 37 158 26 _c
184 15 213 10 243 10 _c
281 10 309 26 325 59 _c
341 92 350 130 350 172 _c
350 190 348 209 345 228 _c
341 247 335 265 327 281 _c
319 297 308 310 294 320 _c
280 330 262 335 242 335 _c
176 335 _l
170 335 167 338 167 344 _c
167 353 _l
167 358 170 361 176 361 _c
231 365 _l
254 365 273 373 289 391 _c
}_e{305 409 316 430 323 456 _c
330 481 334 505 334 528 _c
334 560 326 586 311 606 _c
296 626 273 637 243 637 _c
217 637 193 632 170 622 _c
147 612 129 598 115 579 _c
116 579 117 580 118 580 _c
119 580 120 580 122 580 _c
137 580 150 574 160 564 _c
170 554 175 541 175 527 _c
175 512 170 499 160 489 _c
150 479 137 474 122 474 _c
107 474 94 479 84 489 _c
}_e{74 499 69 512 69 527 _c
69 555 77 580 95 601 _c
112 622 134 638 161 649 _c
188 660 215 666 243 666 _c
263 666 284 663 307 657 _c
329 651 350 642 368 631 _c
386 619 401 605 413 588 _c
424 570 430 550 430 528 _c
430 500 423 474 411 450 _c
399 426 382 406 360 389 _c
338 371 314 358 288 350 _c
317 344 345 333 371 317 _c
397 301 417 280 433 255 _c
}_e{449 229 457 202 457 173 _c
457 136 446 103 426 73 _c
406 43 379 19 347 3 _c
314 -13 279 -21 243 -21 _c
211 -21 180 -15 149 -3 _c
117 8 92 25 72 49 _c
52 73 42 101 42 135 _c
42 151 47 165 58 176 _c
69 187 83 193 100 193 _c
110 193 120 190 129 185 _c
138 180 145 173 150 164 _c
155 154 158 145 158 135 _c
158 118 152 104 141 93 _c
}_e{129 82 116 77 100 77 _c
95 77 _l
_cl}_e}_d
/five{{500 0 50 -21 449 666 _sc
87 114 _m
93 94 104 76 118 60 _c
132 44 149 32 169 23 _c
188 14 208 10 229 10 _c
277 10 310 28 328 66 _c
346 103 356 148 356 202 _c
356 225 355 244 355 260 _c
354 276 352 291 348 306 _c
342 329 331 349 315 367 _c
299 385 281 394 259 394 _c
236 394 217 390 201 384 _c
185 377 171 369 161 360 _c
151 350 142 341 134 331 _c
}_e{126 321 122 315 120 315 _c
109 315 _l
107 315 104 316 102 318 _c
100 320 99 322 99 324 _c
99 658 _l
99 660 100 661 102 663 _c
104 665 106 666 109 666 _c
112 666 _l
156 644 204 634 255 634 _c
304 634 352 644 398 666 _c
401 666 _l
403 666 405 665 407 663 _c
409 661 410 660 410 658 _c
410 649 _l
410 645 409 644 408 644 _c
385 614 356 590 322 573 _c
}_e{288 556 252 548 216 548 _c
189 548 162 551 134 559 _c
134 370 _l
156 388 175 400 193 408 _c
210 416 232 420 260 420 _c
296 420 329 409 358 388 _c
387 366 409 339 425 305 _c
441 271 449 236 449 201 _c
449 161 439 124 419 90 _c
399 56 373 29 339 9 _c
305 -11 269 -21 229 -21 _c
196 -21 166 -12 138 4 _c
110 20 89 43 73 72 _c
57 100 50 131 50 163 _c
}_e{50 178 54 190 64 200 _c
74 209 86 214 101 214 _c
115 214 128 209 138 199 _c
148 189 153 177 153 163 _c
153 149 148 137 138 127 _c
128 117 115 112 101 112 _c
99 112 96 112 93 112 _c
90 112 88 113 87 114 _c
_cl}_e}_d
end readonly def

/BuildGlyph
 {exch begin
 CharStrings exch
 2 copy known not{pop /.notdef}if
 true 3 1 roll get exec
 end}_d

/BuildChar {
 1 index /Encoding get exch get
 1 index /BuildGlyph get exec
}_d

FontName currentdict end definefont pop
end
%%EndProlog
mpldict begin
18 180 translate
576 432 0 0 clipbox
gsave
0 0 m
576 0 l
576 432 l
0 432 l
cl
1.000 setgray
fill
grestore
gsave
72 43.2 m
518.4 43.2 l
518.4 388.8 l
72 388.8 l
cl
1.000 setgray
fill
grestore
/p0_0 {
newpath
translate
116.64 46.8144 m
116.64 46.9193 l
} bind def
/p0_1 {
newpath
translate
156.32 48.7799 m
156.32 49.24 l
} bind def
/p0_2 {
newpath
translate
196 52.4229 m
196 53.2885 l
} bind def
/p0_3 {
newpath
translate
235.68 53.3327 m
235.68 54.6273 l
} bind def
/p0_4 {
newpath
translate
275.36 59.0387 m
275.36 61.3804 l
} bind def
/p0_5 {
newpath
translate
315.04 69.6604 m
315.04 71.8617 l
} bind def
/p0_6 {
newpath
translate
354.72 93.7235 m
354.72 97.4858 l
} bind def
/p0_7 {
newpath
translate
394.4 116.991 m
394.4 121.218 l
} bind def
/p0_8 {
newpath
translate
434.08 167.135 m
434.08 172.591 l
} bind def
/p0_9 {
newpath
translate
473.76 200.66 m
473.76 207.06 l
} bind def
1.000 setlinewidth
1 setlinejoin
0 setlinecap
[] 0 setdash
0.000 0.000 1.000 setrgbcolor
gsave
446.4 345.6 72 43.2 clipbox
0 0 p0_0
stroke
grestore
gsave
446.4 345.6 72 43.2 clipbox
0 0 p0_1
stroke
grestore
gsave
446.4 345.6 72 43.2 clipbox
0 0 p0_2
stroke
grestore
gsave
446.4 345.6 72 43.2 clipbox
0 0 p0_3
stroke
grestore
gsave
446.4 345.6 72 43.2 clipbox
0 0 p0_4
stroke
grestore
gsave
446.4 345.6 72 43.2 clipbox
0 0 p0_5
stroke
grestore
gsave
446.4 345.6 72 43.2 clipbox
0 0 p0_6
stroke
grestore
gsave
446.4 345.6 72 43.2 clipbox
0 0 p0_7
stroke
grestore
gsave
446.4 345.6 72 43.2 clipbox
0 0 p0_8
stroke
grestore
gsave
446.4 345.6 72 43.2 clipbox
0 0 p0_9
stroke
grestore
/p1_0 {
newpath
translate
116.64 48.3609 m
116.64 48.476 l
} bind def
/p1_1 {
newpath
translate
156.32 51.802 m
156.32 52.1378 l
} bind def
/p1_2 {
newpath
translate
196 56.8135 m
196 57.9478 l
} bind def
/p1_3 {
newpath
translate
235.68 67.5958 m
235.68 69.6091 l
} bind def
/p1_4 {
newpath
translate
275.36 67.3367 m
275.36 69.7609 l
} bind def
/p1_5 {
newpath
translate
315.04 106.072 m
315.04 108.38 l
} bind def
/p1_6 {
newpath
translate
354.72 109.867 m
354.72 114.396 l
} bind def
/p1_7 {
newpath
translate
394.4 157.755 m
394.4 162.148 l
} bind def
/p1_8 {
newpath
translate
434.08 221.007 m
434.08 226.556 l
} bind def
/p1_9 {
newpath
translate
473.76 294.735 m
473.76 300.659 l
} bind def
0.000 0.500 0.000 setrgbcolor
gsave
446.4 345.6 72 43.2 clipbox
0 0 p1_0
stroke
grestore
gsave
446.4 345.6 72 43.2 clipbox
0 0 p1_1
stroke
grestore
gsave
446.4 345.6 72 43.2 clipbox
0 0 p1_2
stroke
grestore
gsave
446.4 345.6 72 43.2 clipbox
0 0 p1_3
stroke
grestore
gsave
446.4 345.6 72 43.2 clipbox
0 0 p1_4
stroke
grestore
gsave
446.4 345.6 72 43.2 clipbox
0 0 p1_5
stroke
grestore
gsave
446.4 345.6 72 43.2 clipbox
0 0 p1_6
stroke
grestore
gsave
446.4 345.6 72 43.2 clipbox
0 0 p1_7
stroke
grestore
gsave
446.4 345.6 72 43.2 clipbox
0 0 p1_8
stroke
grestore
gsave
446.4 345.6 72 43.2 clipbox
0 0 p1_9
stroke
grestore
/p2_0 {
newpath
translate
116.64 50.1431 m
116.64 50.3649 l
} bind def
/p2_1 {
newpath
translate
156.32 57.2041 m
156.32 58.0925 l
} bind def
/p2_2 {
newpath
translate
196 61.5021 m
196 62.6757 l
} bind def
/p2_3 {
newpath
translate
235.68 72.8044 m
235.68 74.2991 l
} bind def
/p2_4 {
newpath
translate
275.36 85.781 m
275.36 88.533 l
} bind def
/p2_5 {
newpath
translate
315.04 108.831 m
315.04 113.811 l
} bind def
/p2_6 {
newpath
translate
354.72 136.66 m
354.72 140.474 l
} bind def
/p2_7 {
newpath
translate
394.4 218.232 m
394.4 223.453 l
} bind def
/p2_8 {
newpath
translate
434.08 278.474 m
434.08 283.528 l
} bind def
/p2_9 {
newpath
translate
473.76 341.083 m
473.76 348.775 l
} bind def
1.000 0.000 0.000 setrgbcolor
gsave
446.4 345.6 72 43.2 clipbox
0 0 p2_0
stroke
grestore
gsave
446.4 345.6 72 43.2 clipbox
0 0 p2_1
stroke
grestore
gsave
446.4 345.6 72 43.2 clipbox
0 0 p2_2
stroke
grestore
gsave
446.4 345.6 72 43.2 clipbox
0 0 p2_3
stroke
grestore
gsave
446.4 345.6 72 43.2 clipbox
0 0 p2_4
stroke
grestore
gsave
446.4 345.6 72 43.2 clipbox
0 0 p2_5
stroke
grestore
gsave
446.4 345.6 72 43.2 clipbox
0 0 p2_6
stroke
grestore
gsave
446.4 345.6 72 43.2 clipbox
0 0 p2_7
stroke
grestore
gsave
446.4 345.6 72 43.2 clipbox
0 0 p2_8
stroke
grestore
gsave
446.4 345.6 72 43.2 clipbox
0 0 p2_9
stroke
grestore
/p3_0 {
newpath
translate
116.64 48.9089 m
116.64 48.9204 l
} bind def
/p3_1 {
newpath
translate
161.28 55.0455 m
161.28 55.0801 l
} bind def
/p3_2 {
newpath
translate
250.56 73.0256 m
250.56 73.0832 l
} bind def
/p3_3 {
newpath
translate
295.2 88.8234 m
295.2 88.9962 l
} bind def
/p3_4 {
newpath
translate
339.84 115.06 m
339.84 115.463 l
} bind def
/p3_5 {
newpath
translate
384.48 159.338 m
384.48 159.741 l
} bind def
/p3_6 {
newpath
translate
429.12 233.178 m
429.12 233.754 l
} bind def
/p3_7 {
newpath
translate
473.76 352.765 m
473.76 353.917 l
} bind def
0.000 0.750 0.750 setrgbcolor
gsave
446.4 345.6 72 43.2 clipbox
0 0 p3_0
stroke
grestore
gsave
446.4 345.6 72 43.2 clipbox
0 0 p3_1
stroke
grestore
gsave
446.4 345.6 72 43.2 clipbox
0 0 p3_2
stroke
grestore
gsave
446.4 345.6 72 43.2 clipbox
0 0 p3_3
stroke
grestore
gsave
446.4 345.6 72 43.2 clipbox
0 0 p3_4
stroke
grestore
gsave
446.4 345.6 72 43.2 clipbox
0 0 p3_5
stroke
grestore
gsave
446.4 345.6 72 43.2 clipbox
0 0 p3_6
stroke
grestore
gsave
446.4 345.6 72 43.2 clipbox
0 0 p3_7
stroke
grestore
0.500 setlinewidth
0.000 0.000 1.000 setrgbcolor
gsave
446.4 345.6 72 43.2 clipbox
/o {
gsave
newpath
translate
0.5 setlinewidth
1 setlinejoin
0 setlinecap
3 -1.83697e-16 m
-3 1.83697e-16 l
gsave
0.000 0.000 1.000 setrgbcolor
fill
grestore
stroke
grestore
} bind def
116.64 46.8144 o
156.32 48.7799 o
196 52.4229 o
235.68 53.3327 o
275.36 59.0387 o
315.04 69.6604 o
354.72 93.7235 o
394.4 116.991 o
434.08 167.135 o
473.76 200.66 o
grestore
gsave
446.4 345.6 72 43.2 clipbox
/o {
gsave
newpath
translate
0.5 setlinewidth
1 setlinejoin
0 setlinecap
3 -1.83697e-16 m
-3 1.83697e-16 l
gsave
0.000 0.000 1.000 setrgbcolor
fill
grestore
stroke
grestore
} bind def
116.64 46.9193 o
156.32 49.24 o
196 53.2885 o
235.68 54.6273 o
275.36 61.3804 o
315.04 71.8617 o
354.72 97.4858 o
394.4 121.218 o
434.08 172.591 o
473.76 207.06 o
grestore
1.000 setlinewidth
2 setlinecap
gsave
446.4 345.6 72 43.2 clipbox
116.64 46.8668 m
156.32 49.0099 l
196 52.8557 l
235.68 53.98 l
275.36 60.2095 l
315.04 70.761 l
354.72 95.6046 l
394.4 119.105 l
434.08 169.863 l
473.76 203.86 l
stroke
grestore
0.500 setlinewidth
0 setlinecap
0.000 0.500 0.000 setrgbcolor
gsave
446.4 345.6 72 43.2 clipbox
/o {
gsave
newpath
translate
0.5 setlinewidth
1 setlinejoin
0 setlinecap
3 -1.83697e-16 m
-3 1.83697e-16 l
gsave
0.000 0.500 0.000 setrgbcolor
fill
grestore
stroke
grestore
} bind def
116.64 48.3609 o
156.32 51.802 o
196 56.8135 o
235.68 67.5958 o
275.36 67.3367 o
315.04 106.072 o
354.72 109.867 o
394.4 157.755 o
434.08 221.007 o
473.76 294.735 o
grestore
gsave
446.4 345.6 72 43.2 clipbox
/o {
gsave
newpath
translate
0.5 setlinewidth
1 setlinejoin
0 setlinecap
3 -1.83697e-16 m
-3 1.83697e-16 l
gsave
0.000 0.500 0.000 setrgbcolor
fill
grestore
stroke
grestore
} bind def
116.64 48.476 o
156.32 52.1378 o
196 57.9478 o
235.68 69.6091 o
275.36 69.7609 o
315.04 108.38 o
354.72 114.396 o
394.4 162.148 o
434.08 226.556 o
473.76 300.659 o
grestore
1.000 setlinewidth
2 setlinecap
gsave
446.4 345.6 72 43.2 clipbox
116.64 48.4184 m
156.32 51.9699 l
196 57.3806 l
235.68 68.6024 l
275.36 68.5488 l
315.04 107.226 l
354.72 112.132 l
394.4 159.951 l
434.08 223.781 l
473.76 297.697 l
stroke
grestore
0.500 setlinewidth
0 setlinecap
1.000 0.000 0.000 setrgbcolor
gsave
446.4 345.6 72 43.2 clipbox
/o {
gsave
newpath
translate
0.5 setlinewidth
1 setlinejoin
0 setlinecap
3 -1.83697e-16 m
-3 1.83697e-16 l
gsave
1.000 0.000 0.000 setrgbcolor
fill
grestore
stroke
grestore
} bind def
116.64 50.1431 o
156.32 57.2041 o
196 61.5021 o
235.68 72.8044 o
275.36 85.781 o
315.04 108.831 o
354.72 136.66 o
394.4 218.232 o
434.08 278.474 o
473.76 341.083 o
grestore
gsave
446.4 345.6 72 43.2 clipbox
/o {
gsave
newpath
translate
0.5 setlinewidth
1 setlinejoin
0 setlinecap
3 -1.83697e-16 m
-3 1.83697e-16 l
gsave
1.000 0.000 0.000 setrgbcolor
fill
grestore
stroke
grestore
} bind def
116.64 50.3649 o
156.32 58.0925 o
196 62.6757 o
235.68 74.2991 o
275.36 88.533 o
315.04 113.811 o
354.72 140.474 o
394.4 223.453 o
434.08 283.528 o
473.76 348.775 o
grestore
1.000 setlinewidth
2 setlinecap
gsave
446.4 345.6 72 43.2 clipbox
116.64 50.254 m
156.32 57.6483 l
196 62.0889 l
235.68 73.5518 l
275.36 87.157 l
315.04 111.321 l
354.72 138.567 l
394.4 220.842 l
434.08 281.001 l
473.76 344.929 l
stroke
grestore
0.500 setlinewidth
0 setlinecap
0.000 0.750 0.750 setrgbcolor
gsave
446.4 345.6 72 43.2 clipbox
/o {
gsave
newpath
translate
0.5 setlinewidth
1 setlinejoin
0 setlinecap
3 -1.83697e-16 m
-3 1.83697e-16 l
gsave
0.000 0.750 0.750 setrgbcolor
fill
grestore
stroke
grestore
} bind def
116.64 48.9089 o
161.28 55.0455 o
250.56 73.0256 o
295.2 88.8234 o
339.84 115.06 o
384.48 159.338 o
429.12 233.178 o
473.76 352.765 o
grestore
gsave
446.4 345.6 72 43.2 clipbox
/o {
gsave
newpath
translate
0.5 setlinewidth
1 setlinejoin
0 setlinecap
3 -1.83697e-16 m
-3 1.83697e-16 l
gsave
0.000 0.750 0.750 setrgbcolor
fill
grestore
stroke
grestore
} bind def
116.64 48.9204 o
161.28 55.0801 o
250.56 73.0832 o
295.2 88.9962 o
339.84 115.463 o
384.48 159.741 o
429.12 233.754 o
473.76 353.917 o
grestore
1.000 setlinewidth
2 setlinecap
gsave
446.4 345.6 72 43.2 clipbox
116.64 48.9147 m
161.28 55.0628 l
250.56 73.0544 l
295.2 88.9098 l
339.84 115.261 l
384.48 159.539 l
429.12 233.466 l
473.76 353.341 l
stroke
grestore
0.500 setlinewidth
0 setlinecap
0.000 setgray
gsave
/o {
gsave
newpath
translate
0.5 setlinewidth
1 setlinejoin
0 setlinecap
0 0 m
0 4 l
gsave
0.000 setgray
fill
grestore
stroke
grestore
} bind def
72 43.2 o
grestore
gsave
/o {
gsave
newpath
translate
0.5 setlinewidth
1 setlinejoin
0 setlinecap
0 0 m
0 -4 l
gsave
0.000 setgray
fill
grestore
stroke
grestore
} bind def
72 388.8 o
grestore
/DejaVuSans findfont
12.000 scalefont
setfont
gsave
63.250000 30.075000 translate
0.000000 rotate
0.000000 0.000000 m /zero glyphshow
7.634766 0.000000 m /period glyphshow
11.449219 0.000000 m /zero glyphshow
grestore
gsave
/o {
gsave
newpath
translate
0.5 setlinewidth
1 setlinejoin
0 setlinecap
0 0 m
0 4 l
gsave
0.000 setgray
fill
grestore
stroke
grestore
} bind def
161.28 43.2 o
grestore
gsave
/o {
gsave
newpath
translate
0.5 setlinewidth
1 setlinejoin
0 setlinecap
0 0 m
0 -4 l
gsave
0.000 setgray
fill
grestore
stroke
grestore
} bind def
161.28 388.8 o
grestore
gsave
152.733125 30.075000 translate
0.000000 rotate
0.000000 0.000000 m /zero glyphshow
7.634766 0.000000 m /period glyphshow
11.449219 0.000000 m /two glyphshow
grestore
gsave
/o {
gsave
newpath
translate
0.5 setlinewidth
1 setlinejoin
0 setlinecap
0 0 m
0 4 l
gsave
0.000 setgray
fill
grestore
stroke
grestore
} bind def
250.56 43.2 o
grestore
gsave
/o {
gsave
newpath
translate
0.5 setlinewidth
1 setlinejoin
0 setlinecap
0 0 m
0 -4 l
gsave
0.000 setgray
fill
grestore
stroke
grestore
} bind def
250.56 388.8 o
grestore
gsave
241.747500 30.075000 translate
0.000000 rotate
0.000000 0.000000 m /zero glyphshow
7.634766 0.000000 m /period glyphshow
11.449219 0.000000 m /four glyphshow
grestore
gsave
/o {
gsave
newpath
translate
0.5 setlinewidth
1 setlinejoin
0 setlinecap
0 0 m
0 4 l
gsave
0.000 setgray
fill
grestore
stroke
grestore
} bind def
339.84 43.2 o
grestore
gsave
/o {
gsave
newpath
translate
0.5 setlinewidth
1 setlinejoin
0 setlinecap
0 0 m
0 -4 l
gsave
0.000 setgray
fill
grestore
stroke
grestore
} bind def
339.84 388.8 o
grestore
gsave
331.074375 30.075000 translate
0.000000 rotate
0.000000 0.000000 m /zero glyphshow
7.634766 0.000000 m /period glyphshow
11.449219 0.000000 m /six glyphshow
grestore
gsave
/o {
gsave
newpath
translate
0.5 setlinewidth
1 setlinejoin
0 setlinecap
0 0 m
0 4 l
gsave
0.000 setgray
fill
grestore
stroke
grestore
} bind def
429.12 43.2 o
grestore
gsave
/o {
gsave
newpath
translate
0.5 setlinewidth
1 setlinejoin
0 setlinecap
0 0 m
0 -4 l
gsave
0.000 setgray
fill
grestore
stroke
grestore
} bind def
429.12 388.8 o
grestore
gsave
420.385625 30.075000 translate
0.000000 rotate
0.000000 0.000000 m /zero glyphshow
7.634766 0.000000 m /period glyphshow
11.449219 0.000000 m /eight glyphshow
grestore
gsave
/o {
gsave
newpath
translate
0.5 setlinewidth
1 setlinejoin
0 setlinecap
0 0 m
0 4 l
gsave
0.000 setgray
fill
grestore
stroke
grestore
} bind def
518.4 43.2 o
grestore
gsave
/o {
gsave
newpath
translate
0.5 setlinewidth
1 setlinejoin
0 setlinecap
0 0 m
0 -4 l
gsave
0.000 setgray
fill
grestore
stroke
grestore
} bind def
518.4 388.8 o
grestore
gsave
509.907812 30.075000 translate
0.000000 rotate
0.000000 0.000000 m /one glyphshow
7.634766 0.000000 m /period glyphshow
11.449219 0.000000 m /zero glyphshow
grestore
gsave
279.200000 11.575000 translate
0.000000 rotate
/Cmmi10 findfont
12.0 scalefont
setfont
0.000000 0.298125 moveto
/rho glyphshow

6.205078 0.298125 moveto
/slash glyphshow

12.205078 0.298125 moveto
/sigma glyphshow

/Cmsy10 findfont
8.4 scalefont
setfont
19.054688 5.400000 moveto
/minus glyphshow

/Cmr10 findfont
8.4 scalefont
setfont
25.580273 5.400000 moveto
/three glyphshow


grestore
gsave
/o {
gsave
newpath
translate
0.5 setlinewidth
1 setlinejoin
0 setlinecap
0 0 m
4 0 l
gsave
0.000 setgray
fill
grestore
stroke
grestore
} bind def
72 43.2 o
grestore
gsave
/o {
gsave
newpath
translate
0.5 setlinewidth
1 setlinejoin
0 setlinecap
0 0 m
-4 0 l
gsave
0.000 setgray
fill
grestore
stroke
grestore
} bind def
518.4 43.2 o
grestore
gsave
61.953125 39.887500 translate
0.000000 rotate
0.000000 0.000000 m /zero glyphshow
grestore
gsave
/o {
gsave
newpath
translate
0.5 setlinewidth
1 setlinejoin
0 setlinecap
0 0 m
4 0 l
gsave
0.000 setgray
fill
grestore
stroke
grestore
} bind def
72 100.8 o
grestore
gsave
/o {
gsave
newpath
translate
0.5 setlinewidth
1 setlinejoin
0 setlinecap
0 0 m
-4 0 l
gsave
0.000 setgray
fill
grestore
stroke
grestore
} bind def
518.4 100.8 o
grestore
gsave
62.437500 97.487500 translate
0.000000 rotate
0.000000 0.000000 m /two glyphshow
grestore
gsave
/o {
gsave
newpath
translate
0.5 setlinewidth
1 setlinejoin
0 setlinecap
0 0 m
4 0 l
gsave
0.000 setgray
fill
grestore
stroke
grestore
} bind def
72 158.4 o
grestore
gsave
/o {
gsave
newpath
translate
0.5 setlinewidth
1 setlinejoin
0 setlinecap
0 0 m
-4 0 l
gsave
0.000 setgray
fill
grestore
stroke
grestore
} bind def
518.4 158.4 o
grestore
gsave
61.625000 155.087500 translate
0.000000 rotate
0.000000 0.000000 m /four glyphshow
grestore
gsave
/o {
gsave
newpath
translate
0.5 setlinewidth
1 setlinejoin
0 setlinecap
0 0 m
4 0 l
gsave
0.000 setgray
fill
grestore
stroke
grestore
} bind def
72 216 o
grestore
gsave
/o {
gsave
newpath
translate
0.5 setlinewidth
1 setlinejoin
0 setlinecap
0 0 m
-4 0 l
gsave
0.000 setgray
fill
grestore
stroke
grestore
} bind def
518.4 216 o
grestore
gsave
61.968750 212.687500 translate
0.000000 rotate
0.000000 0.000000 m /six glyphshow
grestore
gsave
/o {
gsave
newpath
translate
0.5 setlinewidth
1 setlinejoin
0 setlinecap
0 0 m
4 0 l
gsave
0.000 setgray
fill
grestore
stroke
grestore
} bind def
72 273.6 o
grestore
gsave
/o {
gsave
newpath
translate
0.5 setlinewidth
1 setlinejoin
0 setlinecap
0 0 m
-4 0 l
gsave
0.000 setgray
fill
grestore
stroke
grestore
} bind def
518.4 273.6 o
grestore
gsave
62.000000 270.287500 translate
0.000000 rotate
0.000000 0.000000 m /eight glyphshow
grestore
gsave
/o {
gsave
newpath
translate
0.5 setlinewidth
1 setlinejoin
0 setlinecap
0 0 m
4 0 l
gsave
0.000 setgray
fill
grestore
stroke
grestore
} bind def
72 331.2 o
grestore
gsave
/o {
gsave
newpath
translate
0.5 setlinewidth
1 setlinejoin
0 setlinecap
0 0 m
-4 0 l
gsave
0.000 setgray
fill
grestore
stroke
grestore
} bind def
518.4 331.2 o
grestore
gsave
54.828125 327.887500 translate
0.000000 rotate
0.000000 0.000000 m /one glyphshow
7.634766 0.000000 m /zero glyphshow
grestore
gsave
/o {
gsave
newpath
translate
0.5 setlinewidth
1 setlinejoin
0 setlinecap
0 0 m
4 0 l
gsave
0.000 setgray
fill
grestore
stroke
grestore
} bind def
72 388.8 o
grestore
gsave
/o {
gsave
newpath
translate
0.5 setlinewidth
1 setlinejoin
0 setlinecap
0 0 m
-4 0 l
gsave
0.000 setgray
fill
grestore
stroke
grestore
} bind def
518.4 388.8 o
grestore
gsave
55.234375 385.487500 translate
0.000000 rotate
0.000000 0.000000 m /one glyphshow
7.634766 0.000000 m /two glyphshow
grestore
gsave
46.828125 194.500000 translate
90.000000 rotate
/Cmmi10 findfont
12.0 scalefont
setfont
0.000000 0.298125 moveto
/p glyphshow

6.035156 0.298125 moveto
/slash glyphshow

12.035156 0.298125 moveto
/epsilon1 glyphshow

/Cmsy10 findfont
12.0 scalefont
setfont
18.999609 0.298125 moveto
/periodcentered glyphshow

/Cmmi10 findfont
12.0 scalefont
setfont
22.419141 0.298125 moveto
/sigma glyphshow

/Cmsy10 findfont
8.4 scalefont
setfont
29.268750 5.400000 moveto
/minus glyphshow

/Cmr10 findfont
8.4 scalefont
setfont
35.794336 5.400000 moveto
/two glyphshow


grestore
1.000 setlinewidth
gsave
72 388.8 m
518.4 388.8 l
stroke
grestore
gsave
518.4 43.2 m
518.4 388.8 l
stroke
grestore
gsave
72 43.2 m
518.4 43.2 l
stroke
grestore
gsave
72 43.2 m
72 388.8 l
stroke
grestore
gsave
79.2 293.199 m
194.04 293.199 l
194.04 381.6 l
79.2 381.6 l
79.2 293.199 l
cl
gsave
1.000 setgray
fill
grestore
stroke
grestore
/p4_0 {
newpath
translate
89.28 363.039 m
89.28 377.439 l
} bind def
/p4_1 {
newpath
translate
109.44 363.039 m
109.44 377.439 l
} bind def
0.000 0.000 1.000 setrgbcolor
gsave
0 0 p4_0
stroke
grestore
gsave
0 0 p4_1
stroke
grestore
0.500 setlinewidth
gsave
/o {
gsave
newpath
translate
0.5 setlinewidth
1 setlinejoin
0 setlinecap
3 -1.83697e-16 m
-3 1.83697e-16 l
gsave
0.000 0.000 1.000 setrgbcolor
fill
grestore
stroke
grestore
} bind def
89.28 363.039 o
109.44 363.039 o
grestore
gsave
/o {
gsave
newpath
translate
0.5 setlinewidth
1 setlinejoin
0 setlinecap
3 -1.83697e-16 m
-3 1.83697e-16 l
gsave
0.000 0.000 1.000 setrgbcolor
fill
grestore
stroke
grestore
} bind def
89.28 377.439 o
109.44 377.439 o
grestore
1.000 setlinewidth
2 setlinecap
gsave
89.28 370.239 m
109.44 370.239 l
stroke
grestore
0.000 setgray
gsave
125.280000 365.199375 translate
0.000000 rotate
/Cmmi10 findfont
14.4 scalefont
setfont
0.000000 0.171875 moveto
/T glyphshow

/Cmr10 findfont
14.4 scalefont
setfont
10.930692 0.171875 moveto
/equal glyphshow

23.019983 0.171875 moveto
/one glyphshow

/Cmmi10 findfont
14.4 scalefont
setfont
30.215295 0.171875 moveto
/period glyphshow

/Cmr10 findfont
14.4 scalefont
setfont
34.320212 0.171875 moveto
/five glyphshow


grestore
/p5_0 {
newpath
translate
89.28 342.293 m
89.28 356.693 l
} bind def
/p5_1 {
newpath
translate
109.44 342.293 m
109.44 356.693 l
} bind def
0 setlinecap
0.000 0.500 0.000 setrgbcolor
gsave
0 0 p5_0
stroke
grestore
gsave
0 0 p5_1
stroke
grestore
0.500 setlinewidth
gsave
/o {
gsave
newpath
translate
0.5 setlinewidth
1 setlinejoin
0 setlinecap
3 -1.83697e-16 m
-3 1.83697e-16 l
gsave
0.000 0.500 0.000 setrgbcolor
fill
grestore
stroke
grestore
} bind def
89.28 342.293 o
109.44 342.293 o
grestore
gsave
/o {
gsave
newpath
translate
0.5 setlinewidth
1 setlinejoin
0 setlinecap
3 -1.83697e-16 m
-3 1.83697e-16 l
gsave
0.000 0.500 0.000 setrgbcolor
fill
grestore
stroke
grestore
} bind def
89.28 356.693 o
109.44 356.693 o
grestore
1.000 setlinewidth
2 setlinecap
gsave
89.28 349.493 m
109.44 349.493 l
stroke
grestore
0.000 setgray
gsave
125.280000 344.452500 translate
0.000000 rotate
/Cmmi10 findfont
14.4 scalefont
setfont
0.000000 0.171875 moveto
/T glyphshow

/Cmr10 findfont
14.4 scalefont
setfont
10.930692 0.171875 moveto
/equal glyphshow

23.019983 0.171875 moveto
/two glyphshow

/Cmmi10 findfont
14.4 scalefont
setfont
30.215295 0.171875 moveto
/period glyphshow

/Cmr10 findfont
14.4 scalefont
setfont
34.320212 0.171875 moveto
/zero glyphshow


grestore
/p6_0 {
newpath
translate
89.28 321.546 m
89.28 335.946 l
} bind def
/p6_1 {
newpath
translate
109.44 321.546 m
109.44 335.946 l
} bind def
0 setlinecap
1.000 0.000 0.000 setrgbcolor
gsave
0 0 p6_0
stroke
grestore
gsave
0 0 p6_1
stroke
grestore
0.500 setlinewidth
gsave
/o {
gsave
newpath
translate
0.5 setlinewidth
1 setlinejoin
0 setlinecap
3 -1.83697e-16 m
-3 1.83697e-16 l
gsave
1.000 0.000 0.000 setrgbcolor
fill
grestore
stroke
grestore
} bind def
89.28 321.546 o
109.44 321.546 o
grestore
gsave
/o {
gsave
newpath
translate
0.5 setlinewidth
1 setlinejoin
0 setlinecap
3 -1.83697e-16 m
-3 1.83697e-16 l
gsave
1.000 0.000 0.000 setrgbcolor
fill
grestore
stroke
grestore
} bind def
89.28 335.946 o
109.44 335.946 o
grestore
1.000 setlinewidth
2 setlinecap
gsave
89.28 328.746 m
109.44 328.746 l
stroke
grestore
0.000 setgray
gsave
125.280000 323.705625 translate
0.000000 rotate
/Cmmi10 findfont
14.4 scalefont
setfont
0.000000 0.171875 moveto
/T glyphshow

/Cmr10 findfont
14.4 scalefont
setfont
10.930692 0.171875 moveto
/equal glyphshow

23.019983 0.171875 moveto
/two glyphshow

/Cmmi10 findfont
14.4 scalefont
setfont
30.215295 0.171875 moveto
/period glyphshow

/Cmr10 findfont
14.4 scalefont
setfont
34.320212 0.171875 moveto
/five glyphshow


grestore
/p7_0 {
newpath
translate
89.28 300.799 m
89.28 315.199 l
} bind def
/p7_1 {
newpath
translate
109.44 300.799 m
109.44 315.199 l
} bind def
0 setlinecap
0.000 0.750 0.750 setrgbcolor
gsave
0 0 p7_0
stroke
grestore
gsave
0 0 p7_1
stroke
grestore
0.500 setlinewidth
gsave
/o {
gsave
newpath
translate
0.5 setlinewidth
1 setlinejoin
0 setlinecap
3 -1.83697e-16 m
-3 1.83697e-16 l
gsave
0.000 0.750 0.750 setrgbcolor
fill
grestore
stroke
grestore
} bind def
89.28 300.799 o
109.44 300.799 o
grestore
gsave
/o {
gsave
newpath
translate
0.5 setlinewidth
1 setlinejoin
0 setlinecap
3 -1.83697e-16 m
-3 1.83697e-16 l
gsave
0.000 0.750 0.750 setrgbcolor
fill
grestore
stroke
grestore
} bind def
89.28 315.199 o
109.44 315.199 o
grestore
1.000 setlinewidth
2 setlinecap
gsave
89.28 307.999 m
109.44 307.999 l
stroke
grestore
0.000 setgray
gsave
125.280000 302.958750 translate
0.000000 rotate
/Cmmi10 findfont
14.4 scalefont
setfont
0.000000 0.171875 moveto
/P glyphshow

/Cmmi10 findfont
10.08 scalefont
setfont
9.240067 -3.501475 moveto
/J glyphshow

/Cmmi10 findfont
14.4 scalefont
setfont
17.215332 0.171875 moveto
/comma glyphshow

21.476498 0.171875 moveto
/T glyphshow

/Cmr10 findfont
14.4 scalefont
setfont
32.407190 0.171875 moveto
/equal glyphshow

44.496481 0.171875 moveto
/two glyphshow

/Cmmi10 findfont
14.4 scalefont
setfont
51.691794 0.171875 moveto
/period glyphshow

/Cmr10 findfont
14.4 scalefont
setfont
55.796710 0.171875 moveto
/zero glyphshow


grestore

end
showpage
