%!PS-Adobe-3.0 EPSF-3.0
%%Title: symeuler.eps
%%Creator: matplotlib version 1.4.3, http://matplotlib.org/
%%CreationDate: Mon May 25 16:54:51 2015
%%Orientation: portrait
%%BoundingBox: 18 180 594 612
%%EndComments
%%BeginProlog
/mpldict 8 dict def
mpldict begin
/m { moveto } bind def
/l { lineto } bind def
/r { rlineto } bind def
/c { curveto } bind def
/cl { closepath } bind def
/box {
m
1 index 0 r
0 exch r
neg 0 r
cl
} bind def
/clipbox {
box
clip
newpath
} bind def
%!PS-Adobe-3.0 Resource-Font
%%Title: Bitstream Vera Sans
%%Copyright: Copyright (c) 2003 by Bitstream, Inc. All Rights Reserved.
%%Creator: Converted from TrueType to type 3 by PPR
25 dict begin
/_d{bind def}bind def
/_m{moveto}_d
/_l{lineto}_d
/_cl{closepath eofill}_d
/_c{curveto}_d
/_sc{7 -1 roll{setcachedevice}{pop pop pop pop pop pop}ifelse}_d
/_e{exec}_d
/FontName /BitstreamVeraSans-Roman def
/PaintType 0 def
/FontMatrix[.001 0 0 .001 0 0]def
/FontBBox[-183 -236 1287 928]def
/FontType 3 def
/Encoding [ /zero /one /two /e /i /m /n /o /p /s /t /u /minus ] def
/FontInfo 10 dict dup begin
/FamilyName (Bitstream Vera Sans) def
/FullName (Bitstream Vera Sans) def
/Notice (Copyright (c) 2003 by Bitstream, Inc. All Rights Reserved. Bitstream Vera is a trademark of Bitstream, Inc.) def
/Weight (Roman) def
/Version (Release 1.10) def
/ItalicAngle 0.0 def
/isFixedPitch false def
/UnderlinePosition -213 def
/UnderlineThickness 143 def
end readonly def
/CharStrings 13 dict dup begin
/zero{636 0 66 -13 570 742 _sc
318 664 _m
267 664 229 639 203 589 _c
177 539 165 464 165 364 _c
165 264 177 189 203 139 _c
229 89 267 64 318 64 _c
369 64 407 89 433 139 _c
458 189 471 264 471 364 _c
471 464 458 539 433 589 _c
407 639 369 664 318 664 _c
318 742 _m
399 742 461 709 505 645 _c
548 580 570 486 570 364 _c
570 241 548 147 505 83 _c
461 19 399 -13 318 -13 _c
236 -13 173 19 130 83 _c
87 147 66 241 66 364 _c
66 486 87 580 130 645 _c
173 709 236 742 318 742 _c
_cl}_d
/one{636 0 110 0 544 729 _sc
124 83 _m
285 83 _l
285 639 _l
110 604 _l
110 694 _l
284 729 _l
383 729 _l
383 83 _l
544 83 _l
544 0 _l
124 0 _l
124 83 _l
_cl}_d
/two{{636 0 73 0 536 742 _sc
192 83 _m
536 83 _l
536 0 _l
73 0 _l
73 83 _l
110 121 161 173 226 239 _c
290 304 331 346 348 365 _c
380 400 402 430 414 455 _c
426 479 433 504 433 528 _c
433 566 419 598 392 622 _c
365 646 330 659 286 659 _c
255 659 222 653 188 643 _c
154 632 117 616 78 594 _c
78 694 _l
118 710 155 722 189 730 _c
223 738 255 742 284 742 _c
}_e{359 742 419 723 464 685 _c
509 647 532 597 532 534 _c
532 504 526 475 515 449 _c
504 422 484 390 454 354 _c
446 344 420 317 376 272 _c
332 227 271 164 192 83 _c
_cl}_e}_d
/e{{615 0 55 -13 562 560 _sc
562 296 _m
562 252 _l
149 252 _l
153 190 171 142 205 110 _c
238 78 284 62 344 62 _c
378 62 412 66 444 74 _c
476 82 509 95 541 113 _c
541 28 _l
509 14 476 3 442 -3 _c
408 -9 373 -13 339 -13 _c
251 -13 182 12 131 62 _c
80 112 55 181 55 268 _c
55 357 79 428 127 481 _c
175 533 241 560 323 560 _c
397 560 455 536 498 489 _c
}_e{540 441 562 377 562 296 _c
472 322 _m
471 371 457 410 431 440 _c
404 469 368 484 324 484 _c
274 484 234 469 204 441 _c
174 413 156 373 152 322 _c
472 322 _l
_cl}_e}_d
/i{278 0 94 0 184 760 _sc
94 547 _m
184 547 _l
184 0 _l
94 0 _l
94 547 _l
94 760 _m
184 760 _l
184 646 _l
94 646 _l
94 760 _l
_cl}_d
/m{{974 0 91 0 889 560 _sc
520 442 _m
542 482 569 511 600 531 _c
631 550 668 560 711 560 _c
767 560 811 540 842 500 _c
873 460 889 403 889 330 _c
889 0 _l
799 0 _l
799 327 _l
799 379 789 418 771 444 _c
752 469 724 482 686 482 _c
639 482 602 466 575 435 _c
548 404 535 362 535 309 _c
535 0 _l
445 0 _l
445 327 _l
445 379 435 418 417 444 _c
398 469 369 482 331 482 _c
}_e{285 482 248 466 221 435 _c
194 404 181 362 181 309 _c
181 0 _l
91 0 _l
91 547 _l
181 547 _l
181 462 _l
201 495 226 520 255 536 _c
283 552 317 560 357 560 _c
397 560 430 550 458 530 _c
486 510 506 480 520 442 _c
_cl}_e}_d
/n{634 0 91 0 549 560 _sc
549 330 _m
549 0 _l
459 0 _l
459 327 _l
459 379 448 417 428 443 _c
408 469 378 482 338 482 _c
289 482 251 466 223 435 _c
195 404 181 362 181 309 _c
181 0 _l
91 0 _l
91 547 _l
181 547 _l
181 462 _l
202 494 227 519 257 535 _c
286 551 320 560 358 560 _c
420 560 468 540 500 501 _c
532 462 549 405 549 330 _c
_cl}_d
/o{612 0 55 -13 557 560 _sc
306 484 _m
258 484 220 465 192 427 _c
164 389 150 338 150 273 _c
150 207 163 156 191 118 _c
219 80 257 62 306 62 _c
354 62 392 80 420 118 _c
448 156 462 207 462 273 _c
462 337 448 389 420 427 _c
392 465 354 484 306 484 _c
306 560 _m
384 560 445 534 490 484 _c
534 433 557 363 557 273 _c
557 183 534 113 490 63 _c
445 12 384 -13 306 -13 _c
227 -13 165 12 121 63 _c
77 113 55 183 55 273 _c
55 363 77 433 121 484 _c
165 534 227 560 306 560 _c
_cl}_d
/p{{635 0 91 -207 580 560 _sc
181 82 _m
181 -207 _l
91 -207 _l
91 547 _l
181 547 _l
181 464 _l
199 496 223 520 252 536 _c
281 552 316 560 356 560 _c
422 560 476 533 518 481 _c
559 428 580 359 580 273 _c
580 187 559 117 518 65 _c
476 13 422 -13 356 -13 _c
316 -13 281 -5 252 10 _c
223 25 199 49 181 82 _c
487 273 _m
487 339 473 390 446 428 _c
418 466 381 485 334 485 _c
}_e{286 485 249 466 222 428 _c
194 390 181 339 181 273 _c
181 207 194 155 222 117 _c
249 79 286 61 334 61 _c
381 61 418 79 446 117 _c
473 155 487 207 487 273 _c
_cl}_e}_d
/s{{521 0 54 -13 472 560 _sc
443 531 _m
443 446 _l
417 458 391 468 364 475 _c
336 481 308 485 279 485 _c
234 485 200 478 178 464 _c
156 450 145 430 145 403 _c
145 382 153 366 169 354 _c
185 342 217 330 265 320 _c
296 313 _l
360 299 405 279 432 255 _c
458 230 472 195 472 151 _c
472 100 452 60 412 31 _c
372 1 316 -13 246 -13 _c
216 -13 186 -10 154 -5 _c
}_e{122 0 89 8 54 20 _c
54 113 _l
87 95 120 82 152 74 _c
184 65 216 61 248 61 _c
290 61 323 68 346 82 _c
368 96 380 117 380 144 _c
380 168 371 187 355 200 _c
339 213 303 226 247 238 _c
216 245 _l
160 257 119 275 95 299 _c
70 323 58 356 58 399 _c
58 450 76 490 112 518 _c
148 546 200 560 268 560 _c
301 560 332 557 362 552 _c
391 547 418 540 443 531 _c
}_e{_cl}_e}_d
/t{392 0 27 0 368 702 _sc
183 702 _m
183 547 _l
368 547 _l
368 477 _l
183 477 _l
183 180 _l
183 135 189 106 201 94 _c
213 81 238 75 276 75 _c
368 75 _l
368 0 _l
276 0 _l
206 0 158 13 132 39 _c
106 65 93 112 93 180 _c
93 477 _l
27 477 _l
27 547 _l
93 547 _l
93 702 _l
183 702 _l
_cl}_d
/u{634 0 85 -13 543 547 _sc
85 216 _m
85 547 _l
175 547 _l
175 219 _l
175 167 185 129 205 103 _c
225 77 255 64 296 64 _c
344 64 383 79 411 110 _c
439 141 453 183 453 237 _c
453 547 _l
543 547 _l
543 0 _l
453 0 _l
453 84 _l
431 50 405 26 377 10 _c
348 -5 315 -13 277 -13 _c
214 -13 166 6 134 45 _c
101 83 85 140 85 216 _c
_cl}_d
/minus{838 0 106 272 732 355 _sc
106 355 _m
732 355 _l
732 272 _l
106 272 _l
106 355 _l
_cl}_d
end readonly def

/BuildGlyph
 {exch begin
 CharStrings exch
 2 copy known not{pop /.notdef}if
 true 3 1 roll get exec
 end}_d

/BuildChar {
 1 index /Encoding get exch get
 1 index /BuildGlyph get exec
}_d

FontName currentdict end definefont pop
end
%%EndProlog
mpldict begin
18 180 translate
576 432 0 0 clipbox
gsave
0 0 m
576 0 l
576 432 l
0 432 l
cl
1.000 setgray
fill
grestore
gsave
122.4 43.2 m
468 43.2 l
468 388.8 l
122.4 388.8 l
cl
1.000 setgray
fill
grestore
1.000 setlinewidth
1 setlinejoin
2 setlinecap
[] 0 setdash
1.000 0.000 0.000 setrgbcolor
gsave
345.6 345.6 122.4 43.2 clipbox
364.32 216 m
371.232 216 l
371.232 222.912 l
364.32 222.912 l
364.32 216 l
stroke
grestore
0.500 setlinewidth
0 setlinecap
0.000 0.000 1.000 setrgbcolor
gsave
345.6 345.6 122.4 43.2 clipbox
/o {
gsave
newpath
translate
0.5 setlinewidth
1 setlinejoin
0 setlinecap
0 -1.5 m
0.397805 -1.5 0.77937 -1.34195 1.06066 -1.06066 c
1.34195 -0.77937 1.5 -0.397805 1.5 0 c
1.5 0.397805 1.34195 0.77937 1.06066 1.06066 c
0.77937 1.34195 0.397805 1.5 0 1.5 c
-0.397805 1.5 -0.77937 1.34195 -1.06066 1.06066 c
-1.34195 0.77937 -1.5 0.397805 -1.5 0 c
-1.5 -0.397805 -1.34195 -0.77937 -1.06066 -1.06066 c
-0.77937 -1.34195 -0.397805 -1.5 0 -1.5 c
cl
gsave
0.000 0.000 1.000 setrgbcolor
fill
grestore
stroke
grestore
} bind def
364.32 216 o
371.232 216 o
371.232 222.912 o
364.32 222.912 o
364.32 216 o
grestore
1.000 setlinewidth
2 setlinecap
1.000 0.000 0.000 setrgbcolor
gsave
345.6 345.6 122.4 43.2 clipbox
364.32 194.285 m
371.232 192.114 l
373.403 198.344 l
366.491 200.515 l
364.32 194.285 l
stroke
grestore
0.500 setlinewidth
0 setlinecap
0.000 0.000 1.000 setrgbcolor
gsave
345.6 345.6 122.4 43.2 clipbox
/o {
gsave
newpath
translate
0.5 setlinewidth
1 setlinejoin
0 setlinecap
0 -1.5 m
0.397805 -1.5 0.77937 -1.34195 1.06066 -1.06066 c
1.34195 -0.77937 1.5 -0.397805 1.5 0 c
1.5 0.397805 1.34195 0.77937 1.06066 1.06066 c
0.77937 1.34195 0.397805 1.5 0 1.5 c
-0.397805 1.5 -0.77937 1.34195 -1.06066 1.06066 c
-1.34195 0.77937 -1.5 0.397805 -1.5 0 c
-1.5 -0.397805 -1.34195 -0.77937 -1.06066 -1.06066 c
-0.77937 -1.34195 -0.397805 -1.5 0 -1.5 c
cl
gsave
0.000 0.000 1.000 setrgbcolor
fill
grestore
stroke
grestore
} bind def
364.32 194.285 o
371.232 192.114 o
373.403 198.344 o
366.491 200.515 o
364.32 194.285 o
grestore
1.000 setlinewidth
2 setlinecap
1.000 0.000 0.000 setrgbcolor
gsave
345.6 345.6 122.4 43.2 clipbox
357.498 174.714 m
363.728 170.585 l
367.857 175.518 l
361.627 179.647 l
357.498 174.714 l
stroke
grestore
0.500 setlinewidth
0 setlinecap
0.000 0.000 1.000 setrgbcolor
gsave
345.6 345.6 122.4 43.2 clipbox
/o {
gsave
newpath
translate
0.5 setlinewidth
1 setlinejoin
0 setlinecap
0 -1.5 m
0.397805 -1.5 0.77937 -1.34195 1.06066 -1.06066 c
1.34195 -0.77937 1.5 -0.397805 1.5 0 c
1.5 0.397805 1.34195 0.77937 1.06066 1.06066 c
0.77937 1.34195 0.397805 1.5 0 1.5 c
-0.397805 1.5 -0.77937 1.34195 -1.06066 1.06066 c
-1.34195 0.77937 -1.5 0.397805 -1.5 0 c
-1.5 -0.397805 -1.34195 -0.77937 -1.06066 -1.06066 c
-0.77937 -1.34195 -0.397805 -1.5 0 -1.5 c
cl
gsave
0.000 0.000 1.000 setrgbcolor
fill
grestore
stroke
grestore
} bind def
357.498 174.714 o
363.728 170.585 o
367.857 175.518 o
361.627 179.647 o
357.498 174.714 o
grestore
1.000 setlinewidth
2 setlinecap
1.000 0.000 0.000 setrgbcolor
gsave
345.6 345.6 122.4 43.2 clipbox
344.528 159.217 m
349.46 153.539 l
355.139 156.688 l
350.206 162.366 l
344.528 159.217 l
stroke
grestore
0.500 setlinewidth
0 setlinecap
0.000 0.000 1.000 setrgbcolor
gsave
345.6 345.6 122.4 43.2 clipbox
/o {
gsave
newpath
translate
0.5 setlinewidth
1 setlinejoin
0 setlinecap
0 -1.5 m
0.397805 -1.5 0.77937 -1.34195 1.06066 -1.06066 c
1.34195 -0.77937 1.5 -0.397805 1.5 0 c
1.5 0.397805 1.34195 0.77937 1.06066 1.06066 c
0.77937 1.34195 0.397805 1.5 0 1.5 c
-0.397805 1.5 -0.77937 1.34195 -1.06066 1.06066 c
-1.34195 0.77937 -1.5 0.397805 -1.5 0 c
-1.5 -0.397805 -1.34195 -0.77937 -1.06066 -1.06066 c
-0.77937 -1.34195 -0.397805 -1.5 0 -1.5 c
cl
gsave
0.000 0.000 1.000 setrgbcolor
fill
grestore
stroke
grestore
} bind def
344.528 159.217 o
349.46 153.539 o
355.139 156.688 o
350.206 162.366 o
344.528 159.217 o
grestore
1.000 setlinewidth
2 setlinecap
1.000 0.000 0.000 setrgbcolor
gsave
345.6 345.6 122.4 43.2 clipbox
326.689 149.325 m
329.838 142.657 l
336.505 143.711 l
333.356 150.379 l
326.689 149.325 l
stroke
grestore
0.500 setlinewidth
0 setlinecap
0.000 0.000 1.000 setrgbcolor
gsave
345.6 345.6 122.4 43.2 clipbox
/o {
gsave
newpath
translate
0.5 setlinewidth
1 setlinejoin
0 setlinecap
0 -1.5 m
0.397805 -1.5 0.77937 -1.34195 1.06066 -1.06066 c
1.34195 -0.77937 1.5 -0.397805 1.5 0 c
1.5 0.397805 1.34195 0.77937 1.06066 1.06066 c
0.77937 1.34195 0.397805 1.5 0 1.5 c
-0.397805 1.5 -0.77937 1.34195 -1.06066 1.06066 c
-1.34195 0.77937 -1.5 0.397805 -1.5 0 c
-1.5 -0.397805 -1.34195 -0.77937 -1.06066 -1.06066 c
-0.77937 -1.34195 -0.397805 -1.5 0 -1.5 c
cl
gsave
0.000 0.000 1.000 setrgbcolor
fill
grestore
stroke
grestore
} bind def
326.689 149.325 o
329.838 142.657 o
336.505 143.711 o
333.356 150.379 o
326.689 149.325 o
grestore
1.000 setlinewidth
2 setlinecap
1.000 0.000 0.000 setrgbcolor
gsave
345.6 345.6 122.4 43.2 clipbox
305.742 146.013 m
306.796 139.014 l
313.795 137.869 l
312.741 144.868 l
305.742 146.013 l
stroke
grestore
0.500 setlinewidth
0 setlinecap
0.000 0.000 1.000 setrgbcolor
gsave
345.6 345.6 122.4 43.2 clipbox
/o {
gsave
newpath
translate
0.5 setlinewidth
1 setlinejoin
0 setlinecap
0 -1.5 m
0.397805 -1.5 0.77937 -1.34195 1.06066 -1.06066 c
1.34195 -0.77937 1.5 -0.397805 1.5 0 c
1.5 0.397805 1.34195 0.77937 1.06066 1.06066 c
0.77937 1.34195 0.397805 1.5 0 1.5 c
-0.397805 1.5 -0.77937 1.34195 -1.06066 1.06066 c
-1.34195 0.77937 -1.5 0.397805 -1.5 0 c
-1.5 -0.397805 -1.34195 -0.77937 -1.06066 -1.06066 c
-0.77937 -1.34195 -0.397805 -1.5 0 -1.5 c
cl
gsave
0.000 0.000 1.000 setrgbcolor
fill
grestore
stroke
grestore
} bind def
305.742 146.013 o
306.796 139.014 o
313.795 137.869 o
312.741 144.868 o
305.742 146.013 o
grestore
1.000 setlinewidth
2 setlinecap
1.000 0.000 0.000 setrgbcolor
gsave
345.6 345.6 122.4 43.2 clipbox
283.755 149.608 m
282.61 142.969 l
289.25 139.739 l
290.394 146.378 l
283.755 149.608 l
stroke
grestore
0.500 setlinewidth
0 setlinecap
0.000 0.000 1.000 setrgbcolor
gsave
345.6 345.6 122.4 43.2 clipbox
/o {
gsave
newpath
translate
0.5 setlinewidth
1 setlinejoin
0 setlinecap
0 -1.5 m
0.397805 -1.5 0.77937 -1.34195 1.06066 -1.06066 c
1.34195 -0.77937 1.5 -0.397805 1.5 0 c
1.5 0.397805 1.34195 0.77937 1.06066 1.06066 c
0.77937 1.34195 0.397805 1.5 0 1.5 c
-0.397805 1.5 -0.77937 1.34195 -1.06066 1.06066 c
-1.34195 0.77937 -1.5 0.397805 -1.5 0 c
-1.5 -0.397805 -1.34195 -0.77937 -1.06066 -1.06066 c
-0.77937 -1.34195 -0.397805 -1.5 0 -1.5 c
cl
gsave
0.000 0.000 1.000 setrgbcolor
fill
grestore
stroke
grestore
} bind def
283.755 149.608 o
282.61 142.969 o
289.25 139.739 o
290.394 146.378 o
283.755 149.608 o
grestore
1.000 setlinewidth
2 setlinecap
1.000 0.000 0.000 setrgbcolor
gsave
345.6 345.6 122.4 43.2 clipbox
262.897 159.756 m
259.667 154.132 l
265.291 149.135 l
268.522 154.759 l
262.897 159.756 l
stroke
grestore
0.500 setlinewidth
0 setlinecap
0.000 0.000 1.000 setrgbcolor
gsave
345.6 345.6 122.4 43.2 clipbox
/o {
gsave
newpath
translate
0.5 setlinewidth
1 setlinejoin
0 setlinecap
0 -1.5 m
0.397805 -1.5 0.77937 -1.34195 1.06066 -1.06066 c
1.34195 -0.77937 1.5 -0.397805 1.5 0 c
1.5 0.397805 1.34195 0.77937 1.06066 1.06066 c
0.77937 1.34195 0.397805 1.5 0 1.5 c
-0.397805 1.5 -0.77937 1.34195 -1.06066 1.06066 c
-1.34195 0.77937 -1.5 0.397805 -1.5 0 c
-1.5 -0.397805 -1.34195 -0.77937 -1.06066 -1.06066 c
-0.77937 -1.34195 -0.397805 -1.5 0 -1.5 c
cl
gsave
0.000 0.000 1.000 setrgbcolor
fill
grestore
stroke
grestore
} bind def
262.897 159.756 o
259.667 154.132 o
265.291 149.135 o
268.522 154.759 o
262.897 159.756 o
grestore
1.000 setlinewidth
2 setlinecap
1.000 0.000 0.000 setrgbcolor
gsave
345.6 345.6 122.4 43.2 clipbox
245.228 175.456 m
240.231 171.401 l
244.285 165.13 l
249.282 169.185 l
245.228 175.456 l
stroke
grestore
0.500 setlinewidth
0 setlinecap
0.000 0.000 1.000 setrgbcolor
gsave
345.6 345.6 122.4 43.2 clipbox
/o {
gsave
newpath
translate
0.5 setlinewidth
1 setlinejoin
0 setlinecap
0 -1.5 m
0.397805 -1.5 0.77937 -1.34195 1.06066 -1.06066 c
1.34195 -0.77937 1.5 -0.397805 1.5 0 c
1.5 0.397805 1.34195 0.77937 1.06066 1.06066 c
0.77937 1.34195 0.397805 1.5 0 1.5 c
-0.397805 1.5 -0.77937 1.34195 -1.06066 1.06066 c
-1.34195 0.77937 -1.5 0.397805 -1.5 0 c
-1.5 -0.397805 -1.34195 -0.77937 -1.06066 -1.06066 c
-0.77937 -1.34195 -0.397805 -1.5 0 -1.5 c
cl
gsave
0.000 0.000 1.000 setrgbcolor
fill
grestore
stroke
grestore
} bind def
245.228 175.456 o
240.231 171.401 o
244.285 165.13 o
249.282 169.185 o
245.228 175.456 o
grestore
1.000 setlinewidth
2 setlinecap
1.000 0.000 0.000 setrgbcolor
gsave
345.6 345.6 122.4 43.2 clipbox
232.49 195.156 m
226.22 193.072 l
228.304 186.146 l
234.575 188.231 l
232.49 195.156 l
stroke
grestore
0.500 setlinewidth
0 setlinecap
0.000 0.000 1.000 setrgbcolor
gsave
345.6 345.6 122.4 43.2 clipbox
/o {
gsave
newpath
translate
0.5 setlinewidth
1 setlinejoin
0 setlinecap
0 -1.5 m
0.397805 -1.5 0.77937 -1.34195 1.06066 -1.06066 c
1.34195 -0.77937 1.5 -0.397805 1.5 0 c
1.5 0.397805 1.34195 0.77937 1.06066 1.06066 c
0.77937 1.34195 0.397805 1.5 0 1.5 c
-0.397805 1.5 -0.77937 1.34195 -1.06066 1.06066 c
-1.34195 0.77937 -1.5 0.397805 -1.5 0 c
-1.5 -0.397805 -1.34195 -0.77937 -1.06066 -1.06066 c
-0.77937 -1.34195 -0.397805 -1.5 0 -1.5 c
cl
gsave
0.000 0.000 1.000 setrgbcolor
fill
grestore
stroke
grestore
} bind def
232.49 195.156 o
226.22 193.072 o
228.304 186.146 o
234.575 188.231 o
232.49 195.156 o
grestore
1.000 setlinewidth
2 setlinecap
1.000 0.000 0.000 setrgbcolor
gsave
345.6 345.6 122.4 43.2 clipbox
225.942 216.914 m
219.016 217.006 l
218.925 210.109 l
225.851 210.017 l
225.942 216.914 l
stroke
grestore
0.500 setlinewidth
0 setlinecap
0.000 0.000 1.000 setrgbcolor
gsave
345.6 345.6 122.4 43.2 clipbox
/o {
gsave
newpath
translate
0.5 setlinewidth
1 setlinejoin
0 setlinecap
0 -1.5 m
0.397805 -1.5 0.77937 -1.34195 1.06066 -1.06066 c
1.34195 -0.77937 1.5 -0.397805 1.5 0 c
1.5 0.397805 1.34195 0.77937 1.06066 1.06066 c
0.77937 1.34195 0.397805 1.5 0 1.5 c
-0.397805 1.5 -0.77937 1.34195 -1.06066 1.06066 c
-1.34195 0.77937 -1.5 0.397805 -1.5 0 c
-1.5 -0.397805 -1.34195 -0.77937 -1.06066 -1.06066 c
-0.77937 -1.34195 -0.397805 -1.5 0 -1.5 c
cl
gsave
0.000 0.000 1.000 setrgbcolor
fill
grestore
stroke
grestore
} bind def
225.942 216.914 o
219.016 217.006 o
218.925 210.109 o
225.851 210.017 o
225.942 216.914 o
grestore
1.000 setlinewidth
2 setlinecap
1.000 0.000 0.000 setrgbcolor
gsave
345.6 345.6 122.4 43.2 clipbox
226.23 238.582 m
219.332 240.84 l
217.074 234.653 l
223.971 232.394 l
226.23 238.582 l
stroke
grestore
0.500 setlinewidth
0 setlinecap
0.000 0.000 1.000 setrgbcolor
gsave
345.6 345.6 122.4 43.2 clipbox
/o {
gsave
newpath
translate
0.5 setlinewidth
1 setlinejoin
0 setlinecap
0 -1.5 m
0.397805 -1.5 0.77937 -1.34195 1.06066 -1.06066 c
1.34195 -0.77937 1.5 -0.397805 1.5 0 c
1.5 0.397805 1.34195 0.77937 1.06066 1.06066 c
0.77937 1.34195 0.397805 1.5 0 1.5 c
-0.397805 1.5 -0.77937 1.34195 -1.06066 1.06066 c
-1.34195 0.77937 -1.5 0.397805 -1.5 0 c
-1.5 -0.397805 -1.34195 -0.77937 -1.06066 -1.06066 c
-0.77937 -1.34195 -0.397805 -1.5 0 -1.5 c
cl
gsave
0.000 0.000 1.000 setrgbcolor
fill
grestore
stroke
grestore
} bind def
226.23 238.582 o
219.332 240.84 o
217.074 234.653 o
223.971 232.394 o
226.23 238.582 o
grestore
1.000 setlinewidth
2 setlinecap
1.000 0.000 0.000 setrgbcolor
gsave
345.6 345.6 122.4 43.2 clipbox
233.324 258.021 m
227.136 262.223 l
222.934 257.356 l
229.122 253.154 l
233.324 258.021 l
stroke
grestore
0.500 setlinewidth
0 setlinecap
0.000 0.000 1.000 setrgbcolor
gsave
345.6 345.6 122.4 43.2 clipbox
/o {
gsave
newpath
translate
0.5 setlinewidth
1 setlinejoin
0 setlinecap
0 -1.5 m
0.397805 -1.5 0.77937 -1.34195 1.06066 -1.06066 c
1.34195 -0.77937 1.5 -0.397805 1.5 0 c
1.5 0.397805 1.34195 0.77937 1.06066 1.06066 c
0.77937 1.34195 0.397805 1.5 0 1.5 c
-0.397805 1.5 -0.77937 1.34195 -1.06066 1.06066 c
-1.34195 0.77937 -1.5 0.397805 -1.5 0 c
-1.5 -0.397805 -1.34195 -0.77937 -1.06066 -1.06066 c
-0.77937 -1.34195 -0.397805 -1.5 0 -1.5 c
cl
gsave
0.000 0.000 1.000 setrgbcolor
fill
grestore
stroke
grestore
} bind def
233.324 258.021 o
227.136 262.223 o
222.934 257.356 o
229.122 253.154 o
233.324 258.021 o
grestore
1.000 setlinewidth
2 setlinecap
1.000 0.000 0.000 setrgbcolor
gsave
345.6 345.6 122.4 43.2 clipbox
246.525 273.313 m
241.658 279.044 l
235.926 275.977 l
240.794 270.246 l
246.525 273.313 l
stroke
grestore
0.500 setlinewidth
0 setlinecap
0.000 0.000 1.000 setrgbcolor
gsave
345.6 345.6 122.4 43.2 clipbox
/o {
gsave
newpath
translate
0.5 setlinewidth
1 setlinejoin
0 setlinecap
0 -1.5 m
0.397805 -1.5 0.77937 -1.34195 1.06066 -1.06066 c
1.34195 -0.77937 1.5 -0.397805 1.5 0 c
1.5 0.397805 1.34195 0.77937 1.06066 1.06066 c
0.77937 1.34195 0.397805 1.5 0 1.5 c
-0.397805 1.5 -0.77937 1.34195 -1.06066 1.06066 c
-1.34195 0.77937 -1.5 0.397805 -1.5 0 c
-1.5 -0.397805 -1.34195 -0.77937 -1.06066 -1.06066 c
-0.77937 -1.34195 -0.397805 -1.5 0 -1.5 c
cl
gsave
0.000 0.000 1.000 setrgbcolor
fill
grestore
stroke
grestore
} bind def
246.525 273.313 o
241.658 279.044 o
235.926 275.977 o
240.794 270.246 o
246.525 273.313 o
grestore
1.000 setlinewidth
2 setlinecap
1.000 0.000 0.000 setrgbcolor
gsave
345.6 345.6 122.4 43.2 clipbox
264.531 282.948 m
261.464 289.643 l
254.769 288.679 l
257.836 281.984 l
264.531 282.948 l
stroke
grestore
0.500 setlinewidth
0 setlinecap
0.000 0.000 1.000 setrgbcolor
gsave
345.6 345.6 122.4 43.2 clipbox
/o {
gsave
newpath
translate
0.5 setlinewidth
1 setlinejoin
0 setlinecap
0 -1.5 m
0.397805 -1.5 0.77937 -1.34195 1.06066 -1.06066 c
1.34195 -0.77937 1.5 -0.397805 1.5 0 c
1.5 0.397805 1.34195 0.77937 1.06066 1.06066 c
0.77937 1.34195 0.397805 1.5 0 1.5 c
-0.397805 1.5 -0.77937 1.34195 -1.06066 1.06066 c
-1.34195 0.77937 -1.5 0.397805 -1.5 0 c
-1.5 -0.397805 -1.34195 -0.77937 -1.06066 -1.06066 c
-0.77937 -1.34195 -0.397805 -1.5 0 -1.5 c
cl
gsave
0.000 0.000 1.000 setrgbcolor
fill
grestore
stroke
grestore
} bind def
264.531 282.948 o
261.464 289.643 o
254.769 288.679 o
257.836 281.984 o
264.531 282.948 o
grestore
1.000 setlinewidth
2 setlinecap
1.000 0.000 0.000 setrgbcolor
gsave
345.6 345.6 122.4 43.2 clipbox
285.563 285.975 m
284.599 292.973 l
277.602 294.208 l
278.565 287.21 l
285.563 285.975 l
stroke
grestore
0.500 setlinewidth
0 setlinecap
0.000 0.000 1.000 setrgbcolor
gsave
345.6 345.6 122.4 43.2 clipbox
/o {
gsave
newpath
translate
0.5 setlinewidth
1 setlinejoin
0 setlinecap
0 -1.5 m
0.397805 -1.5 0.77937 -1.34195 1.06066 -1.06066 c
1.34195 -0.77937 1.5 -0.397805 1.5 0 c
1.5 0.397805 1.34195 0.77937 1.06066 1.06066 c
0.77937 1.34195 0.397805 1.5 0 1.5 c
-0.397805 1.5 -0.77937 1.34195 -1.06066 1.06066 c
-1.34195 0.77937 -1.5 0.397805 -1.5 0 c
-1.5 -0.397805 -1.34195 -0.77937 -1.06066 -1.06066 c
-0.77937 -1.34195 -0.397805 -1.5 0 -1.5 c
cl
gsave
0.000 0.000 1.000 setrgbcolor
fill
grestore
stroke
grestore
} bind def
285.563 285.975 o
284.599 292.973 o
277.602 294.208 o
278.565 287.21 o
285.563 285.975 o
grestore
1.000 setlinewidth
2 setlinecap
1.000 0.000 0.000 setrgbcolor
gsave
345.6 345.6 122.4 43.2 clipbox
307.546 282.097 m
308.781 288.706 l
302.171 292.018 l
300.937 285.408 l
307.546 282.097 l
stroke
grestore
0.500 setlinewidth
0 setlinecap
0.000 0.000 1.000 setrgbcolor
gsave
345.6 345.6 122.4 43.2 clipbox
/o {
gsave
newpath
translate
0.5 setlinewidth
1 setlinejoin
0 setlinecap
0 -1.5 m
0.397805 -1.5 0.77937 -1.34195 1.06066 -1.06066 c
1.34195 -0.77937 1.5 -0.397805 1.5 0 c
1.5 0.397805 1.34195 0.77937 1.06066 1.06066 c
0.77937 1.34195 0.397805 1.5 0 1.5 c
-0.397805 1.5 -0.77937 1.34195 -1.06066 1.06066 c
-1.34195 0.77937 -1.5 0.397805 -1.5 0 c
-1.5 -0.397805 -1.34195 -0.77937 -1.06066 -1.06066 c
-0.77937 -1.34195 -0.397805 -1.5 0 -1.5 c
cl
gsave
0.000 0.000 1.000 setrgbcolor
fill
grestore
stroke
grestore
} bind def
307.546 282.097 o
308.781 288.706 o
302.171 292.018 o
300.937 285.408 o
307.546 282.097 o
grestore
1.000 setlinewidth
2 setlinecap
1.000 0.000 0.000 setrgbcolor
gsave
345.6 345.6 122.4 43.2 clipbox
328.311 271.695 m
331.622 277.264 l
326.053 282.325 l
322.742 276.755 l
328.311 271.695 l
stroke
grestore
0.500 setlinewidth
0 setlinecap
0.000 0.000 1.000 setrgbcolor
gsave
345.6 345.6 122.4 43.2 clipbox
/o {
gsave
newpath
translate
0.5 setlinewidth
1 setlinejoin
0 setlinecap
0 -1.5 m
0.397805 -1.5 0.77937 -1.34195 1.06066 -1.06066 c
1.34195 -0.77937 1.5 -0.397805 1.5 0 c
1.5 0.397805 1.34195 0.77937 1.06066 1.06066 c
0.77937 1.34195 0.397805 1.5 0 1.5 c
-0.397805 1.5 -0.77937 1.34195 -1.06066 1.06066 c
-1.34195 0.77937 -1.5 0.397805 -1.5 0 c
-1.5 -0.397805 -1.34195 -0.77937 -1.06066 -1.06066 c
-0.77937 -1.34195 -0.397805 -1.5 0 -1.5 c
cl
gsave
0.000 0.000 1.000 setrgbcolor
fill
grestore
stroke
grestore
} bind def
328.311 271.695 o
331.622 277.264 o
326.053 282.325 o
322.742 276.755 o
328.311 271.695 o
grestore
1.000 setlinewidth
2 setlinecap
1.000 0.000 0.000 setrgbcolor
gsave
345.6 345.6 122.4 43.2 clipbox
345.808 255.796 m
350.869 259.775 l
346.889 266.086 l
341.829 262.107 l
345.808 255.796 l
stroke
grestore
0.500 setlinewidth
0 setlinecap
0.000 0.000 1.000 setrgbcolor
gsave
345.6 345.6 122.4 43.2 clipbox
/o {
gsave
newpath
translate
0.5 setlinewidth
1 setlinejoin
0 setlinecap
0 -1.5 m
0.397805 -1.5 0.77937 -1.34195 1.06066 -1.06066 c
1.34195 -0.77937 1.5 -0.397805 1.5 0 c
1.5 0.397805 1.34195 0.77937 1.06066 1.06066 c
0.77937 1.34195 0.397805 1.5 0 1.5 c
-0.397805 1.5 -0.77937 1.34195 -1.06066 1.06066 c
-1.34195 0.77937 -1.5 0.397805 -1.5 0 c
-1.5 -0.397805 -1.34195 -0.77937 -1.06066 -1.06066 c
-0.77937 -1.34195 -0.397805 -1.5 0 -1.5 c
cl
gsave
0.000 0.000 1.000 setrgbcolor
fill
grestore
stroke
grestore
} bind def
345.808 255.796 o
350.869 259.775 o
346.889 266.086 o
341.829 262.107 o
345.808 255.796 o
grestore
1.000 setlinewidth
2 setlinecap
1.000 0.000 0.000 setrgbcolor
gsave
345.6 345.6 122.4 43.2 clipbox
358.31 235.969 m
364.621 237.966 l
362.624 244.904 l
356.313 242.907 l
358.31 235.969 l
stroke
grestore
0.500 setlinewidth
0 setlinecap
0.000 0.000 1.000 setrgbcolor
gsave
345.6 345.6 122.4 43.2 clipbox
/o {
gsave
newpath
translate
0.5 setlinewidth
1 setlinejoin
0 setlinecap
0 -1.5 m
0.397805 -1.5 0.77937 -1.34195 1.06066 -1.06066 c
1.34195 -0.77937 1.5 -0.397805 1.5 0 c
1.5 0.397805 1.34195 0.77937 1.06066 1.06066 c
0.77937 1.34195 0.397805 1.5 0 1.5 c
-0.397805 1.5 -0.77937 1.34195 -1.06066 1.06066 c
-1.34195 0.77937 -1.5 0.397805 -1.5 0 c
-1.5 -0.397805 -1.34195 -0.77937 -1.06066 -1.06066 c
-0.77937 -1.34195 -0.397805 -1.5 0 -1.5 c
cl
gsave
0.000 0.000 1.000 setrgbcolor
fill
grestore
stroke
grestore
} bind def
358.31 235.969 o
364.621 237.966 o
362.624 244.904 o
356.313 242.907 o
358.31 235.969 o
grestore
1.000 setlinewidth
0 setlinejoin
2 setlinecap
0.000 setgray
gsave
122.4 388.8 m
468 388.8 l
stroke
grestore
gsave
468 43.2 m
468 388.8 l
stroke
grestore
gsave
122.4 43.2 m
468 43.2 l
stroke
grestore
gsave
122.4 43.2 m
122.4 388.8 l
stroke
grestore
0.500 setlinewidth
1 setlinejoin
0 setlinecap
gsave
/o {
gsave
newpath
translate
0.5 setlinewidth
1 setlinejoin
0 setlinecap
0 0 m
0 4 l
gsave
0.000 setgray
fill
grestore
stroke
grestore
} bind def
156.96 43.2 o
grestore
gsave
/o {
gsave
newpath
translate
0.5 setlinewidth
1 setlinejoin
0 setlinecap
0 0 m
0 -4 l
gsave
0.000 setgray
fill
grestore
stroke
grestore
} bind def
156.96 388.8 o
grestore
/BitstreamVeraSans-Roman findfont
12.000 scalefont
setfont
gsave
149.342812 30.075000 translate
0.000000 rotate
0.000000 0.000000 m /minus glyphshow
10.054688 0.000000 m /two glyphshow
grestore
gsave
/o {
gsave
newpath
translate
0.5 setlinewidth
1 setlinejoin
0 setlinecap
0 0 m
0 4 l
gsave
0.000 setgray
fill
grestore
stroke
grestore
} bind def
226.08 43.2 o
grestore
gsave
/o {
gsave
newpath
translate
0.5 setlinewidth
1 setlinejoin
0 setlinecap
0 0 m
0 -4 l
gsave
0.000 setgray
fill
grestore
stroke
grestore
} bind def
226.08 388.8 o
grestore
gsave
218.415937 30.075000 translate
0.000000 rotate
0.000000 0.000000 m /minus glyphshow
10.054688 0.000000 m /one glyphshow
grestore
gsave
/o {
gsave
newpath
translate
0.5 setlinewidth
1 setlinejoin
0 setlinecap
0 0 m
0 4 l
gsave
0.000 setgray
fill
grestore
stroke
grestore
} bind def
295.2 43.2 o
grestore
gsave
/o {
gsave
newpath
translate
0.5 setlinewidth
1 setlinejoin
0 setlinecap
0 0 m
0 -4 l
gsave
0.000 setgray
fill
grestore
stroke
grestore
} bind def
295.2 388.8 o
grestore
gsave
292.176562 30.075000 translate
0.000000 rotate
0.000000 0.000000 m /zero glyphshow
grestore
gsave
/o {
gsave
newpath
translate
0.5 setlinewidth
1 setlinejoin
0 setlinecap
0 0 m
0 4 l
gsave
0.000 setgray
fill
grestore
stroke
grestore
} bind def
364.32 43.2 o
grestore
gsave
/o {
gsave
newpath
translate
0.5 setlinewidth
1 setlinejoin
0 setlinecap
0 0 m
0 -4 l
gsave
0.000 setgray
fill
grestore
stroke
grestore
} bind def
364.32 388.8 o
grestore
gsave
361.710625 30.075000 translate
0.000000 rotate
0.000000 0.000000 m /one glyphshow
grestore
gsave
/o {
gsave
newpath
translate
0.5 setlinewidth
1 setlinejoin
0 setlinecap
0 0 m
0 4 l
gsave
0.000 setgray
fill
grestore
stroke
grestore
} bind def
433.44 43.2 o
grestore
gsave
/o {
gsave
newpath
translate
0.5 setlinewidth
1 setlinejoin
0 setlinecap
0 0 m
0 -4 l
gsave
0.000 setgray
fill
grestore
stroke
grestore
} bind def
433.44 388.8 o
grestore
gsave
430.658750 30.075000 translate
0.000000 rotate
0.000000 0.000000 m /two glyphshow
grestore
gsave
272.489062 13.450000 translate
0.000000 rotate
0.000000 0.000000 m /p glyphshow
7.617188 0.000000 m /o glyphshow
14.958984 0.000000 m /s glyphshow
21.210938 0.000000 m /i glyphshow
24.544922 0.000000 m /t glyphshow
29.250000 0.000000 m /i glyphshow
32.583984 0.000000 m /o glyphshow
39.925781 0.000000 m /n glyphshow
grestore
gsave
/o {
gsave
newpath
translate
0.5 setlinewidth
1 setlinejoin
0 setlinecap
0 0 m
4 0 l
gsave
0.000 setgray
fill
grestore
stroke
grestore
} bind def
122.4 77.76 o
grestore
gsave
/o {
gsave
newpath
translate
0.5 setlinewidth
1 setlinejoin
0 setlinecap
0 0 m
-4 0 l
gsave
0.000 setgray
fill
grestore
stroke
grestore
} bind def
468 77.76 o
grestore
gsave
103.165625 74.447500 translate
0.000000 rotate
0.000000 0.000000 m /minus glyphshow
10.054688 0.000000 m /two glyphshow
grestore
gsave
/o {
gsave
newpath
translate
0.5 setlinewidth
1 setlinejoin
0 setlinecap
0 0 m
4 0 l
gsave
0.000 setgray
fill
grestore
stroke
grestore
} bind def
122.4 146.88 o
grestore
gsave
/o {
gsave
newpath
translate
0.5 setlinewidth
1 setlinejoin
0 setlinecap
0 0 m
-4 0 l
gsave
0.000 setgray
fill
grestore
stroke
grestore
} bind def
468 146.88 o
grestore
gsave
103.071875 143.567500 translate
0.000000 rotate
0.000000 0.000000 m /minus glyphshow
10.054688 0.000000 m /one glyphshow
grestore
gsave
/o {
gsave
newpath
translate
0.5 setlinewidth
1 setlinejoin
0 setlinecap
0 0 m
4 0 l
gsave
0.000 setgray
fill
grestore
stroke
grestore
} bind def
122.4 216 o
grestore
gsave
/o {
gsave
newpath
translate
0.5 setlinewidth
1 setlinejoin
0 setlinecap
0 0 m
-4 0 l
gsave
0.000 setgray
fill
grestore
stroke
grestore
} bind def
468 216 o
grestore
gsave
112.353125 212.687500 translate
0.000000 rotate
0.000000 0.000000 m /zero glyphshow
grestore
gsave
/o {
gsave
newpath
translate
0.5 setlinewidth
1 setlinejoin
0 setlinecap
0 0 m
4 0 l
gsave
0.000 setgray
fill
grestore
stroke
grestore
} bind def
122.4 285.12 o
grestore
gsave
/o {
gsave
newpath
translate
0.5 setlinewidth
1 setlinejoin
0 setlinecap
0 0 m
-4 0 l
gsave
0.000 setgray
fill
grestore
stroke
grestore
} bind def
468 285.12 o
grestore
gsave
113.181250 281.807500 translate
0.000000 rotate
0.000000 0.000000 m /one glyphshow
grestore
gsave
/o {
gsave
newpath
translate
0.5 setlinewidth
1 setlinejoin
0 setlinecap
0 0 m
4 0 l
gsave
0.000 setgray
fill
grestore
stroke
grestore
} bind def
122.4 354.24 o
grestore
gsave
/o {
gsave
newpath
translate
0.5 setlinewidth
1 setlinejoin
0 setlinecap
0 0 m
-4 0 l
gsave
0.000 setgray
fill
grestore
stroke
grestore
} bind def
468 354.24 o
grestore
gsave
112.837500 350.927500 translate
0.000000 rotate
0.000000 0.000000 m /two glyphshow
grestore
gsave
95.571875 182.195312 translate
90.000000 rotate
0.000000 0.000000 m /m glyphshow
11.689453 0.000000 m /o glyphshow
19.031250 0.000000 m /m glyphshow
30.720703 0.000000 m /e glyphshow
38.103516 0.000000 m /n glyphshow
45.708984 0.000000 m /t glyphshow
50.414062 0.000000 m /u glyphshow
58.019531 0.000000 m /m glyphshow
grestore

end
showpage
