%!PS-Adobe-3.0 EPSF-3.0
%%Title: verlet.eps
%%Creator: matplotlib version 1.4.3, http://matplotlib.org/
%%CreationDate: Mon May 25 16:54:52 2015
%%Orientation: portrait
%%BoundingBox: 18 180 594 612
%%EndComments
%%BeginProlog
/mpldict 8 dict def
mpldict begin
/m { moveto } bind def
/l { lineto } bind def
/r { rlineto } bind def
/c { curveto } bind def
/cl { closepath } bind def
/box {
m
1 index 0 r
0 exch r
neg 0 r
cl
} bind def
/clipbox {
box
clip
newpath
} bind def
%!PS-Adobe-3.0 Resource-Font
%%Title: Bitstream Vera Sans
%%Copyright: Copyright (c) 2003 by Bitstream, Inc. All Rights Reserved.
%%Creator: Converted from TrueType to type 3 by PPR
25 dict begin
/_d{bind def}bind def
/_m{moveto}_d
/_l{lineto}_d
/_cl{closepath eofill}_d
/_c{curveto}_d
/_sc{7 -1 roll{setcachedevice}{pop pop pop pop pop pop}ifelse}_d
/_e{exec}_d
/FontName /BitstreamVeraSans-Roman def
/PaintType 0 def
/FontMatrix[.001 0 0 .001 0 0]def
/FontBBox[-183 -236 1287 928]def
/FontType 3 def
/Encoding [ /zero /one /two /e /i /m /n /o /p /s /t /u /minus ] def
/FontInfo 10 dict dup begin
/FamilyName (Bitstream Vera Sans) def
/FullName (Bitstream Vera Sans) def
/Notice (Copyright (c) 2003 by Bitstream, Inc. All Rights Reserved. Bitstream Vera is a trademark of Bitstream, Inc.) def
/Weight (Roman) def
/Version (Release 1.10) def
/ItalicAngle 0.0 def
/isFixedPitch false def
/UnderlinePosition -213 def
/UnderlineThickness 143 def
end readonly def
/CharStrings 13 dict dup begin
/zero{636 0 66 -13 570 742 _sc
318 664 _m
267 664 229 639 203 589 _c
177 539 165 464 165 364 _c
165 264 177 189 203 139 _c
229 89 267 64 318 64 _c
369 64 407 89 433 139 _c
458 189 471 264 471 364 _c
471 464 458 539 433 589 _c
407 639 369 664 318 664 _c
318 742 _m
399 742 461 709 505 645 _c
548 580 570 486 570 364 _c
570 241 548 147 505 83 _c
461 19 399 -13 318 -13 _c
236 -13 173 19 130 83 _c
87 147 66 241 66 364 _c
66 486 87 580 130 645 _c
173 709 236 742 318 742 _c
_cl}_d
/one{636 0 110 0 544 729 _sc
124 83 _m
285 83 _l
285 639 _l
110 604 _l
110 694 _l
284 729 _l
383 729 _l
383 83 _l
544 83 _l
544 0 _l
124 0 _l
124 83 _l
_cl}_d
/two{{636 0 73 0 536 742 _sc
192 83 _m
536 83 _l
536 0 _l
73 0 _l
73 83 _l
110 121 161 173 226 239 _c
290 304 331 346 348 365 _c
380 400 402 430 414 455 _c
426 479 433 504 433 528 _c
433 566 419 598 392 622 _c
365 646 330 659 286 659 _c
255 659 222 653 188 643 _c
154 632 117 616 78 594 _c
78 694 _l
118 710 155 722 189 730 _c
223 738 255 742 284 742 _c
}_e{359 742 419 723 464 685 _c
509 647 532 597 532 534 _c
532 504 526 475 515 449 _c
504 422 484 390 454 354 _c
446 344 420 317 376 272 _c
332 227 271 164 192 83 _c
_cl}_e}_d
/e{{615 0 55 -13 562 560 _sc
562 296 _m
562 252 _l
149 252 _l
153 190 171 142 205 110 _c
238 78 284 62 344 62 _c
378 62 412 66 444 74 _c
476 82 509 95 541 113 _c
541 28 _l
509 14 476 3 442 -3 _c
408 -9 373 -13 339 -13 _c
251 -13 182 12 131 62 _c
80 112 55 181 55 268 _c
55 357 79 428 127 481 _c
175 533 241 560 323 560 _c
397 560 455 536 498 489 _c
}_e{540 441 562 377 562 296 _c
472 322 _m
471 371 457 410 431 440 _c
404 469 368 484 324 484 _c
274 484 234 469 204 441 _c
174 413 156 373 152 322 _c
472 322 _l
_cl}_e}_d
/i{278 0 94 0 184 760 _sc
94 547 _m
184 547 _l
184 0 _l
94 0 _l
94 547 _l
94 760 _m
184 760 _l
184 646 _l
94 646 _l
94 760 _l
_cl}_d
/m{{974 0 91 0 889 560 _sc
520 442 _m
542 482 569 511 600 531 _c
631 550 668 560 711 560 _c
767 560 811 540 842 500 _c
873 460 889 403 889 330 _c
889 0 _l
799 0 _l
799 327 _l
799 379 789 418 771 444 _c
752 469 724 482 686 482 _c
639 482 602 466 575 435 _c
548 404 535 362 535 309 _c
535 0 _l
445 0 _l
445 327 _l
445 379 435 418 417 444 _c
398 469 369 482 331 482 _c
}_e{285 482 248 466 221 435 _c
194 404 181 362 181 309 _c
181 0 _l
91 0 _l
91 547 _l
181 547 _l
181 462 _l
201 495 226 520 255 536 _c
283 552 317 560 357 560 _c
397 560 430 550 458 530 _c
486 510 506 480 520 442 _c
_cl}_e}_d
/n{634 0 91 0 549 560 _sc
549 330 _m
549 0 _l
459 0 _l
459 327 _l
459 379 448 417 428 443 _c
408 469 378 482 338 482 _c
289 482 251 466 223 435 _c
195 404 181 362 181 309 _c
181 0 _l
91 0 _l
91 547 _l
181 547 _l
181 462 _l
202 494 227 519 257 535 _c
286 551 320 560 358 560 _c
420 560 468 540 500 501 _c
532 462 549 405 549 330 _c
_cl}_d
/o{612 0 55 -13 557 560 _sc
306 484 _m
258 484 220 465 192 427 _c
164 389 150 338 150 273 _c
150 207 163 156 191 118 _c
219 80 257 62 306 62 _c
354 62 392 80 420 118 _c
448 156 462 207 462 273 _c
462 337 448 389 420 427 _c
392 465 354 484 306 484 _c
306 560 _m
384 560 445 534 490 484 _c
534 433 557 363 557 273 _c
557 183 534 113 490 63 _c
445 12 384 -13 306 -13 _c
227 -13 165 12 121 63 _c
77 113 55 183 55 273 _c
55 363 77 433 121 484 _c
165 534 227 560 306 560 _c
_cl}_d
/p{{635 0 91 -207 580 560 _sc
181 82 _m
181 -207 _l
91 -207 _l
91 547 _l
181 547 _l
181 464 _l
199 496 223 520 252 536 _c
281 552 316 560 356 560 _c
422 560 476 533 518 481 _c
559 428 580 359 580 273 _c
580 187 559 117 518 65 _c
476 13 422 -13 356 -13 _c
316 -13 281 -5 252 10 _c
223 25 199 49 181 82 _c
487 273 _m
487 339 473 390 446 428 _c
418 466 381 485 334 485 _c
}_e{286 485 249 466 222 428 _c
194 390 181 339 181 273 _c
181 207 194 155 222 117 _c
249 79 286 61 334 61 _c
381 61 418 79 446 117 _c
473 155 487 207 487 273 _c
_cl}_e}_d
/s{{521 0 54 -13 472 560 _sc
443 531 _m
443 446 _l
417 458 391 468 364 475 _c
336 481 308 485 279 485 _c
234 485 200 478 178 464 _c
156 450 145 430 145 403 _c
145 382 153 366 169 354 _c
185 342 217 330 265 320 _c
296 313 _l
360 299 405 279 432 255 _c
458 230 472 195 472 151 _c
472 100 452 60 412 31 _c
372 1 316 -13 246 -13 _c
216 -13 186 -10 154 -5 _c
}_e{122 0 89 8 54 20 _c
54 113 _l
87 95 120 82 152 74 _c
184 65 216 61 248 61 _c
290 61 323 68 346 82 _c
368 96 380 117 380 144 _c
380 168 371 187 355 200 _c
339 213 303 226 247 238 _c
216 245 _l
160 257 119 275 95 299 _c
70 323 58 356 58 399 _c
58 450 76 490 112 518 _c
148 546 200 560 268 560 _c
301 560 332 557 362 552 _c
391 547 418 540 443 531 _c
}_e{_cl}_e}_d
/t{392 0 27 0 368 702 _sc
183 702 _m
183 547 _l
368 547 _l
368 477 _l
183 477 _l
183 180 _l
183 135 189 106 201 94 _c
213 81 238 75 276 75 _c
368 75 _l
368 0 _l
276 0 _l
206 0 158 13 132 39 _c
106 65 93 112 93 180 _c
93 477 _l
27 477 _l
27 547 _l
93 547 _l
93 702 _l
183 702 _l
_cl}_d
/u{634 0 85 -13 543 547 _sc
85 216 _m
85 547 _l
175 547 _l
175 219 _l
175 167 185 129 205 103 _c
225 77 255 64 296 64 _c
344 64 383 79 411 110 _c
439 141 453 183 453 237 _c
453 547 _l
543 547 _l
543 0 _l
453 0 _l
453 84 _l
431 50 405 26 377 10 _c
348 -5 315 -13 277 -13 _c
214 -13 166 6 134 45 _c
101 83 85 140 85 216 _c
_cl}_d
/minus{838 0 106 272 732 355 _sc
106 355 _m
732 355 _l
732 272 _l
106 272 _l
106 355 _l
_cl}_d
end readonly def

/BuildGlyph
 {exch begin
 CharStrings exch
 2 copy known not{pop /.notdef}if
 true 3 1 roll get exec
 end}_d

/BuildChar {
 1 index /Encoding get exch get
 1 index /BuildGlyph get exec
}_d

FontName currentdict end definefont pop
end
%%EndProlog
mpldict begin
18 180 translate
576 432 0 0 clipbox
gsave
0 0 m
576 0 l
576 432 l
0 432 l
cl
1.000 setgray
fill
grestore
gsave
122.4 43.2 m
468 43.2 l
468 388.8 l
122.4 388.8 l
cl
1.000 setgray
fill
grestore
1.000 setlinewidth
1 setlinejoin
2 setlinecap
[] 0 setdash
1.000 0.000 0.000 setrgbcolor
gsave
345.6 345.6 122.4 43.2 clipbox
364.32 216 m
371.232 216 l
371.232 222.912 l
364.32 222.912 l
364.32 216 l
stroke
grestore
0.500 setlinewidth
0 setlinecap
0.000 0.000 1.000 setrgbcolor
gsave
345.6 345.6 122.4 43.2 clipbox
/o {
gsave
newpath
translate
0.5 setlinewidth
1 setlinejoin
0 setlinecap
0 -1.5 m
0.397805 -1.5 0.77937 -1.34195 1.06066 -1.06066 c
1.34195 -0.77937 1.5 -0.397805 1.5 0 c
1.5 0.397805 1.34195 0.77937 1.06066 1.06066 c
0.77937 1.34195 0.397805 1.5 0 1.5 c
-0.397805 1.5 -0.77937 1.34195 -1.06066 1.06066 c
-1.34195 0.77937 -1.5 0.397805 -1.5 0 c
-1.5 -0.397805 -1.34195 -0.77937 -1.06066 -1.06066 c
-0.77937 -1.34195 -0.397805 -1.5 0 -1.5 c
cl
gsave
0.000 0.000 1.000 setrgbcolor
fill
grestore
stroke
grestore
} bind def
364.32 216 o
371.232 216 o
371.232 222.912 o
364.32 222.912 o
364.32 216 o
grestore
1.000 setlinewidth
2 setlinecap
1.000 0.000 0.000 setrgbcolor
gsave
345.6 345.6 122.4 43.2 clipbox
360.909 194.821 m
367.48 192.703 l
369.651 199.274 l
363.081 201.392 l
360.909 194.821 l
stroke
grestore
0.500 setlinewidth
0 setlinecap
0.000 0.000 1.000 setrgbcolor
gsave
345.6 345.6 122.4 43.2 clipbox
/o {
gsave
newpath
translate
0.5 setlinewidth
1 setlinejoin
0 setlinecap
0 -1.5 m
0.397805 -1.5 0.77937 -1.34195 1.06066 -1.06066 c
1.34195 -0.77937 1.5 -0.397805 1.5 0 c
1.5 0.397805 1.34195 0.77937 1.06066 1.06066 c
0.77937 1.34195 0.397805 1.5 0 1.5 c
-0.397805 1.5 -0.77937 1.34195 -1.06066 1.06066 c
-1.34195 0.77937 -1.5 0.397805 -1.5 0 c
-1.5 -0.397805 -1.34195 -0.77937 -1.06066 -1.06066 c
-0.77937 -1.34195 -0.397805 -1.5 0 -1.5 c
cl
gsave
0.000 0.000 1.000 setrgbcolor
fill
grestore
stroke
grestore
} bind def
360.909 194.821 o
367.48 192.703 o
369.651 199.274 o
363.081 201.392 o
360.909 194.821 o
grestore
1.000 setlinewidth
2 setlinecap
1.000 0.000 0.000 setrgbcolor
gsave
345.6 345.6 122.4 43.2 clipbox
351.013 175.732 m
356.594 171.706 l
360.723 177.287 l
355.142 181.314 l
351.013 175.732 l
stroke
grestore
0.500 setlinewidth
0 setlinecap
0.000 0.000 1.000 setrgbcolor
gsave
345.6 345.6 122.4 43.2 clipbox
/o {
gsave
newpath
translate
0.5 setlinewidth
1 setlinejoin
0 setlinecap
0 -1.5 m
0.397805 -1.5 0.77937 -1.34195 1.06066 -1.06066 c
1.34195 -0.77937 1.5 -0.397805 1.5 0 c
1.5 0.397805 1.34195 0.77937 1.06066 1.06066 c
0.77937 1.34195 0.397805 1.5 0 1.5 c
-0.397805 1.5 -0.77937 1.34195 -1.06066 1.06066 c
-1.34195 0.77937 -1.5 0.397805 -1.5 0 c
-1.5 -0.397805 -1.34195 -0.77937 -1.06066 -1.06066 c
-0.77937 -1.34195 -0.397805 -1.5 0 -1.5 c
cl
gsave
0.000 0.000 1.000 setrgbcolor
fill
grestore
stroke
grestore
} bind def
351.013 175.732 o
356.594 171.706 o
360.723 177.287 o
355.142 181.314 o
351.013 175.732 o
grestore
1.000 setlinewidth
2 setlinecap
1.000 0.000 0.000 setrgbcolor
gsave
345.6 345.6 122.4 43.2 clipbox
335.608 160.618 m
339.649 155.08 l
345.327 159.121 l
341.287 164.659 l
335.608 160.618 l
stroke
grestore
0.500 setlinewidth
0 setlinecap
0.000 0.000 1.000 setrgbcolor
gsave
345.6 345.6 122.4 43.2 clipbox
/o {
gsave
newpath
translate
0.5 setlinewidth
1 setlinejoin
0 setlinecap
0 -1.5 m
0.397805 -1.5 0.77937 -1.34195 1.06066 -1.06066 c
1.34195 -0.77937 1.5 -0.397805 1.5 0 c
1.5 0.397805 1.34195 0.77937 1.06066 1.06066 c
0.77937 1.34195 0.397805 1.5 0 1.5 c
-0.397805 1.5 -0.77937 1.34195 -1.06066 1.06066 c
-1.34195 0.77937 -1.5 0.397805 -1.5 0 c
-1.5 -0.397805 -1.34195 -0.77937 -1.06066 -1.06066 c
-0.77937 -1.34195 -0.397805 -1.5 0 -1.5 c
cl
gsave
0.000 0.000 1.000 setrgbcolor
fill
grestore
stroke
grestore
} bind def
335.608 160.618 o
339.649 155.08 o
345.327 159.121 o
341.287 164.659 o
335.608 160.618 o
grestore
1.000 setlinewidth
2 setlinecap
1.000 0.000 0.000 setrgbcolor
gsave
345.6 345.6 122.4 43.2 clipbox
316.215 150.97 m
318.317 144.467 l
324.985 146.568 l
322.883 153.071 l
316.215 150.97 l
stroke
grestore
0.500 setlinewidth
0 setlinecap
0.000 0.000 1.000 setrgbcolor
gsave
345.6 345.6 122.4 43.2 clipbox
/o {
gsave
newpath
translate
0.5 setlinewidth
1 setlinejoin
0 setlinecap
0 -1.5 m
0.397805 -1.5 0.77937 -1.34195 1.06066 -1.06066 c
1.34195 -0.77937 1.5 -0.397805 1.5 0 c
1.5 0.397805 1.34195 0.77937 1.06066 1.06066 c
0.77937 1.34195 0.397805 1.5 0 1.5 c
-0.397805 1.5 -0.77937 1.34195 -1.06066 1.06066 c
-1.34195 0.77937 -1.5 0.397805 -1.5 0 c
-1.5 -0.397805 -1.34195 -0.77937 -1.06066 -1.06066 c
-0.77937 -1.34195 -0.397805 -1.5 0 -1.5 c
cl
gsave
0.000 0.000 1.000 setrgbcolor
fill
grestore
stroke
grestore
} bind def
316.215 150.97 o
318.317 144.467 o
324.985 146.568 o
322.883 153.071 o
316.215 150.97 o
grestore
1.000 setlinewidth
2 setlinecap
1.000 0.000 0.000 setrgbcolor
gsave
345.6 345.6 122.4 43.2 clipbox
294.748 147.74 m
294.703 140.913 l
301.702 140.868 l
301.747 147.694 l
294.748 147.74 l
stroke
grestore
0.500 setlinewidth
0 setlinecap
0.000 0.000 1.000 setrgbcolor
gsave
345.6 345.6 122.4 43.2 clipbox
/o {
gsave
newpath
translate
0.5 setlinewidth
1 setlinejoin
0 setlinecap
0 -1.5 m
0.397805 -1.5 0.77937 -1.34195 1.06066 -1.06066 c
1.34195 -0.77937 1.5 -0.397805 1.5 0 c
1.5 0.397805 1.34195 0.77937 1.06066 1.06066 c
0.77937 1.34195 0.397805 1.5 0 1.5 c
-0.397805 1.5 -0.77937 1.34195 -1.06066 1.06066 c
-1.34195 0.77937 -1.5 0.397805 -1.5 0 c
-1.5 -0.397805 -1.34195 -0.77937 -1.06066 -1.06066 c
-0.77937 -1.34195 -0.397805 -1.5 0 -1.5 c
cl
gsave
0.000 0.000 1.000 setrgbcolor
fill
grestore
stroke
grestore
} bind def
294.748 147.74 o
294.703 140.913 o
301.702 140.868 o
301.747 147.694 o
294.748 147.74 o
grestore
1.000 setlinewidth
2 setlinecap
1.000 0.000 0.000 setrgbcolor
gsave
345.6 345.6 122.4 43.2 clipbox
273.326 151.246 m
271.139 144.771 l
277.778 142.584 l
279.965 149.059 l
273.326 151.246 l
stroke
grestore
0.500 setlinewidth
0 setlinecap
0.000 0.000 1.000 setrgbcolor
gsave
345.6 345.6 122.4 43.2 clipbox
/o {
gsave
newpath
translate
0.5 setlinewidth
1 setlinejoin
0 setlinecap
0 -1.5 m
0.397805 -1.5 0.77937 -1.34195 1.06066 -1.06066 c
1.34195 -0.77937 1.5 -0.397805 1.5 0 c
1.5 0.397805 1.34195 0.77937 1.06066 1.06066 c
0.77937 1.34195 0.397805 1.5 0 1.5 c
-0.397805 1.5 -0.77937 1.34195 -1.06066 1.06066 c
-1.34195 0.77937 -1.5 0.397805 -1.5 0 c
-1.5 -0.397805 -1.34195 -0.77937 -1.06066 -1.06066 c
-0.77937 -1.34195 -0.397805 -1.5 0 -1.5 c
cl
gsave
0.000 0.000 1.000 setrgbcolor
fill
grestore
stroke
grestore
} bind def
273.326 151.246 o
271.139 144.771 o
277.778 142.584 o
279.965 149.059 o
273.326 151.246 o
grestore
1.000 setlinewidth
2 setlinecap
1.000 0.000 0.000 setrgbcolor
gsave
345.6 345.6 122.4 43.2 clipbox
254.063 161.144 m
249.949 155.659 l
255.573 151.545 l
259.687 157.03 l
254.063 161.144 l
stroke
grestore
0.500 setlinewidth
0 setlinecap
0.000 0.000 1.000 setrgbcolor
gsave
345.6 345.6 122.4 43.2 clipbox
/o {
gsave
newpath
translate
0.5 setlinewidth
1 setlinejoin
0 setlinecap
0 -1.5 m
0.397805 -1.5 0.77937 -1.34195 1.06066 -1.06066 c
1.34195 -0.77937 1.5 -0.397805 1.5 0 c
1.5 0.397805 1.34195 0.77937 1.06066 1.06066 c
0.77937 1.34195 0.397805 1.5 0 1.5 c
-0.397805 1.5 -0.77937 1.34195 -1.06066 1.06066 c
-1.34195 0.77937 -1.5 0.397805 -1.5 0 c
-1.5 -0.397805 -1.34195 -0.77937 -1.06066 -1.06066 c
-0.77937 -1.34195 -0.397805 -1.5 0 -1.5 c
cl
gsave
0.000 0.000 1.000 setrgbcolor
fill
grestore
stroke
grestore
} bind def
254.063 161.144 o
249.949 155.659 o
255.573 151.545 o
259.687 157.03 o
254.063 161.144 o
grestore
1.000 setlinewidth
2 setlinecap
1.000 0.000 0.000 setrgbcolor
gsave
345.6 345.6 122.4 43.2 clipbox
238.859 176.456 m
233.225 172.502 l
237.28 166.868 l
242.914 170.822 l
238.859 176.456 l
stroke
grestore
0.500 setlinewidth
0 setlinecap
0.000 0.000 1.000 setrgbcolor
gsave
345.6 345.6 122.4 43.2 clipbox
/o {
gsave
newpath
translate
0.5 setlinewidth
1 setlinejoin
0 setlinecap
0 -1.5 m
0.397805 -1.5 0.77937 -1.34195 1.06066 -1.06066 c
1.34195 -0.77937 1.5 -0.397805 1.5 0 c
1.5 0.397805 1.34195 0.77937 1.06066 1.06066 c
0.77937 1.34195 0.397805 1.5 0 1.5 c
-0.397805 1.5 -0.77937 1.34195 -1.06066 1.06066 c
-1.34195 0.77937 -1.5 0.397805 -1.5 0 c
-1.5 -0.397805 -1.34195 -0.77937 -1.06066 -1.06066 c
-0.77937 -1.34195 -0.397805 -1.5 0 -1.5 c
cl
gsave
0.000 0.000 1.000 setrgbcolor
fill
grestore
stroke
grestore
} bind def
238.859 176.456 o
233.225 172.502 o
237.28 166.868 o
242.914 170.822 o
238.859 176.456 o
grestore
1.000 setlinewidth
2 setlinecap
1.000 0.000 0.000 setrgbcolor
gsave
345.6 345.6 122.4 43.2 clipbox
229.216 195.671 m
222.618 193.638 l
224.702 187.039 l
231.301 189.072 l
229.216 195.671 l
stroke
grestore
0.500 setlinewidth
0 setlinecap
0.000 0.000 1.000 setrgbcolor
gsave
345.6 345.6 122.4 43.2 clipbox
/o {
gsave
newpath
translate
0.5 setlinewidth
1 setlinejoin
0 setlinecap
0 -1.5 m
0.397805 -1.5 0.77937 -1.34195 1.06066 -1.06066 c
1.34195 -0.77937 1.5 -0.397805 1.5 0 c
1.5 0.397805 1.34195 0.77937 1.06066 1.06066 c
0.77937 1.34195 0.397805 1.5 0 1.5 c
-0.397805 1.5 -0.77937 1.34195 -1.06066 1.06066 c
-1.34195 0.77937 -1.5 0.397805 -1.5 0 c
-1.5 -0.397805 -1.34195 -0.77937 -1.06066 -1.06066 c
-0.77937 -1.34195 -0.397805 -1.5 0 -1.5 c
cl
gsave
0.000 0.000 1.000 setrgbcolor
fill
grestore
stroke
grestore
} bind def
229.216 195.671 o
222.618 193.638 o
224.702 187.039 o
231.301 189.072 o
229.216 195.671 o
grestore
1.000 setlinewidth
2 setlinecap
1.000 0.000 0.000 setrgbcolor
gsave
345.6 345.6 122.4 43.2 clipbox
226.086 216.892 m
219.174 216.981 l
219.083 210.07 l
225.994 209.98 l
226.086 216.892 l
stroke
grestore
0.500 setlinewidth
0 setlinecap
0.000 0.000 1.000 setrgbcolor
gsave
345.6 345.6 122.4 43.2 clipbox
/o {
gsave
newpath
translate
0.5 setlinewidth
1 setlinejoin
0 setlinecap
0 -1.5 m
0.397805 -1.5 0.77937 -1.34195 1.06066 -1.06066 c
1.34195 -0.77937 1.5 -0.397805 1.5 0 c
1.5 0.397805 1.34195 0.77937 1.06066 1.06066 c
0.77937 1.34195 0.397805 1.5 0 1.5 c
-0.397805 1.5 -0.77937 1.34195 -1.06066 1.06066 c
-1.34195 0.77937 -1.5 0.397805 -1.5 0 c
-1.5 -0.397805 -1.34195 -0.77937 -1.06066 -1.06066 c
-0.77937 -1.34195 -0.397805 -1.5 0 -1.5 c
cl
gsave
0.000 0.000 1.000 setrgbcolor
fill
grestore
stroke
grestore
} bind def
226.086 216.892 o
219.174 216.981 o
219.083 210.07 o
225.994 209.98 o
226.086 216.892 o
grestore
1.000 setlinewidth
2 setlinecap
1.000 0.000 0.000 setrgbcolor
gsave
345.6 345.6 122.4 43.2 clipbox
229.777 238.025 m
223.234 240.227 l
220.976 233.685 l
227.519 231.483 l
229.777 238.025 l
stroke
grestore
0.500 setlinewidth
0 setlinecap
0.000 0.000 1.000 setrgbcolor
gsave
345.6 345.6 122.4 43.2 clipbox
/o {
gsave
newpath
translate
0.5 setlinewidth
1 setlinejoin
0 setlinecap
0 -1.5 m
0.397805 -1.5 0.77937 -1.34195 1.06066 -1.06066 c
1.34195 -0.77937 1.5 -0.397805 1.5 0 c
1.5 0.397805 1.34195 0.77937 1.06066 1.06066 c
0.77937 1.34195 0.397805 1.5 0 1.5 c
-0.397805 1.5 -0.77937 1.34195 -1.06066 1.06066 c
-1.34195 0.77937 -1.5 0.397805 -1.5 0 c
-1.5 -0.397805 -1.34195 -0.77937 -1.06066 -1.06066 c
-0.77937 -1.34195 -0.397805 -1.5 0 -1.5 c
cl
gsave
0.000 0.000 1.000 setrgbcolor
fill
grestore
stroke
grestore
} bind def
229.777 238.025 o
223.234 240.227 o
220.976 233.685 o
227.519 231.483 o
229.777 238.025 o
grestore
1.000 setlinewidth
2 setlinecap
1.000 0.000 0.000 setrgbcolor
gsave
345.6 345.6 122.4 43.2 clipbox
239.925 256.984 m
234.397 261.083 l
230.195 255.555 l
235.722 251.457 l
239.925 256.984 l
stroke
grestore
0.500 setlinewidth
0 setlinecap
0.000 0.000 1.000 setrgbcolor
gsave
345.6 345.6 122.4 43.2 clipbox
/o {
gsave
newpath
translate
0.5 setlinewidth
1 setlinejoin
0 setlinecap
0 -1.5 m
0.397805 -1.5 0.77937 -1.34195 1.06066 -1.06066 c
1.34195 -0.77937 1.5 -0.397805 1.5 0 c
1.5 0.397805 1.34195 0.77937 1.06066 1.06066 c
0.77937 1.34195 0.397805 1.5 0 1.5 c
-0.397805 1.5 -0.77937 1.34195 -1.06066 1.06066 c
-1.34195 0.77937 -1.5 0.397805 -1.5 0 c
-1.5 -0.397805 -1.34195 -0.77937 -1.06066 -1.06066 c
-0.77937 -1.34195 -0.397805 -1.5 0 -1.5 c
cl
gsave
0.000 0.000 1.000 setrgbcolor
fill
grestore
stroke
grestore
} bind def
239.925 256.984 o
234.397 261.083 o
230.195 255.555 o
235.722 251.457 o
239.925 256.984 o
grestore
1.000 setlinewidth
2 setlinecap
1.000 0.000 0.000 setrgbcolor
gsave
345.6 345.6 122.4 43.2 clipbox
255.528 271.899 m
251.561 277.488 l
245.829 273.521 l
249.797 267.931 l
255.528 271.899 l
stroke
grestore
0.500 setlinewidth
0 setlinecap
0.000 0.000 1.000 setrgbcolor
gsave
345.6 345.6 122.4 43.2 clipbox
/o {
gsave
newpath
translate
0.5 setlinewidth
1 setlinejoin
0 setlinecap
0 -1.5 m
0.397805 -1.5 0.77937 -1.34195 1.06066 -1.06066 c
1.34195 -0.77937 1.5 -0.397805 1.5 0 c
1.5 0.397805 1.34195 0.77937 1.06066 1.06066 c
0.77937 1.34195 0.397805 1.5 0 1.5 c
-0.397805 1.5 -0.77937 1.34195 -1.06066 1.06066 c
-1.34195 0.77937 -1.5 0.397805 -1.5 0 c
-1.5 -0.397805 -1.34195 -0.77937 -1.06066 -1.06066 c
-0.77937 -1.34195 -0.397805 -1.5 0 -1.5 c
cl
gsave
0.000 0.000 1.000 setrgbcolor
fill
grestore
stroke
grestore
} bind def
255.528 271.899 o
251.561 277.488 o
245.829 273.521 o
249.797 267.931 o
255.528 271.899 o
grestore
1.000 setlinewidth
2 setlinecap
1.000 0.000 0.000 setrgbcolor
gsave
345.6 345.6 122.4 43.2 clipbox
275.047 281.296 m
273.031 287.826 l
266.337 285.81 l
268.352 279.281 l
275.047 281.296 l
stroke
grestore
0.500 setlinewidth
0 setlinecap
0.000 0.000 1.000 setrgbcolor
gsave
345.6 345.6 122.4 43.2 clipbox
/o {
gsave
newpath
translate
0.5 setlinewidth
1 setlinejoin
0 setlinecap
0 -1.5 m
0.397805 -1.5 0.77937 -1.34195 1.06066 -1.06066 c
1.34195 -0.77937 1.5 -0.397805 1.5 0 c
1.5 0.397805 1.34195 0.77937 1.06066 1.06066 c
0.77937 1.34195 0.397805 1.5 0 1.5 c
-0.397805 1.5 -0.77937 1.34195 -1.06066 1.06066 c
-1.34195 0.77937 -1.5 0.397805 -1.5 0 c
-1.5 -0.397805 -1.34195 -0.77937 -1.06066 -1.06066 c
-0.77937 -1.34195 -0.397805 -1.5 0 -1.5 c
cl
gsave
0.000 0.000 1.000 setrgbcolor
fill
grestore
stroke
grestore
} bind def
275.047 281.296 o
273.031 287.826 o
266.337 285.81 o
268.352 279.281 o
275.047 281.296 o
grestore
1.000 setlinewidth
2 setlinecap
1.000 0.000 0.000 setrgbcolor
gsave
345.6 345.6 122.4 43.2 clipbox
296.554 284.249 m
296.69 291.074 l
289.692 291.209 l
289.557 284.384 l
296.554 284.249 l
stroke
grestore
0.500 setlinewidth
0 setlinecap
0.000 0.000 1.000 setrgbcolor
gsave
345.6 345.6 122.4 43.2 clipbox
/o {
gsave
newpath
translate
0.5 setlinewidth
1 setlinejoin
0 setlinecap
0 -1.5 m
0.397805 -1.5 0.77937 -1.34195 1.06066 -1.06066 c
1.34195 -0.77937 1.5 -0.397805 1.5 0 c
1.5 0.397805 1.34195 0.77937 1.06066 1.06066 c
0.77937 1.34195 0.397805 1.5 0 1.5 c
-0.397805 1.5 -0.77937 1.34195 -1.06066 1.06066 c
-1.34195 0.77937 -1.5 0.397805 -1.5 0 c
-1.5 -0.397805 -1.34195 -0.77937 -1.06066 -1.06066 c
-0.77937 -1.34195 -0.397805 -1.5 0 -1.5 c
cl
gsave
0.000 0.000 1.000 setrgbcolor
fill
grestore
stroke
grestore
} bind def
296.554 284.249 o
296.69 291.074 o
289.692 291.209 o
289.557 284.384 o
296.554 284.249 o
grestore
1.000 setlinewidth
2 setlinecap
1.000 0.000 0.000 setrgbcolor
gsave
345.6 345.6 122.4 43.2 clipbox
317.929 280.466 m
320.202 286.912 l
313.592 289.185 l
311.319 282.739 l
317.929 280.466 l
stroke
grestore
0.500 setlinewidth
0 setlinecap
0.000 0.000 1.000 setrgbcolor
gsave
345.6 345.6 122.4 43.2 clipbox
/o {
gsave
newpath
translate
0.5 setlinewidth
1 setlinejoin
0 setlinecap
0 -1.5 m
0.397805 -1.5 0.77937 -1.34195 1.06066 -1.06066 c
1.34195 -0.77937 1.5 -0.397805 1.5 0 c
1.5 0.397805 1.34195 0.77937 1.06066 1.06066 c
0.77937 1.34195 0.397805 1.5 0 1.5 c
-0.397805 1.5 -0.77937 1.34195 -1.06066 1.06066 c
-1.34195 0.77937 -1.5 0.397805 -1.5 0 c
-1.5 -0.397805 -1.34195 -0.77937 -1.06066 -1.06066 c
-0.77937 -1.34195 -0.397805 -1.5 0 -1.5 c
cl
gsave
0.000 0.000 1.000 setrgbcolor
fill
grestore
stroke
grestore
} bind def
317.929 280.466 o
320.202 286.912 o
313.592 289.185 o
311.319 282.739 o
317.929 280.466 o
grestore
1.000 setlinewidth
2 setlinecap
1.000 0.000 0.000 setrgbcolor
gsave
345.6 345.6 122.4 43.2 clipbox
337.06 270.32 m
341.246 275.752 l
335.676 279.938 l
331.49 274.506 l
337.06 270.32 l
stroke
grestore
0.500 setlinewidth
0 setlinecap
0.000 0.000 1.000 setrgbcolor
gsave
345.6 345.6 122.4 43.2 clipbox
/o {
gsave
newpath
translate
0.5 setlinewidth
1 setlinejoin
0 setlinecap
0 -1.5 m
0.397805 -1.5 0.77937 -1.34195 1.06066 -1.06066 c
1.34195 -0.77937 1.5 -0.397805 1.5 0 c
1.5 0.397805 1.34195 0.77937 1.06066 1.06066 c
0.77937 1.34195 0.397805 1.5 0 1.5 c
-0.397805 1.5 -0.77937 1.34195 -1.06066 1.06066 c
-1.34195 0.77937 -1.5 0.397805 -1.5 0 c
-1.5 -0.397805 -1.34195 -0.77937 -1.06066 -1.06066 c
-0.77937 -1.34195 -0.397805 -1.5 0 -1.5 c
cl
gsave
0.000 0.000 1.000 setrgbcolor
fill
grestore
stroke
grestore
} bind def
337.06 270.32 o
341.246 275.752 o
335.676 279.938 o
331.49 274.506 o
337.06 270.32 o
grestore
1.000 setlinewidth
2 setlinecap
1.000 0.000 0.000 setrgbcolor
gsave
345.6 345.6 122.4 43.2 clipbox
352.059 254.814 m
357.745 258.695 l
353.765 264.381 l
348.08 260.5 l
352.059 254.814 l
stroke
grestore
0.500 setlinewidth
0 setlinecap
0.000 0.000 1.000 setrgbcolor
gsave
345.6 345.6 122.4 43.2 clipbox
/o {
gsave
newpath
translate
0.5 setlinewidth
1 setlinejoin
0 setlinecap
0 -1.5 m
0.397805 -1.5 0.77937 -1.34195 1.06066 -1.06066 c
1.34195 -0.77937 1.5 -0.397805 1.5 0 c
1.5 0.397805 1.34195 0.77937 1.06066 1.06066 c
0.77937 1.34195 0.397805 1.5 0 1.5 c
-0.397805 1.5 -0.77937 1.34195 -1.06066 1.06066 c
-1.34195 0.77937 -1.5 0.397805 -1.5 0 c
-1.5 -0.397805 -1.34195 -0.77937 -1.06066 -1.06066 c
-0.77937 -1.34195 -0.397805 -1.5 0 -1.5 c
cl
gsave
0.000 0.000 1.000 setrgbcolor
fill
grestore
stroke
grestore
} bind def
352.059 254.814 o
357.745 258.695 o
353.765 264.381 o
348.08 260.5 o
352.059 254.814 o
grestore
1.000 setlinewidth
2 setlinecap
1.000 0.000 0.000 setrgbcolor
gsave
345.6 345.6 122.4 43.2 clipbox
361.447 235.476 m
368.072 237.424 l
366.075 244.049 l
359.45 242.101 l
361.447 235.476 l
stroke
grestore
0.500 setlinewidth
0 setlinecap
0.000 0.000 1.000 setrgbcolor
gsave
345.6 345.6 122.4 43.2 clipbox
/o {
gsave
newpath
translate
0.5 setlinewidth
1 setlinejoin
0 setlinecap
0 -1.5 m
0.397805 -1.5 0.77937 -1.34195 1.06066 -1.06066 c
1.34195 -0.77937 1.5 -0.397805 1.5 0 c
1.5 0.397805 1.34195 0.77937 1.06066 1.06066 c
0.77937 1.34195 0.397805 1.5 0 1.5 c
-0.397805 1.5 -0.77937 1.34195 -1.06066 1.06066 c
-1.34195 0.77937 -1.5 0.397805 -1.5 0 c
-1.5 -0.397805 -1.34195 -0.77937 -1.06066 -1.06066 c
-0.77937 -1.34195 -0.397805 -1.5 0 -1.5 c
cl
gsave
0.000 0.000 1.000 setrgbcolor
fill
grestore
stroke
grestore
} bind def
361.447 235.476 o
368.072 237.424 o
366.075 244.049 o
359.45 242.101 o
361.447 235.476 o
grestore
1.000 setlinewidth
0 setlinejoin
2 setlinecap
0.000 setgray
gsave
122.4 388.8 m
468 388.8 l
stroke
grestore
gsave
468 43.2 m
468 388.8 l
stroke
grestore
gsave
122.4 43.2 m
468 43.2 l
stroke
grestore
gsave
122.4 43.2 m
122.4 388.8 l
stroke
grestore
0.500 setlinewidth
1 setlinejoin
0 setlinecap
gsave
/o {
gsave
newpath
translate
0.5 setlinewidth
1 setlinejoin
0 setlinecap
0 0 m
0 4 l
gsave
0.000 setgray
fill
grestore
stroke
grestore
} bind def
156.96 43.2 o
grestore
gsave
/o {
gsave
newpath
translate
0.5 setlinewidth
1 setlinejoin
0 setlinecap
0 0 m
0 -4 l
gsave
0.000 setgray
fill
grestore
stroke
grestore
} bind def
156.96 388.8 o
grestore
/BitstreamVeraSans-Roman findfont
12.000 scalefont
setfont
gsave
149.342812 30.075000 translate
0.000000 rotate
0.000000 0.000000 m /minus glyphshow
10.054688 0.000000 m /two glyphshow
grestore
gsave
/o {
gsave
newpath
translate
0.5 setlinewidth
1 setlinejoin
0 setlinecap
0 0 m
0 4 l
gsave
0.000 setgray
fill
grestore
stroke
grestore
} bind def
226.08 43.2 o
grestore
gsave
/o {
gsave
newpath
translate
0.5 setlinewidth
1 setlinejoin
0 setlinecap
0 0 m
0 -4 l
gsave
0.000 setgray
fill
grestore
stroke
grestore
} bind def
226.08 388.8 o
grestore
gsave
218.415937 30.075000 translate
0.000000 rotate
0.000000 0.000000 m /minus glyphshow
10.054688 0.000000 m /one glyphshow
grestore
gsave
/o {
gsave
newpath
translate
0.5 setlinewidth
1 setlinejoin
0 setlinecap
0 0 m
0 4 l
gsave
0.000 setgray
fill
grestore
stroke
grestore
} bind def
295.2 43.2 o
grestore
gsave
/o {
gsave
newpath
translate
0.5 setlinewidth
1 setlinejoin
0 setlinecap
0 0 m
0 -4 l
gsave
0.000 setgray
fill
grestore
stroke
grestore
} bind def
295.2 388.8 o
grestore
gsave
292.176562 30.075000 translate
0.000000 rotate
0.000000 0.000000 m /zero glyphshow
grestore
gsave
/o {
gsave
newpath
translate
0.5 setlinewidth
1 setlinejoin
0 setlinecap
0 0 m
0 4 l
gsave
0.000 setgray
fill
grestore
stroke
grestore
} bind def
364.32 43.2 o
grestore
gsave
/o {
gsave
newpath
translate
0.5 setlinewidth
1 setlinejoin
0 setlinecap
0 0 m
0 -4 l
gsave
0.000 setgray
fill
grestore
stroke
grestore
} bind def
364.32 388.8 o
grestore
gsave
361.710625 30.075000 translate
0.000000 rotate
0.000000 0.000000 m /one glyphshow
grestore
gsave
/o {
gsave
newpath
translate
0.5 setlinewidth
1 setlinejoin
0 setlinecap
0 0 m
0 4 l
gsave
0.000 setgray
fill
grestore
stroke
grestore
} bind def
433.44 43.2 o
grestore
gsave
/o {
gsave
newpath
translate
0.5 setlinewidth
1 setlinejoin
0 setlinecap
0 0 m
0 -4 l
gsave
0.000 setgray
fill
grestore
stroke
grestore
} bind def
433.44 388.8 o
grestore
gsave
430.658750 30.075000 translate
0.000000 rotate
0.000000 0.000000 m /two glyphshow
grestore
gsave
272.489062 13.450000 translate
0.000000 rotate
0.000000 0.000000 m /p glyphshow
7.617188 0.000000 m /o glyphshow
14.958984 0.000000 m /s glyphshow
21.210938 0.000000 m /i glyphshow
24.544922 0.000000 m /t glyphshow
29.250000 0.000000 m /i glyphshow
32.583984 0.000000 m /o glyphshow
39.925781 0.000000 m /n glyphshow
grestore
gsave
/o {
gsave
newpath
translate
0.5 setlinewidth
1 setlinejoin
0 setlinecap
0 0 m
4 0 l
gsave
0.000 setgray
fill
grestore
stroke
grestore
} bind def
122.4 77.76 o
grestore
gsave
/o {
gsave
newpath
translate
0.5 setlinewidth
1 setlinejoin
0 setlinecap
0 0 m
-4 0 l
gsave
0.000 setgray
fill
grestore
stroke
grestore
} bind def
468 77.76 o
grestore
gsave
103.165625 74.447500 translate
0.000000 rotate
0.000000 0.000000 m /minus glyphshow
10.054688 0.000000 m /two glyphshow
grestore
gsave
/o {
gsave
newpath
translate
0.5 setlinewidth
1 setlinejoin
0 setlinecap
0 0 m
4 0 l
gsave
0.000 setgray
fill
grestore
stroke
grestore
} bind def
122.4 146.88 o
grestore
gsave
/o {
gsave
newpath
translate
0.5 setlinewidth
1 setlinejoin
0 setlinecap
0 0 m
-4 0 l
gsave
0.000 setgray
fill
grestore
stroke
grestore
} bind def
468 146.88 o
grestore
gsave
103.071875 143.567500 translate
0.000000 rotate
0.000000 0.000000 m /minus glyphshow
10.054688 0.000000 m /one glyphshow
grestore
gsave
/o {
gsave
newpath
translate
0.5 setlinewidth
1 setlinejoin
0 setlinecap
0 0 m
4 0 l
gsave
0.000 setgray
fill
grestore
stroke
grestore
} bind def
122.4 216 o
grestore
gsave
/o {
gsave
newpath
translate
0.5 setlinewidth
1 setlinejoin
0 setlinecap
0 0 m
-4 0 l
gsave
0.000 setgray
fill
grestore
stroke
grestore
} bind def
468 216 o
grestore
gsave
112.353125 212.687500 translate
0.000000 rotate
0.000000 0.000000 m /zero glyphshow
grestore
gsave
/o {
gsave
newpath
translate
0.5 setlinewidth
1 setlinejoin
0 setlinecap
0 0 m
4 0 l
gsave
0.000 setgray
fill
grestore
stroke
grestore
} bind def
122.4 285.12 o
grestore
gsave
/o {
gsave
newpath
translate
0.5 setlinewidth
1 setlinejoin
0 setlinecap
0 0 m
-4 0 l
gsave
0.000 setgray
fill
grestore
stroke
grestore
} bind def
468 285.12 o
grestore
gsave
113.181250 281.807500 translate
0.000000 rotate
0.000000 0.000000 m /one glyphshow
grestore
gsave
/o {
gsave
newpath
translate
0.5 setlinewidth
1 setlinejoin
0 setlinecap
0 0 m
4 0 l
gsave
0.000 setgray
fill
grestore
stroke
grestore
} bind def
122.4 354.24 o
grestore
gsave
/o {
gsave
newpath
translate
0.5 setlinewidth
1 setlinejoin
0 setlinecap
0 0 m
-4 0 l
gsave
0.000 setgray
fill
grestore
stroke
grestore
} bind def
468 354.24 o
grestore
gsave
112.837500 350.927500 translate
0.000000 rotate
0.000000 0.000000 m /two glyphshow
grestore
gsave
95.571875 182.195312 translate
90.000000 rotate
0.000000 0.000000 m /m glyphshow
11.689453 0.000000 m /o glyphshow
19.031250 0.000000 m /m glyphshow
30.720703 0.000000 m /e glyphshow
38.103516 0.000000 m /n glyphshow
45.708984 0.000000 m /t glyphshow
50.414062 0.000000 m /u glyphshow
58.019531 0.000000 m /m glyphshow
grestore

end
showpage
